<?xml version="1.0" encoding="UTF-8" standalone="no"?>
<svg
   xmlns:osb="http://www.openswatchbook.org/uri/2009/osb"
   xmlns:dc="http://purl.org/dc/elements/1.1/"
   xmlns:cc="http://creativecommons.org/ns#"
   xmlns:rdf="http://www.w3.org/1999/02/22-rdf-syntax-ns#"
   xmlns:svg="http://www.w3.org/2000/svg"
   xmlns="http://www.w3.org/2000/svg"
   xmlns:sodipodi="http://sodipodi.sourceforge.net/DTD/sodipodi-0.dtd"
   xmlns:inkscape="http://www.inkscape.org/namespaces/inkscape"
   width="64"
   viewBox="0 0 64 64"
   height="64"
   id="svg2"
   version="1.1"
   inkscape:version="0.92.3 (2405546, 2018-03-11)"
   sodipodi:docname="application-vnd.ms-cab-compressed.svg"
   inkscape:export-filename="E:\Usuarios\David\Desktop\android.png"
   inkscape:export-xdpi="90"
   inkscape:export-ydpi="90">
  <metadata
     id="metadata14">
    <rdf:RDF>
      <cc:Work
         rdf:about="">
        <dc:format>image/svg+xml</dc:format>
        <dc:type
           rdf:resource="http://purl.org/dc/dcmitype/StillImage" />
        <dc:title></dc:title>
      </cc:Work>
    </rdf:RDF>
  </metadata>
  <defs
     id="defs12">
    <linearGradient
       osb:paint="gradient"
       id="linearGradient4207">
      <stop
         id="stop3371"
         offset="0"
         style="stop-color:#3498db;stop-opacity:1;" />
      <stop
         id="stop3373"
         offset="1"
         style="stop-color:#3498db;stop-opacity:0;" />
    </linearGradient>
    <linearGradient
       id="linearGradient4422-4">
      <stop
         style="stop-color:#d1d7df;stop-opacity:1"
         offset="0"
         id="stop4424-3" />
      <stop
         style="stop-color:#e0e5e7;stop-opacity:1"
         offset="1"
         id="stop4426-4" />
    </linearGradient>
  </defs>
  <sodipodi:namedview
     pagecolor="#747474"
     bordercolor="#666666"
     borderopacity="1"
     objecttolerance="10"
     gridtolerance="10"
     guidetolerance="10"
     inkscape:pageopacity="1"
     inkscape:pageshadow="2"
     inkscape:window-width="1920"
     inkscape:window-height="1051"
     id="namedview10"
     showgrid="false"
     inkscape:zoom="14.910439"
     inkscape:cx="12.846429"
     inkscape:cy="19.818376"
     inkscape:window-x="0"
     inkscape:window-y="0"
     inkscape:window-maximized="1"
     inkscape:current-layer="text4269"
     inkscape:snap-bbox="true"
     inkscape:bbox-nodes="true"
     inkscape:object-nodes="true"
     borderlayer="false"
     showguides="true"
     inkscape:snap-nodes="true"
     inkscape:object-paths="false"
     inkscape:showpageshadow="false"
     showborder="true"
     inkscape:snap-global="false"
     inkscape:guide-bbox="true">
    <inkscape:grid
       type="xygrid"
       id="grid4160"
       visible="true" />
    <sodipodi:guide
       position="28.888657,63.404975"
       orientation="0,35.2"
       id="guide6108"
       inkscape:locked="false" />
    <sodipodi:guide
       position="54,55.679691"
       orientation="51.200004,0"
       id="guide6112"
       inkscape:locked="false" />
    <sodipodi:guide
       position="58.527669,62"
       orientation="0,1"
       id="guide6114"
       inkscape:label=""
       inkscape:color="rgb(0,0,255)"
       inkscape:locked="false" />
    <sodipodi:guide
       position="10,4"
       orientation="-56,0"
       id="guide6116"
       inkscape:locked="false" />
    <sodipodi:guide
       position="11,4"
       orientation="-2.8421709e-014,0"
       id="guide6118"
       inkscape:locked="false" />
    <sodipodi:guide
       position="12,62"
       orientation="0,35.2"
       id="guide6120"
       inkscape:locked="false" />
    <sodipodi:guide
       position="52,2"
       orientation="0,-40"
       id="guide6126"
       inkscape:locked="false" />
    <sodipodi:guide
       position="12,62"
       orientation="0,35.2"
       id="guide6138"
       inkscape:locked="false" />
    <sodipodi:guide
       position="55,3"
       orientation="0,-40"
       id="guide6156"
       inkscape:locked="false" />
    <sodipodi:guide
       position="53,4.3973202"
       orientation="-56,0"
       id="guide6158"
       inkscape:locked="false" />
    <sodipodi:guide
       position="43,48"
       orientation="22,0"
       id="guide4240"
       inkscape:locked="false" />
    <sodipodi:guide
       position="43,26"
       orientation="0,-22"
       id="guide4242"
       inkscape:locked="false" />
    <sodipodi:guide
       position="21,26"
       orientation="-22,0"
       id="guide4244"
       inkscape:locked="false" />
    <sodipodi:guide
       position="35.378009,4.7897841"
       orientation="0,1"
       id="guide4516"
       inkscape:locked="false" />
  </sodipodi:namedview>
  <g
     id="g4186"
     transform="translate(56.391766,-0.17677665)">
    <g
       style="font-style:normal;font-weight:normal;font-size:9.36996746px;line-height:125%;font-family:sans-serif;letter-spacing:0px;word-spacing:0px;fill:#ffffff;fill-opacity:1;stroke:none;stroke-width:1px;stroke-linecap:butt;stroke-linejoin:miter;stroke-opacity:1"
       id="text4161"
       transform="matrix(0.81954967,0,0,0.81954967,-3.934286,10.52183)">
      <g
         style="font-style:normal;font-weight:normal;font-size:13.75px;line-height:125%;font-family:sans-serif;letter-spacing:0px;word-spacing:0px;fill:#ffffff;fill-opacity:1;stroke:none;stroke-width:1px;stroke-linecap:butt;stroke-linejoin:miter;stroke-opacity:1"
         id="text4269">
        <path
           inkscape:connector-curvature="0"
           style="fill:#e2e5e7;stroke-width:0.13624011"
           d="m -47.291695,-10.302613 c -2.397837,0 -4.359649,1.961858 -4.359649,4.3596843 V 55.092636 c 0,2.397827 1.961812,4.359684 4.359649,4.359684 h 43.5968565 c 2.3978306,0 4.35968537,-1.961857 4.35968537,-4.359684 V 7.1361219 L -16.773882,-10.302613 Z"
           id="path2" />
        <path
           inkscape:connector-curvature="0"
           style="fill:#b0b7bd;stroke-width:0.13624011"
           d="M -12.414195,7.1361219 H 0.66484687 L -16.773882,-10.302613 V 2.7764365 c 0,2.3978263 1.96185,4.3596854 4.359687,4.3596854 z"
           id="path4" />
        <path
           inkscape:connector-curvature="0"
           style="fill:#3fbc1d;fill-opacity:1;stroke-width:0.13624011"
           d="m -8.0545268,46.373272 c 0,1.198912 -0.9809153,2.17984 -2.1798452,2.17984 h -47.956485 c -1.19891,0 -2.179864,-0.980928 -2.179864,-2.17984 V 24.574855 c 0,-1.198914 0.980954,-2.179842 2.179864,-2.179842 h 47.956485 c 1.1989299,0 2.1798452,0.980928 2.1798452,2.179842 z"
           id="path8" />
        <g
           transform="matrix(0.1362401,0,0,0.1362401,-64.730369,-10.302613)"
           id="g16">
          <path
             inkscape:connector-curvature="0"
             style="fill:#ffffff"
             d="m 90.592,339.088 c 0,-24.688 15.472,-45.904 44.912,-45.904 11.12,0 19.952,3.312 29.296,11.376 3.456,3.184 3.824,8.832 0.368,12.4 -3.456,3.056 -8.704,2.688 -11.76,-0.368 -5.248,-5.504 -10.624,-7.024 -17.904,-7.024 -19.696,0 -29.168,13.936 -29.168,29.536 0,15.872 9.328,30.464 29.168,30.464 7.28,0 14.064,-2.96 19.952,-8.192 3.968,-3.072 9.472,-1.552 11.76,1.536 2.048,2.816 3.072,7.536 -1.408,12.016 -8.96,8.336 -19.696,9.984 -30.32,9.984 -30.944,0 -44.896,-21.12 -44.896,-45.824 z"
             id="path10" />
          <path
             inkscape:connector-curvature="0"
             style="fill:#ffffff"
             d="m 195.056,384 c -4.224,0 -8.832,-2.304 -8.832,-7.92 v -72.672 c 0,-4.592 4.608,-7.936 8.832,-7.936 h 29.296 c 58.464,0 57.184,88.528 1.152,88.528 z m 8.064,-72.912 V 368.4 h 21.232 c 34.544,0 36.08,-57.312 0,-57.312 z"
             id="path12" />
          <path
             inkscape:connector-curvature="0"
             style="fill:#ffffff"
             d="m 302.592,375.68 c 0,11.12 -17.008,11.52 -17.008,0.256 V 303.28 c 0,-4.464 3.456,-7.808 7.664,-7.808 h 34.032 c 32.496,0 39.152,43.504 12.032,54.368 l 17.008,20.736 c 6.656,9.856 -6.656,19.312 -14.336,9.6 l -19.312,-27.648 h -20.096 v 23.152 z m 0,-37.856 h 24.688 c 16.64,0 17.664,-26.864 0,-26.864 h -24.688 z"
             id="path14" />
        </g>
        <path
           inkscape:connector-curvature="0"
           style="fill:#cad1d8;stroke-width:0.13624011"
           d="m -10.234372,48.553112 h -41.416972 v 2.179841 h 41.416972 c 1.1989299,0 2.1798452,-0.980928 2.1798452,-2.179841 v -2.17984 c 0,1.198912 -0.9809153,2.17984 -2.1798452,2.17984 z"
           id="path18" />
        <g
           id="g2577"
           transform="matrix(0.10569825,0,0,0.10569825,-47.361592,12.739939)">
          <g
             transform="matrix(5.263902,0.5278525,-0.5275375,5.2670465,-403.47814,-3928.0369)"
             id="g4762">
            <g
               id="g4719">
              <g
                 id="g2455"
                 transform="translate(60.982143,10.178572)"
                 style="stroke:none">
                <path
                   inkscape:connector-curvature="0"
                   sodipodi:nodetypes="ccccccc"
                   id="path2450"
                   d="m 111.05105,717.74893 -21.03519,-14.30442 22.19222,-9.25427 3.28823,6.2304 -3.86675,5.54895 2.1336,5.71932 z"
                   style="fill:#3fbc1d;fill-opacity:1;fill-rule:nonzero;stroke:none;stroke-width:2;stroke-miterlimit:4;stroke-opacity:1"
                   transform="rotate(-68.875472,118.60494,705.21877)" />
                <path
                   inkscape:connector-curvature="0"
                   transform="rotate(-68.875472,118.60494,705.21877)"
                   style="fill:#000000;fill-opacity:1;fill-rule:nonzero;stroke:none;stroke-width:2;stroke-miterlimit:4;stroke-opacity:1"
                   d="m 96.261946,707.68433 -6.246086,-4.23982 7.047552,-2.93887 z"
                   id="path2453"
                   sodipodi:nodetypes="cccc" />
              </g>
              <path
                 inkscape:connector-curvature="0"
                 style="fill:#3fbc1d;fill-opacity:1;fill-rule:evenodd;stroke:none;stroke-width:1px;stroke-linecap:butt;stroke-linejoin:miter;stroke-opacity:1"
                 d="m 176.51785,700.93361 -9.19642,15.26786 6.60713,-1.16072 7.76787,-13.39285 z"
                 id="path2459"
                 sodipodi:nodetypes="ccccc" />
              <path
                 inkscape:connector-curvature="0"
                 style="fill:#3fbc1d;fill-opacity:1;fill-rule:evenodd;stroke:none;stroke-width:1px;stroke-linecap:butt;stroke-linejoin:miter;stroke-opacity:1"
                 d="m 183.21428,702.09432 -8.03571,13.75 3.39286,5.08929 h 5.71428 l 7.75419,-13.6864 z"
                 id="path2461"
                 sodipodi:nodetypes="cccccc" />
              <path
                 inkscape:connector-curvature="0"
                 style="fill:#3fbc1d;fill-opacity:1;fill-rule:evenodd;stroke:none;stroke-width:1px;stroke-linecap:butt;stroke-linejoin:miter;stroke-opacity:1"
                 d="m 193.48214,708.34432 -8.125,13.39286 3.83929,4.28571 7.23214,-12.94643 z"
                 id="path2463"
                 sodipodi:nodetypes="ccccc" />
            </g>
          </g>
        </g>
      </g>
    </g>
    <g
       inkscape:transform-center-y="-9.4924686"
       inkscape:transform-center-x="5.4653607"
       inkscape:label="Capa 1"
       id="layer1-4"
       transform="translate(-509.70748,-515.64674)">
      <g
         id="layer1-3-65"
         inkscape:label="Capa 1"
         transform="translate(0.41988239,0.03484499)" />
    </g>
  </g>
</svg>
