<?xml version="1.0" encoding="UTF-8" standalone="no"?>
<svg
   xmlns:dc="http://purl.org/dc/elements/1.1/"
   xmlns:cc="http://creativecommons.org/ns#"
   xmlns:rdf="http://www.w3.org/1999/02/22-rdf-syntax-ns#"
   xmlns:svg="http://www.w3.org/2000/svg"
   xmlns="http://www.w3.org/2000/svg"
   xmlns:sodipodi="http://sodipodi.sourceforge.net/DTD/sodipodi-0.dtd"
   xmlns:inkscape="http://www.inkscape.org/namespaces/inkscape"
   width="48"
   height="48"
   id="svg2"
   version="1.1"
   inkscape:version="0.91 r13725"
   sodipodi:docname="wps-office-ppt.svg">
  <metadata
     id="metadata16">
    <rdf:RDF>
      <cc:Work
         rdf:about="">
        <dc:format>image/svg+xml</dc:format>
        <dc:type
           rdf:resource="http://purl.org/dc/dcmitype/StillImage" />
        <dc:title />
      </cc:Work>
    </rdf:RDF>
  </metadata>
  <defs
     id="defs14" />
  <sodipodi:namedview
     pagecolor="#ffffff"
     bordercolor="#666666"
     borderopacity="1"
     objecttolerance="10"
     gridtolerance="10"
     guidetolerance="10"
     inkscape:pageopacity="0"
     inkscape:pageshadow="2"
     inkscape:window-width="1366"
     inkscape:window-height="746"
     id="namedview12"
     showgrid="false"
     inkscape:zoom="256"
     inkscape:cx="33.104808"
     inkscape:cy="36.032108"
     inkscape:window-x="0"
     inkscape:window-y="0"
     inkscape:window-maximized="1"
     inkscape:current-layer="svg2" />
  <path
     d="m 32.075342,2.8662132 -21.925874,0 0,40.8618528 30.895548,0 0,-31.892179 z m 0,0 0,8.9696738 8.969674,0"
     id="path4"
     inkscape:connector-curvature="0"
     style="fill:#ffffff;stroke:#999999;stroke-width:0.4983153" />
  <path
     d="m 9.4019943,23.297139 1.4949447,7.973045 1.494946,0 1.245789,-5.481468 1.245787,5.481468 1.494947,0 1.494946,-7.973045 -1.320534,0 -0.996632,5.481468 -1.245788,-5.481468 -1.494946,0 -0.996631,5.481468 -1.245789,-5.481468"
     id="path10"
     inkscape:connector-curvature="0"
     style="fill:#ffffff" />
  <g
     id="g4246"
     transform="translate(48.790368,2.8284271)">
    <path
       d="m -15.769738,13.514019 a 7.490901,7.490901 0 0 1 -4.624258,6.92069 7.490901,7.490901 0 0 1 -8.16351,-1.623823 7.490901,7.490901 0 0 1 -1.623823,-8.163511 7.490901,7.490901 0 0 1 6.92069,-4.624257 l 0,7.490901 z"
       sodipodi:end="4.712389"
       sodipodi:start="0"
       sodipodi:ry="7.490901"
       sodipodi:rx="7.490901"
       sodipodi:cy="13.514019"
       sodipodi:cx="-23.260639"
       sodipodi:type="arc"
       id="path4242"
       style="opacity:1;fill:#939393;fill-opacity:1;fill-rule:nonzero;stroke:#818580;stroke-width:0;stroke-linecap:round;stroke-linejoin:round;stroke-miterlimit:4;stroke-dasharray:none;stroke-dashoffset:0;stroke-opacity:1" />
    <path
       d="m -22.062498,4.6250019 a 7.6874952,7.6874952 0 0 1 7.687495,7.6874951 l -7.687495,0 z"
       sodipodi:end="0"
       sodipodi:start="4.712389"
       sodipodi:ry="7.6874952"
       sodipodi:rx="7.6874952"
       sodipodi:cy="12.312497"
       sodipodi:cx="-22.062498"
       sodipodi:type="arc"
       id="path4244"
       style="opacity:1;fill:#f5b99c;fill-opacity:1;fill-rule:nonzero;stroke:#818580;stroke-width:0;stroke-linecap:round;stroke-linejoin:round;stroke-miterlimit:4;stroke-dasharray:none;stroke-dashoffset:0;stroke-opacity:1" />
  </g>
  <rect
     style="opacity:1;fill:#f5b99c;fill-opacity:1;fill-rule:nonzero;stroke:#818580;stroke-width:0;stroke-linecap:round;stroke-linejoin:round;stroke-miterlimit:4;stroke-dasharray:none;stroke-dashoffset:0;stroke-opacity:1"
     id="rect4250"
     width="21.59989"
     height="1.7235589"
     x="17.932039"
     y="39.791496"
     inkscape:transform-center-x="7.199963"
     inkscape:transform-center-y="-11.136843" />
  <rect
     style="opacity:1;fill:#f5b99c;fill-opacity:1;fill-rule:nonzero;stroke:#818580;stroke-width:0;stroke-linecap:round;stroke-linejoin:round;stroke-miterlimit:4;stroke-dasharray:none;stroke-dashoffset:0;stroke-opacity:1"
     id="rect4250-4"
     width="21.59989"
     height="1.7235589"
     x="17.897161"
     y="35.667938"
     inkscape:transform-center-x="7.199963"
     inkscape:transform-center-y="-11.136843" />
  <rect
     style="opacity:1;fill:#f5b99c;fill-opacity:1;fill-rule:nonzero;stroke:#818580;stroke-width:0;stroke-linecap:round;stroke-linejoin:round;stroke-miterlimit:4;stroke-dasharray:none;stroke-dashoffset:0;stroke-opacity:1"
     id="rect4250-4-8"
     width="21.59989"
     height="1.7235589"
     x="17.907423"
     y="31.604292"
     inkscape:transform-center-x="7.199963"
     inkscape:transform-center-y="-11.136843" />
  <rect
     style="opacity:1;fill:#f5b99c;fill-opacity:1;fill-rule:nonzero;stroke:#818580;stroke-width:0;stroke-linecap:round;stroke-linejoin:round;stroke-miterlimit:4;stroke-dasharray:none;stroke-dashoffset:0;stroke-opacity:1"
     id="rect4250-4-8-3"
     width="21.59989"
     height="1.7235589"
     x="17.948938"
     y="27.606291"
     inkscape:transform-center-x="7.199963"
     inkscape:transform-center-y="-11.136843" />
  <rect
     style="opacity:1;fill:#f5b99c;fill-opacity:1;fill-rule:nonzero;stroke:#818580;stroke-width:0;stroke-linecap:round;stroke-linejoin:round;stroke-miterlimit:4;stroke-dasharray:none;stroke-dashoffset:0;stroke-opacity:1"
     id="rect4250-4-2"
     width="1.7003074"
     height="1.723564"
     x="14.249413"
     y="39.787052"
     inkscape:transform-center-x="0.56677013"
     inkscape:transform-center-y="-11.136877" />
  <path
     inkscape:connector-curvature="0"
     style="fill:#d04626;fill-opacity:1;fill-rule:evenodd;stroke:none;stroke-width:0.44721052px;stroke-linecap:butt;stroke-linejoin:miter;stroke-opacity:1"
     d="m 22.075556,13.9055 c -0.05314,-0.05314 -15.0308402,2.57282 -15.1358933,2.653689 -0.055707,0.04288 -0.066989,2.062295 -0.055765,9.891809 l 0.014174,9.838116 7.4579296,1.323872 c 4.101879,0.728145 7.52072,1.31952 7.597538,1.314049 l 0.139608,-0.01 0.01418,-12.482892 c 0.0077,-6.865582 -0.0065,-12.50335 -0.03177,-12.52859 z m -7.432338,8.341044 c 0.591601,-0.005 0.812883,0.01366 1.011529,0.06649 0.690643,0.183709 1.153104,0.61877 1.391735,1.309705 0.112754,0.326479 0.130696,0.485672 0.130696,1.160507 0,0.87861 -0.05383,1.143225 -0.349362,1.716419 -0.438077,0.849703 -1.34071,1.328215 -2.505398,1.328215 -0.301379,0 -0.477323,0.02365 -0.504507,0.06763 -0.02295,0.03714 -0.06141,0.658013 -0.08546,1.379855 -0.02402,0.721839 -0.05622,1.344989 -0.07151,1.384881 -0.02913,0.0759 -0.203606,0.08014 -0.869179,0.02103 l -0.363072,-0.03222 -0.0144,-4.130879 c -0.0079,-2.28626 0.0074,-4.152453 0.03428,-4.17932 0.0267,-0.0267 0.686631,-0.06271 1.46668,-0.07996 0.292335,-0.0063 0.53077,-0.01068 0.72797,-0.01236 z m -0.873976,1.419385 0.0076,1.242759 c 0.0088,1.505734 0.01464,1.522821 0.510677,1.521975 0.21811,-3.51e-4 0.410095,-0.04237 0.603217,-0.132296 0.53782,-0.250435 0.781451,-0.715848 0.740992,-1.414586 -0.03054,-0.527282 -0.202581,-0.866055 -0.540836,-1.064764 -0.233904,-0.137407 -0.313341,-0.152764 -0.790805,-0.152861 l -0.530782,-2.32e-4 z"
     id="rect2993"
     sodipodi:nodetypes="ccscscccccccsssscccccscccccccccsccc" />
  <rect
     style="opacity:1;fill:#ffffff;fill-opacity:1;fill-rule:nonzero;stroke:#818580;stroke-width:0;stroke-linecap:round;stroke-linejoin:round;stroke-miterlimit:4;stroke-dasharray:none;stroke-dashoffset:0;stroke-opacity:1"
     id="rect4338"
     width="3.6484373"
     height="3.1484373"
     x="32.320312"
     y="8.4375" />
  <rect
     style="opacity:1;fill:#999999;fill-opacity:1;fill-rule:nonzero;stroke:#818580;stroke-width:0;stroke-linecap:round;stroke-linejoin:round;stroke-miterlimit:4;stroke-dasharray:none;stroke-dashoffset:0;stroke-opacity:1"
     id="rect4338-3"
     width="3.6743135"
     height="0.49072316"
     x="31.825876"
     y="11.59129" />
  <rect
     style="opacity:1;fill:#999999;fill-opacity:1;fill-rule:nonzero;stroke:#818580;stroke-width:0;stroke-linecap:round;stroke-linejoin:round;stroke-miterlimit:4;stroke-dasharray:none;stroke-dashoffset:0;stroke-opacity:1"
     id="rect4338-3-9"
     width="3.2783194"
     height="0.49072367"
     x="-12.087922"
     y="31.828564"
     transform="matrix(0,-1,1,0,0,0)" />
</svg>
