<?xml version="1.0" encoding="UTF-8" standalone="no"?>
<svg
   xmlns:osb="http://www.openswatchbook.org/uri/2009/osb"
   xmlns:dc="http://purl.org/dc/elements/1.1/"
   xmlns:cc="http://creativecommons.org/ns#"
   xmlns:rdf="http://www.w3.org/1999/02/22-rdf-syntax-ns#"
   xmlns:svg="http://www.w3.org/2000/svg"
   xmlns="http://www.w3.org/2000/svg"
   xmlns:xlink="http://www.w3.org/1999/xlink"
   xmlns:sodipodi="http://sodipodi.sourceforge.net/DTD/sodipodi-0.dtd"
   xmlns:inkscape="http://www.inkscape.org/namespaces/inkscape"
   width="64"
   viewBox="0 0 64 64"
   height="64"
   id="svg2"
   version="1.1"
   inkscape:version="0.92pre3 r"
   sodipodi:docname="application-x-blender (copia).svg"
   inkscape:export-filename="E:\Usuarios\David\Desktop\android.png"
   inkscape:export-xdpi="90"
   inkscape:export-ydpi="90">
  <metadata
     id="metadata14">
    <rdf:RDF>
      <cc:Work
         rdf:about="">
        <dc:format>image/svg+xml</dc:format>
        <dc:type
           rdf:resource="http://purl.org/dc/dcmitype/StillImage" />
        <dc:title></dc:title>
      </cc:Work>
    </rdf:RDF>
  </metadata>
  <defs
     id="defs12">
    <linearGradient
       osb:paint="gradient"
       id="linearGradient4207">
      <stop
         id="stop3371"
         offset="0"
         style="stop-color:#3498db;stop-opacity:1;" />
      <stop
         id="stop3373"
         offset="1"
         style="stop-color:#3498db;stop-opacity:0;" />
    </linearGradient>
    <linearGradient
       inkscape:collect="always"
       xlink:href="#linearGradient4422"
       id="linearGradient4182"
       x1="-74.929466"
       y1="52.199436"
       x2="-75.259552"
       y2="2.3564887"
       gradientUnits="userSpaceOnUse"
       gradientTransform="matrix(1.0749904,0,0,1.0292896,56.688954,-0.01528455)" />
    <linearGradient
       id="linearGradient4422">
      <stop
         style="stop-color:#f15f19;stop-opacity:1"
         offset="0"
         id="stop4424" />
      <stop
         style="stop-color:#fbb521;stop-opacity:1"
         offset="1"
         id="stop4426" />
    </linearGradient>
    <linearGradient
       id="linearGradient4422-6">
      <stop
         style="stop-color:#4d5052;stop-opacity:1"
         offset="0"
         id="stop4424-8" />
      <stop
         style="stop-color:#6f7376;stop-opacity:1"
         offset="1"
         id="stop4426-2" />
    </linearGradient>
    <linearGradient
       id="0"
       x1="-74.929001"
       y1="52.200001"
       x2="-75.260002"
       y2="2.3559999"
       gradientUnits="userSpaceOnUse"
       gradientTransform="matrix(1.07499,0,0,1.02929,56.689,0.117)">
      <stop
         stop-color="#ff721a"
         id="stop2" />
      <stop
         offset="1"
         stop-color="#fbb521"
         id="stop4" />
    </linearGradient>
  </defs>
  <sodipodi:namedview
     pagecolor="#747474"
     bordercolor="#666666"
     borderopacity="1"
     objecttolerance="10"
     gridtolerance="10"
     guidetolerance="10"
     inkscape:pageopacity="1"
     inkscape:pageshadow="2"
     inkscape:window-width="1366"
     inkscape:window-height="740"
     id="namedview10"
     showgrid="false"
     inkscape:zoom="21.086546"
     inkscape:cx="40.140207"
     inkscape:cy="12.596767"
     inkscape:window-x="0"
     inkscape:window-y="0"
     inkscape:window-maximized="1"
     inkscape:current-layer="text4176"
     inkscape:snap-bbox="true"
     inkscape:bbox-nodes="true"
     inkscape:object-nodes="true"
     borderlayer="false"
     showguides="true"
     inkscape:snap-nodes="true"
     inkscape:object-paths="false"
     inkscape:showpageshadow="false"
     showborder="true"
     inkscape:snap-global="false"
     inkscape:guide-bbox="true">
    <inkscape:grid
       type="xygrid"
       id="grid4160"
       visible="true" />
    <sodipodi:guide
       position="28.888657,63.404975"
       orientation="0,35.2"
       id="guide6108"
       inkscape:locked="false" />
    <sodipodi:guide
       position="54,55.679691"
       orientation="51.200004,0"
       id="guide6112"
       inkscape:locked="false" />
    <sodipodi:guide
       position="58.527669,62"
       orientation="0,1"
       id="guide6114"
       inkscape:label=""
       inkscape:color="rgb(0,0,255)"
       inkscape:locked="false" />
    <sodipodi:guide
       position="10,4"
       orientation="-56,0"
       id="guide6116"
       inkscape:locked="false" />
    <sodipodi:guide
       position="11,4"
       orientation="-2.8421709e-014,0"
       id="guide6118"
       inkscape:locked="false" />
    <sodipodi:guide
       position="12,62"
       orientation="0,35.2"
       id="guide6120"
       inkscape:locked="false" />
    <sodipodi:guide
       position="52,2"
       orientation="0,-40"
       id="guide6126"
       inkscape:locked="false" />
    <sodipodi:guide
       position="12,62"
       orientation="0,35.2"
       id="guide6138"
       inkscape:locked="false" />
    <sodipodi:guide
       position="55,3"
       orientation="0,-40"
       id="guide6156"
       inkscape:locked="false" />
    <sodipodi:guide
       position="53,4.3973202"
       orientation="-56,0"
       id="guide6158"
       inkscape:locked="false" />
    <sodipodi:guide
       position="43,48"
       orientation="22,0"
       id="guide4240"
       inkscape:locked="false" />
    <sodipodi:guide
       position="43,26"
       orientation="0,-22"
       id="guide4242"
       inkscape:locked="false" />
    <sodipodi:guide
       position="21,26"
       orientation="-22,0"
       id="guide4244"
       inkscape:locked="false" />
    <sodipodi:guide
       position="35.344364,5.7007039"
       orientation="0,1"
       id="guide4544"
       inkscape:locked="false" />
  </sodipodi:namedview>
  <g
     id="g4186"
     transform="translate(56.391766,-0.17677665)">
    <rect
       ry="2.5"
       y="54.477486"
       x="-46.391766"
       height="7.6992903"
       width="44"
       id="rect4162"
       style="opacity:1;fill:#222425;fill-opacity:1;stroke:none;stroke-width:0.185;stroke-linecap:round;stroke-linejoin:round;stroke-miterlimit:4;stroke-dasharray:none;stroke-dashoffset:0;stroke-opacity:1" />
    <rect
       ry="2.5"
       y="1.6457753"
       x="-46.391766"
       height="52.831711"
       width="44"
       id="rect4174"
       style="opacity:1;fill:url(#linearGradient4182);fill-opacity:1.0;stroke:none;stroke-width:0.30000001;stroke-linecap:round;stroke-linejoin:round;stroke-miterlimit:4;stroke-dasharray:none;stroke-dashoffset:0;stroke-opacity:1" />
    <rect
       ry="0"
       y="51.264462"
       x="-46.391766"
       height="7.9118414"
       width="44"
       id="rect4184"
       style="opacity:1;fill:#222425;fill-opacity:1;stroke:none;stroke-width:0.185;stroke-linecap:round;stroke-linejoin:round;stroke-miterlimit:4;stroke-dasharray:none;stroke-dashoffset:0;stroke-opacity:1" />
    <g
       inkscape:transform-center-y="-9.4924686"
       inkscape:transform-center-x="5.4653607"
       inkscape:label="Capa 1"
       id="layer1-4"
       transform="translate(-509.70748,-515.64674)">
      <g
         id="layer1-3-65"
         inkscape:label="Capa 1"
         transform="translate(0.41988239,0.03484499)" />
    </g>
    <g
       style="font-style:normal;font-weight:normal;font-size:11.60182476px;line-height:125%;font-family:sans-serif;letter-spacing:0px;word-spacing:0px;fill:#ffffff;fill-opacity:1;stroke:none;stroke-width:1px;stroke-linecap:butt;stroke-linejoin:miter;stroke-opacity:1"
       id="text4176"
       transform="matrix(0.93906002,0,0,0.93906002,-1.6568398,3.6427952)">
      <path
         d="m -19.680607,58.327921 h -0.776267 v -6.041386 h 0.776267 z"
         style="font-style:normal;font-variant:normal;font-weight:normal;font-stretch:normal;font-size:8.43769073px;font-family:'Product Sans';-inkscape-font-specification:'Product Sans';fill:#ffffff;fill-opacity:1"
         id="path4288"
         inkscape:connector-curvature="0" />
      <path
         inkscape:connector-curvature="0"
         d="m -23.801675,58.38408 q -0.960007,0 -1.579648,-0.645823 -0.619642,-0.654551 -0.619642,-1.632013 0,-0.977462 0.619642,-1.623285 0.619641,-0.654551 1.579648,-0.654551 0.715642,0 1.186919,0.349094 0.471276,0.349094 0.68946,0.881461 l -0.733097,0.305457 q -0.331639,-0.802915 -1.195646,-0.802915 -0.532368,0 -0.942553,0.436367 -0.401457,0.436367 -0.401457,1.108372 0,0.672005 0.401457,1.108372 0.410185,0.436368 0.942553,0.436368 0.898916,0 1.239283,-0.802916 l 0.715641,0.305457 q -0.218183,0.52364 -0.706914,0.881461 -0.480004,0.349094 -1.195646,0.349094 z"
         style="font-style:normal;font-variant:normal;font-weight:normal;font-stretch:normal;font-size:10px;line-height:125%;font-family:'Product Sans';-inkscape-font-specification:'Product Sans';letter-spacing:0px;word-spacing:0px;fill:#ffffff;fill-opacity:1;stroke:none;stroke-width:0.87273407px;stroke-linecap:butt;stroke-linejoin:miter;stroke-opacity:1"
         id="path4179" />
      <path
         inkscape:connector-curvature="0"
         d="m -27.604099,58.332963 q -0.672006,0 -1.029827,-0.357821 -0.349093,-0.357821 -0.349093,-1.012371 v -2.242927 h -0.750551 v -0.733096 h 0.750551 v -1.309101 h 0.802915 v 1.309101 h 1.047281 v 0.733096 h -1.047281 v 2.181836 q 0,0.698187 0.576005,0.698187 0.218183,0 0.366548,-0.06982 l 0.279275,0.68946 q -0.261821,0.113455 -0.645823,0.113456 z"
         style="font-style:normal;font-variant:normal;font-weight:normal;font-stretch:normal;font-size:10px;line-height:125%;font-family:'Product Sans';-inkscape-font-specification:'Product Sans';letter-spacing:0px;word-spacing:0px;fill:#ffffff;fill-opacity:1;stroke:none;stroke-width:0.87273407px;stroke-linecap:butt;stroke-linejoin:miter;stroke-opacity:1"
         id="path4235" />
    </g>
    <g
       transform="translate(43.649928,0.4682779)"
       id="g17">
      <g
         transform="matrix(0.17842,0,0,0.16977,-79.953618,19.609168)"
         id="g15"
         style="fill:#ffffff">
        <path
           d="m 133.52,78.1 c -0.488,-0.489 -1.113,-0.733 -1.873,-0.733 h -78.22 c -0.76,0 -1.385,0.244 -1.874,0.733 -0.488,0.489 -0.732,1.113 -0.732,1.874 v 5.215 c 0,0.76 0.244,1.385 0.732,1.873 0.489,0.488 1.114,0.733 1.874,0.733 h 78.22 c 0.76,0 1.385,-0.245 1.873,-0.733 0.488,-0.488 0.732,-1.113 0.732,-1.873 v -5.215 c 1e-4,-0.761 -0.243,-1.385 -0.732,-1.874"
           id="path11"
           inkscape:connector-curvature="0" />
        <path
           d="M 8.38,1.022 C 7.837,0.479 7.212,0.207 6.506,0.207 5.8,0.207 5.176,0.479 4.633,1.022 L 0.559,5.096 c -0.543,0.543 -0.814,1.167 -0.814,1.874 0,0.707 0.271,1.331 0.814,1.874 l 32.02,32.02 -32.02,32.02 c -0.543,0.543 -0.814,1.168 -0.814,1.873 0,0.707 0.271,1.331 0.814,1.874 l 4.074,4.073 c 0.543,0.544 1.167,0.814 1.873,0.814 0.706,0 1.331,-0.271 1.874,-0.814 L 46.347,42.738 c 0.543,-0.543 0.814,-1.169 0.814,-1.875 0,-0.706 -0.271,-1.331 -0.814,-1.874 L 8.38,1.023"
           id="path13"
           inkscape:connector-curvature="0" />
      </g>
    </g>
  </g>
</svg>
