<?xml version="1.0" encoding="UTF-8" standalone="no"?>
<!-- Created with Inkscape (http://www.inkscape.org/) -->

<svg
   xmlns:dc="http://purl.org/dc/elements/1.1/"
   xmlns:cc="http://creativecommons.org/ns#"
   xmlns:rdf="http://www.w3.org/1999/02/22-rdf-syntax-ns#"
   xmlns:svg="http://www.w3.org/2000/svg"
   xmlns="http://www.w3.org/2000/svg"
   xmlns:sodipodi="http://sodipodi.sourceforge.net/DTD/sodipodi-0.dtd"
   xmlns:inkscape="http://www.inkscape.org/namespaces/inkscape"
   width="48"
   height="48"
   viewBox="0 0 12.7 12.7"
   version="1.1"
   id="svg1173"
   inkscape:version="0.92.4 (unknown)"
   sodipodi:docname="application-vnd.openxmlformats-officedocument.wordprocessingml.document.svg">
  <defs
     id="defs1167" />
  <sodipodi:namedview
     id="base"
     pagecolor="#ffffff"
     bordercolor="#666666"
     borderopacity="1.0"
     inkscape:pageopacity="0.0"
     inkscape:pageshadow="2"
     inkscape:zoom="7.9195959"
     inkscape:cx="29.275784"
     inkscape:cy="7.5412608"
     inkscape:document-units="px"
     inkscape:current-layer="layer1"
     showgrid="false"
     units="px"
     inkscape:window-width="1920"
     inkscape:window-height="1049"
     inkscape:window-x="0"
     inkscape:window-y="0"
     inkscape:window-maximized="1" />
  <metadata
     id="metadata1170">
    <rdf:RDF>
      <cc:Work
         rdf:about="">
        <dc:format>image/svg+xml</dc:format>
        <dc:type
           rdf:resource="http://purl.org/dc/dcmitype/StillImage" />
        <dc:title></dc:title>
      </cc:Work>
    </rdf:RDF>
  </metadata>
  <g
     inkscape:label="Layer 1"
     inkscape:groupmode="layer"
     id="layer1"
     transform="translate(0,-284.29999)">
    <g
       id="g912"
       transform="matrix(0.04021379,0,0,0.04021379,-29.10176,290.4465)">
      <path
         style="fill:#ffffff;fill-opacity:1;stroke:#000000;stroke-width:0.26458332px;stroke-linecap:butt;stroke-linejoin:miter;stroke-opacity:1"
         d="m 795.80916,-123.87273 131.22934,0.8018 55.85931,54.790253 V 124.68793 l -187.08865,0.53454 z"
         id="path1126"
         inkscape:connector-curvature="0" />
      <path
         style="fill:#797774;fill-opacity:1;stroke-width:1.14005387"
         d="m 794.34161,126.66954 c -0.4216,-0.42159 -0.76654,-14.48731 -0.76654,-31.257127 l 0.26687,-189.545188 0.30315,-30.966075 67.22857,-0.29423 67.22856,-0.29423 56.51473,56.514717 -0.29143,98.012826 -0.29143,98.012807 -94.71296,0.29152 c -52.09214,0.16034 -95.05792,-0.0535 -95.47952,-0.47502 z M 981.11393,28.808413 v -94.624472 l -55.87914,-0.03489 0.0165,-55.827741 h -63.84302 -63.84301 l -0.30426,29.356378 -0.26577,185.923774 c 0,15.884758 0.34505,29.226428 0.76677,29.648138 0.42173,0.42173 41.84844,0.63549 92.05935,0.47503 l 91.29258,-0.29175 z m -3.99019,-99.459517 -47.01679,-47.037396 -0.10546,47.122216 z"
         id="path920"
         inkscape:connector-curvature="0"
         sodipodi:nodetypes="cccccccccsccccccccccscccccc" />
      <rect
         style="fill:#41a5ee;fill-opacity:1;stroke:none;stroke-width:1.19186425;stroke-miterlimit:4;stroke-dasharray:none;stroke-opacity:1"
         id="rect1029"
         width="68.980652"
         height="6.9925594"
         x="897.31549"
         y="-30.138393"
         ry="0.85816014" />
      <rect
         style="fill:#2b7cd3;fill-opacity:1;stroke:none;stroke-width:1.19186425;stroke-miterlimit:4;stroke-dasharray:none;stroke-opacity:1"
         id="rect1029-3"
         width="68.980652"
         height="6.9925594"
         x="897.31549"
         y="-11.901036"
         ry="0.85816014" />
      <rect
         style="fill:#185abd;fill-opacity:1;stroke:none;stroke-width:1.19186425;stroke-miterlimit:4;stroke-dasharray:none;stroke-opacity:1"
         id="rect1029-3-6"
         width="68.980652"
         height="6.9925594"
         x="897.31549"
         y="6.6197925"
         ry="0.85816014" />
      <rect
         style="fill:#103f91;fill-opacity:1;stroke:none;stroke-width:1.19186425;stroke-miterlimit:4;stroke-dasharray:none;stroke-opacity:1"
         id="rect1029-3-6-7"
         width="68.980652"
         height="6.9925594"
         x="897.31549"
         y="24.573664"
         ry="0.85816014" />
      <rect
         style="fill:#185abd;fill-opacity:1;stroke:none;stroke-width:1.19921792;stroke-miterlimit:4;stroke-dasharray:none;stroke-opacity:1"
         id="rect1128"
         width="128.33499"
         height="128.19226"
         x="762.37799"
         y="-62.83334"
         ry="10.955199" />
      <path
         style="fill:#ffffff;fill-opacity:1;stroke-width:1.14005387"
         d="m 818.16071,22.768152 c 1.61498,-7.53783 3.92452,-17.6565798 4.99531,-22.51605976 1.07079,-4.85948004 2.31045,-8.83542004 2.75481,-8.83542004 0.44435,0 2.78444,8.59316004 5.2002,19.0958998 2.41575,10.50274 4.84644,20.76323 5.40153,22.80108 l 1.00924,3.70517 17.50531,-0.0223 c 2.27393,-7.33984 15.19274,-69.29549 14.70109,-70.09098 h -12.90248 l -5.73045,22.23105 c -5.29041,20.5239402 -4.49102,23.25028 -5.37575,22.36555 -0.33404,-0.33403 -2.99111,-10.50491976 -5.90461,-22.60197 l -5.29727,-21.99463 h -15.71311 c -0.61649,0.81018 -3.48467,11.25803 -5.89364,22.23105 -2.40897,10.97302024 -4.77244,20.7204802 -5.25216,21.66102 -1.24458,2.44014 -1.47863,1.61077 -6.4344,-22.80107 l -4.28161,-21.091 h -14.49443 l 16.12063,70.09098 h 16.54337 z"
         id="path916"
         inkscape:connector-curvature="0"
         sodipodi:nodetypes="sssscccccscsccscsccccs" />
    </g>
  </g>
</svg>
