<?xml version="1.0" encoding="UTF-8" standalone="no"?>
<!-- Created with Inkscape (http://www.inkscape.org/) -->

<svg
   width="512"
   height="512"
   viewBox="0 0 135.46666 135.46667"
   version="1.1"
   id="svg5"
   inkscape:version="1.1 (c68e22c387, 2021-05-23)"
   sodipodi:docname="androidstudio.svg.svg"
   xmlns:inkscape="http://www.inkscape.org/namespaces/inkscape"
   xmlns:sodipodi="http://sodipodi.sourceforge.net/DTD/sodipodi-0.dtd"
   xmlns="http://www.w3.org/2000/svg"
   xmlns:svg="http://www.w3.org/2000/svg">
  <sodipodi:namedview
     id="namedview7"
     pagecolor="#ffffff"
     bordercolor="#666666"
     borderopacity="1.0"
     inkscape:pageshadow="2"
     inkscape:pageopacity="0.0"
     inkscape:pagecheckerboard="0"
     inkscape:document-units="px"
     showgrid="false"
     units="px"
     width="512px"
     inkscape:zoom="1.0173541"
     inkscape:cx="77.160942"
     inkscape:cy="366.14587"
     inkscape:window-width="1920"
     inkscape:window-height="1054"
     inkscape:window-x="0"
     inkscape:window-y="0"
     inkscape:window-maximized="1"
     inkscape:current-layer="layer1" />
  <defs
     id="defs2" />
  <g
     inkscape:label="Layer 1"
     inkscape:groupmode="layer"
     id="layer1">
    <g
       id="g900"
       transform="matrix(0.52862573,0,0,0.52862573,1.6081705,-3.1895266)">
      <path
         style="fill:#a2cdeb;stroke-width:0.264583"
         d="m 73.303725,248.7443 -0.504028,-0.59531 0.595312,0.50403 c 0.559446,0.47366 0.715762,0.68659 0.504029,0.68659 -0.05021,0 -0.318098,-0.26789 -0.595313,-0.59531 z m 13.783471,0.0661 c 0.26339,-0.29104 0.538422,-0.52917 0.611183,-0.52917 0.07276,0 -0.08321,0.23813 -0.346599,0.52917 -0.26339,0.29104 -0.538422,0.52916 -0.611182,0.52916 -0.07276,0 0.08321,-0.23812 0.346598,-0.52916 z m 71.800624,-0.46302 c -0.32911,-0.41966 -0.31975,-0.429 0.0999,-0.0999 0.25466,0.19973 0.46302,0.40809 0.46302,0.46302 0,0.21778 -0.21728,0.0776 -0.56292,-0.36311 z m 54.53791,-0.69522 c 0,-0.0549 0.20836,-0.26329 0.46303,-0.46302 0.41964,-0.32909 0.429,-0.31975 0.0999,0.0999 -0.34564,0.44072 -0.56292,0.5809 -0.56292,0.36312 z M 70.571627,242.04153 c 0.0127,-0.30824 0.07539,-0.37092 0.159851,-0.15986 0.07643,0.191 0.06703,0.41921 -0.02088,0.50713 -0.08792,0.0879 -0.150452,-0.0684 -0.138964,-0.34727 z M 175.39246,241.5344 c 0.003,-0.58208 0.0571,-0.78906 0.1204,-0.45992 0.0633,0.32911 0.0609,0.80536 -0.005,1.05833 -0.0662,0.25294 -0.118,-0.0164 -0.11507,-0.59841 z m 44.68963,-6.74687 c 0,-0.3638 0.0601,-0.51263 0.13346,-0.33073 0.0734,0.1819 0.0734,0.47956 0,0.66146 -0.0734,0.1819 -0.13346,0.0331 -0.13346,-0.33073 z M 43.23251,220.06021 c 0.181901,-0.0734 0.479558,-0.0734 0.661459,0 0.181901,0.0734 0.03307,0.13346 -0.33073,0.13346 -0.363802,0 -0.51263,-0.0601 -0.330729,-0.13346 z m -10.021771,-4.52112 c -0.329107,-0.41965 -0.319748,-0.42899 0.0999,-0.0999 0.254661,0.19973 0.46302,0.40809 0.46302,0.46302 0,0.21777 -0.217273,0.0776 -0.562917,-0.36312 z m -2.240346,-2.24896 -0.504028,-0.59531 0.595312,0.50403 c 0.559446,0.47366 0.715762,0.6866 0.504029,0.6866 -0.05021,0 -0.318098,-0.26789 -0.595313,-0.59532 z m -4.319598,-9.08402 c 0.0127,-0.30823 0.07539,-0.37092 0.159851,-0.15986 0.07643,0.191 0.06703,0.4192 -0.02088,0.50712 -0.08792,0.0879 -0.150452,-0.0684 -0.138964,-0.34726 z M 26.495588,135.1719 c 3e-6,-37.253331 0.03068,-52.453985 0.06816,-33.77923 0.03749,18.67475 0.03749,49.15476 -3e-6,67.73333 -0.03749,18.57858 -0.06816,3.29924 -0.06816,-33.9541 z M 220.1223,104.21565 c 0.002,-0.87312 0.0509,-1.19841 0.10977,-0.72286 0.0589,0.47555 0.0577,1.18992 -0.003,1.5875 -0.0604,0.39757 -0.10855,0.008 -0.10707,-0.86464 z m -0.32568,-2.93246 c 0.0127,-0.30823 0.0754,-0.37092 0.15985,-0.15986 0.0764,0.191 0.067,0.41921 -0.0209,0.50712 -0.0879,0.0879 -0.15045,-0.0683 -0.13897,-0.34726 z m -4.53304,-9.039934 -0.9118,-0.992187 0.99218,0.911799 c 0.92351,0.84868 1.11384,1.072576 0.9118,1.072576 -0.0442,0 -0.4907,-0.446484 -0.99218,-0.992188 z m -12.2062,-5.803135 c 0.19099,-0.07643 0.4192,-0.06703 0.50711,0.02088 0.0879,0.08792 -0.0684,0.150452 -0.34726,0.138964 -0.30823,-0.0127 -0.37092,-0.07539 -0.15985,-0.159851 z m -1.32292,-0.264583 c 0.19099,-0.07643 0.4192,-0.06703 0.50712,0.02088 0.0879,0.08792 -0.0684,0.150453 -0.34727,0.138965 -0.30822,-0.0127 -0.37092,-0.07539 -0.15985,-0.159851 z m -2.1332,-0.259072 c 0.1819,-0.0734 0.47955,-0.0734 0.66145,0 0.1819,0.0734 0.0331,0.133453 -0.33073,0.133453 -0.3638,0 -0.51263,-0.06006 -0.33072,-0.133453 z m -15.54479,-0.287793 c -2.7e-4,-0.109141 1.39869,-0.167341 3.10885,-0.129336 5.57113,0.123811 6.1105,0.226721 1.45573,0.277746 -2.51024,0.02751 -4.5643,-0.03927 -4.56458,-0.14841 z m 12.24113,0.0086 c 0.40218,-0.06082 0.9975,-0.05919 1.32292,0.0036 0.32542,0.0628 -0.004,0.112559 -0.73124,0.110574 -0.72761,-0.0021 -0.99386,-0.05337 -0.59168,-0.114186 z M 154.68824,66.909402 c 0.34177,-0.363802 0.68094,-0.661459 0.7537,-0.661459 0.0728,0 -0.14735,0.297657 -0.48912,0.661459 -0.34178,0.363802 -0.68094,0.661458 -0.7537,0.661458 -0.0728,0 0.14734,-0.297656 0.48912,-0.661458 z M 26.386212,64.770687 c 0.0127,-0.308226 0.07539,-0.370919 0.159851,-0.159853 0.07643,0.190995 0.06703,0.419201 -0.02088,0.507119 -0.08792,0.08792 -0.150453,-0.06835 -0.138964,-0.347266 z m 73.859238,-1.43316 c 0,-0.509323 0.0545,-0.717683 0.12101,-0.463021 0.0665,0.254661 0.0665,0.67138 0,0.926042 -0.0666,0.254661 -0.12101,0.0463 -0.12101,-0.463021 z m -10.07377,0 c 0,-0.363802 0.06006,-0.51263 0.133453,-0.330729 0.0734,0.181901 0.0734,0.479557 0,0.661458 -0.0734,0.181901 -0.133453,0.03307 -0.133453,-0.330729 z m 1.413433,-3.439584 c 0.26339,-0.291041 0.538422,-0.529166 0.611182,-0.529166 0.07276,0 -0.08321,0.238125 -0.346599,0.529166 -0.26339,0.291042 -0.538421,0.529167 -0.611182,0.529167 -0.07276,0 0.08321,-0.238125 0.346599,-0.529167 z m 63.069377,-0.198437 c -0.32911,-0.419645 -0.31975,-0.429004 0.0999,-0.0999 0.44073,0.345643 0.58089,0.562917 0.36313,0.562917 -0.0549,0 -0.2633,-0.20836 -0.46302,-0.463021 z M 32.053865,52.48961 c 0.568388,-0.582083 1.092967,-1.058333 1.165727,-1.058333 0.07276,0 -0.332755,0.47625 -0.901144,1.058333 -0.568388,0.582083 -1.092967,1.058333 -1.165728,1.058333 -0.07276,0 0.332756,-0.47625 0.901145,-1.058333 z m 137.029025,-1.918229 -0.50403,-0.595313 0.59531,0.504029 c 0.32742,0.277214 0.59532,0.545105 0.59532,0.595312 0,0.211733 -0.21294,0.05542 -0.6866,-0.504028 z M 44.30738,46.75262 c 0.190995,-0.07643 0.419201,-0.06703 0.507119,0.02088 0.08792,0.08792 -0.06835,0.150453 -0.347266,0.138964 -0.308226,-0.0127 -0.370919,-0.07539 -0.159853,-0.15985 z m 119.74843,-1.208323 -0.50403,-0.595312 0.59531,0.504028 c 0.32742,0.277215 0.59531,0.545106 0.59531,0.595313 0,0.211733 -0.21293,0.05542 -0.68659,-0.504029 z M 82.58928,45.34586 c 0.26339,-0.291042 0.538422,-0.529167 0.611182,-0.529167 0.07276,0 -0.08321,0.238125 -0.346599,0.529167 -0.26339,0.291041 -0.538422,0.529166 -0.611182,0.529166 -0.07276,0 0.08321,-0.238125 0.346599,-0.529166 z m 1.455208,-1.15823 c 0,-0.05494 0.20836,-0.2633 0.463021,-0.463021 0.419645,-0.329107 0.429003,-0.319749 0.0999,0.0999 -0.345644,0.440729 -0.562917,0.580887 -0.562917,0.363124 z M 133.20738,31.142203 c 0.19099,-0.07643 0.4192,-0.06703 0.50712,0.02088 0.0879,0.08792 -0.0684,0.150453 -0.34727,0.138964 -0.30823,-0.0127 -0.37092,-0.07539 -0.15985,-0.15985 z M 114.95113,30.87762 c 0.19099,-0.07643 0.4192,-0.06703 0.50712,0.02088 0.0879,0.08792 -0.0684,0.150452 -0.34727,0.138964 -0.30823,-0.0127 -0.37092,-0.07539 -0.15985,-0.159851 z m 16.40416,0 c 0.191,-0.07643 0.4192,-0.06703 0.50712,0.02088 0.0879,0.08792 -0.0684,0.150452 -0.34726,0.138964 -0.30823,-0.0127 -0.37092,-0.07539 -0.15986,-0.159851 z m -14.03945,-0.259072 c 0.1819,-0.0734 0.47956,-0.0734 0.66146,0 0.1819,0.0734 0.0331,0.133453 -0.33073,0.133453 -0.3638,0 -0.51263,-0.06005 -0.33073,-0.133453 z m 11.37708,0 c 0.18191,-0.0734 0.47956,-0.0734 0.66146,0 0.1819,0.0734 0.0331,0.133453 -0.33073,0.133453 -0.3638,0 -0.51263,-0.06005 -0.33073,-0.133453 z m -6.2177,-0.278863 c 0.40018,-0.06062 1.05502,-0.06062 1.4552,0 0.40019,0.06062 0.0728,0.110223 -0.7276,0.110223 -0.80036,0 -1.12779,-0.0496 -0.7276,-0.110223 z m 40.99585,-11.055284 c 0.005,-0.436563 0.0647,-0.583126 0.13177,-0.325694 0.0671,0.257431 0.0627,0.614619 -0.01,0.79375 -0.0725,0.179131 -0.12736,-0.03149 -0.12197,-0.468056 z m -76.938178,-1.521354 -0.504029,-0.595313 0.595313,0.504029 c 0.559445,0.473662 0.715761,0.686596 0.504028,0.686596 -0.05021,0 -0.318098,-0.26789 -0.595312,-0.595312 z m -1.47968,-0.643761 c 0.190995,-0.07643 0.419201,-0.06703 0.507119,0.02088 0.08792,0.08792 -0.06835,0.150453 -0.347266,0.138964 -0.308226,-0.0127 -0.370919,-0.07539 -0.159853,-0.15985 z m 76.199998,0 c 0.19099,-0.07643 0.4192,-0.06703 0.50712,0.02088 0.0879,0.08792 -0.0684,0.150453 -0.34727,0.138964 -0.30822,-0.0127 -0.37092,-0.07539 -0.15985,-0.15985 z"
         id="path914" />
      <path
         style="fill:#4184f2;stroke-width:0.264583"
         d="m 43.430948,220.0464 c -7.740809,-1.07053 -14.345848,-6.96464 -16.280214,-14.52794 -0.511591,-2.0003 -0.520489,-3.22852 -0.501672,-69.2644 l 0.01916,-67.227992 0.517488,2.116667 c 1.733809,7.091723 6.43617,11.915558 13.599406,13.950715 l 2.116666,0.601369 77.655198,0.05499 c 53.98299,0.03822 78.32377,0.142467 79.84837,0.34196 12.47577,1.632448 19.45641,8.024961 19.64686,17.991591 0.14327,7.49739 -3.53669,13.94843 -9.66919,16.9503 -3.32177,1.62601 -4.52828,1.83512 -10.58835,1.83512 -4.1748,0 -5.42818,0.0807 -5.83139,0.37551 -0.50468,0.36899 -0.51488,1.21377 -0.58787,48.68333 l -0.0743,48.30783 -10.64134,-0.004 -10.64135,-0.004 -16.49944,-34.39646 -16.49944,-34.39644 1.81744,-1.91349 c 2.08603,-2.19626 3.8389,-5.30733 4.4493,-7.89678 0.51129,-2.16903 0.51052,-6.24054 -0.002,-8.41316 -1.28346,-5.44497 -5.41359,-10.10364 -10.83709,-12.22395 l -1.85208,-0.72406 -0.1323,-6.30381 c -0.0928,-4.42055 -0.23343,-6.48084 -0.47086,-6.89638 -0.83267,-1.45735 -3.66359,-1.8861 -5.00436,-0.75792 l -0.75333,0.63389 -0.69727,-0.59977 c -1.58305,-1.36168 -3.94529,-0.95432 -5.17537,0.89248 -0.57734,0.8668 -0.5988,1.11098 -0.5988,6.81302 0,5.45464 -0.036,5.91427 -0.46303,5.91754 -0.25466,0.002 -1.44627,0.34579 -2.64802,0.7641 -7.48284,2.60464 -12.37149,9.83716 -11.89525,17.5984 0.28757,4.68638 2.32114,9.0207 5.65883,12.06113 l 1.59738,1.45533 -16.034854,34.19153 -16.034855,34.19152 -17.859375,-0.0338 c -9.822656,-0.0185 -18.216562,-0.0832 -18.653124,-0.14354 z m 63.714152,-0.14168 c 0.40216,-0.96047 14.22682,-30.42975 14.8015,-31.55157 0.68919,-1.34533 1.604,-2.34287 2.90561,-3.16838 0.70294,-0.44583 0.75678,-0.43917 1.90926,0.23623 0.65225,0.38225 1.4808,1.08161 1.84121,1.55413 0.36041,0.47252 3.93685,7.67894 7.94765,16.01425 4.0108,8.33532 7.53237,15.62557 7.82572,16.20059 l 0.53336,1.04548 h -18.95139 c -15.05859,0 -18.92295,-0.0679 -18.81292,-0.33073 z m 16.3223,-72.88685 c -1.70508,-0.82303 -3.93885,-2.95545 -4.73912,-4.5241 -2.42599,-4.75534 -1.2598,-10.23675 2.8729,-13.50347 0.72703,-0.57468 1.86126,-1.25087 2.52052,-1.50264 l 1.19865,-0.45777 1.6952,0.83455 c 2.17296,1.06974 4.37817,3.40005 5.21646,5.51238 0.48344,1.21816 0.60739,2.04345 0.60739,4.04404 0,3.24455 -0.63642,4.94985 -2.66501,7.14097 -1.3115,1.41658 -4.1008,3.19701 -4.96331,3.16812 -0.15866,-0.005 -0.94331,-0.32575 -1.74368,-0.71208 z"
         id="path912" />
      <path
         style="fill:#3cda83;stroke-width:0.264583"
         d="m 62.543532,84.834923 c 1.367988,-15.316266 9.09875,-30.096262 20.970215,-40.091739 2.469629,-2.079366 8.312012,-6.107271 9.324626,-6.428661 0.315632,-0.100179 0.470297,-0.334026 0.399634,-0.604234 -0.0634,-0.242443 -2.357606,-4.308856 -5.098235,-9.036471 -5.346313,-9.222452 -5.612635,-9.883399 -4.383473,-10.878714 0.847312,-0.68611 2.180166,-0.639382 2.859018,0.100234 0.300525,0.327422 2.826584,4.54441 5.613469,9.371085 l 5.067062,8.775771 1.642549,-0.742913 c 4.464113,-2.01908 12.068813,-3.927488 18.028233,-4.524203 4.35564,-0.436126 12.58942,-0.181586 16.68723,0.515874 5.11503,0.870593 10.3598,2.38479 14.30762,4.13071 l 1.38265,0.611467 5.20669,-9.035822 c 2.86368,-4.969703 5.39855,-9.184651 5.63304,-9.366552 0.65683,-0.509519 2.10466,-0.403365 2.70646,0.198438 0.30949,0.309491 0.52917,0.881943 0.52917,1.378958 0,0.877593 -0.34175,1.514247 -6.95044,12.948375 l -3.31089,5.728377 2.33654,1.383067 c 9.13169,5.405322 17.53903,14.48815 22.4127,24.213445 1.62407,3.240807 3.38839,7.875035 4.27663,11.233195 0.86923,3.286313 1.87296,8.759349 1.87296,10.21275 v 0.89975 H 123.25595 62.454912 Z m 35.71247,-17.43632 c 1.48603,-1.201084 2.051538,-2.333617 2.051538,-4.108564 0,-1.24383 -0.13845,-1.706218 -0.792875,-2.647974 -2.552621,-3.673363 -7.958863,-2.740668 -9.105987,1.570983 -0.55434,2.083575 0.56929,4.534278 2.579698,5.626467 1.523857,0.827861 3.948996,0.624872 5.267626,-0.440912 z m 55.188598,0.537226 c 1.90891,-0.966631 2.83114,-2.48729 2.83114,-4.668253 0,-4.334997 -5.19911,-6.527305 -8.43182,-3.555442 -0.83225,0.765101 -1.60926,2.479977 -1.61654,3.567745 -0.012,1.793912 1.39582,3.977214 3.0369,4.709721 1.09392,0.488281 3.16242,0.461674 4.18032,-0.05377 z"
         id="path910" />
      <path
         style="fill:#3876d2;stroke-width:0.264583"
         d="m 122.93824,186.53347 c 0,-0.0549 0.20836,-0.2633 0.46302,-0.46302 0.41964,-0.32911 0.429,-0.31975 0.0999,0.0999 -0.34564,0.44073 -0.56291,0.58089 -0.56291,0.36313 z m 70.50535,-38.52928 c 0,-11.85994 0.0325,-16.71174 0.0722,-10.78177 0.0397,5.92998 0.0397,15.63357 0,21.56355 -0.0397,5.92997 -0.0722,1.07817 -0.0722,-10.78178 z m -63.89077,-2.74572 c 0,-0.0549 0.20836,-0.2633 0.46302,-0.46303 0.41965,-0.3291 0.429,-0.31974 0.0999,0.0999 -0.34565,0.44073 -0.56292,0.58089 -0.56292,0.36313 z m 15.91677,-5.45636 c 0,-0.3638 0.0601,-0.51263 0.13346,-0.33073 0.0734,0.1819 0.0734,0.47956 0,0.66146 -0.0734,0.1819 -0.13346,0.0331 -0.13346,-0.33073 z m -28.06671,-0.6835 c 0.0127,-0.30823 0.0754,-0.37092 0.15985,-0.15986 0.0764,0.191 0.067,0.4192 -0.0209,0.50712 -0.0879,0.0879 -0.15045,-0.0684 -0.13896,-0.34726 z m 0,-3.43959 c 0.0127,-0.30822 0.0754,-0.37092 0.15985,-0.15985 0.0764,0.19099 0.067,0.4192 -0.0209,0.50712 -0.0879,0.0879 -0.15045,-0.0683 -0.13896,-0.34727 z m -12.7,-0.26458 c 0.0127,-0.30823 0.0754,-0.37092 0.15985,-0.15985 0.0764,0.19099 0.067,0.4192 -0.0209,0.50711 -0.0879,0.0879 -0.15045,-0.0683 -0.13896,-0.34726 z m 40.76671,-0.37483 c 0,-0.3638 0.0601,-0.51263 0.13346,-0.33073 0.0734,0.1819 0.0734,0.47956 0,0.66146 -0.0734,0.1819 -0.13346,0.0331 -0.13346,-0.33073 z m -25.04489,-5.29167 c 0.26339,-0.29104 0.53842,-0.52916 0.61118,-0.52916 0.0728,0 -0.0832,0.23812 -0.3466,0.52916 -0.26339,0.29105 -0.53842,0.52917 -0.61118,0.52917 -0.0728,0 0.0832,-0.23812 0.3466,-0.52917 z m 9.23527,-0.0661 -0.50402,-0.59531 0.59531,0.50402 c 0.32742,0.27722 0.59531,0.54511 0.59531,0.59532 0,0.21173 -0.21293,0.0554 -0.6866,-0.50403 z m 67.03087,-6.74557 c 1.34607,-0.048 3.54872,-0.048 4.89479,0 1.34607,0.048 0.24474,0.0873 -2.4474,0.0873 -2.69213,0 -3.79346,-0.0393 -2.44739,-0.0873 z m -65.28594,-2.71329 -0.92604,-0.19492 0.97657,-0.0348 c 0.53712,-0.0192 1.05016,0.0842 1.1401,0.22975 0.17738,0.28702 0.17292,0.28702 -1.19063,0 z m -0.0337,-13.69218 c -0.3291,-0.41965 -0.31975,-0.42901 0.0999,-0.0999 0.25466,0.19972 0.46302,0.40808 0.46302,0.46302 0,0.21776 -0.21727,0.0776 -0.56292,-0.36312 z m -8.49906,-1.03513 c 0.1819,-0.0734 0.47956,-0.0734 0.66146,0 0.1819,0.0734 0.0331,0.13346 -0.33073,0.13346 -0.3638,0 -0.51263,-0.0601 -0.33073,-0.13346 z M 44.555427,85.651882 c 0.181901,-0.0734 0.479557,-0.0734 0.661458,0 0.181901,0.0734 0.03307,0.133453 -0.330729,0.133453 -0.363802,0 -0.51263,-0.06006 -0.330729,-0.133453 z m -12.518207,-5.447167 -0.777105,-0.859896 0.859896,0.777105 c 0.472942,0.427408 0.859895,0.814361 0.859895,0.859896 0,0.204406 -0.218315,0.02445 -0.942686,-0.777105 z"
         id="path908" />
      <path
         style="fill:#52769b;stroke-width:0.264583"
         d="m 79.745009,251.53415 c 0.327422,-0.0631 0.863203,-0.0631 1.190625,0 0.327422,0.063 0.05953,0.11464 -0.595312,0.11464 -0.654844,0 -0.922735,-0.0516 -0.595313,-0.11464 z m 116.813541,-0.27512 c 1.41883,-0.0476 3.74054,-0.0476 5.15937,0 1.41883,0.0476 0.25797,0.0865 -2.57969,0.0865 -2.83765,0 -3.99851,-0.0389 -2.57968,-0.0865 z m -31.34839,-0.25908 c 0.47555,-0.0589 1.18993,-0.0577 1.5875,0.003 0.39758,0.0603 0.008,0.10853 -0.86463,0.10705 -0.87313,-0.003 -1.19842,-0.0509 -0.72287,-0.10975 z m 28.23116,-15.55096 c -4e-5,-8.44021 0.0334,-11.93128 0.0743,-7.75796 0.0409,4.17333 0.0409,11.07896 6e-5,15.34584 -0.0409,4.26688 -0.0744,0.85233 -0.0744,-7.58788 z m -21.29058,13.26155 c 0,-0.0549 0.20835,-0.26329 0.46302,-0.46302 0.41964,-0.32909 0.429,-0.31975 0.0999,0.0999 -0.34564,0.44071 -0.56291,0.58089 -0.56291,0.36311 z m 42.06874,-1.83496 c 0,-0.0455 0.38696,-0.43249 0.8599,-0.8599 l 0.8599,-0.77711 -0.77711,0.8599 c -0.72437,0.80155 -0.94269,0.98152 -0.94269,0.77711 z M 70.836211,240.45403 c 0.0127,-0.30824 0.07539,-0.37092 0.15985,-0.15986 0.07643,0.191 0.06703,0.41921 -0.02088,0.50713 -0.08792,0.0879 -0.150453,-0.0684 -0.138965,-0.34727 z m 148.960409,-3.96875 c 0.0127,-0.30824 0.0754,-0.37092 0.15985,-0.15986 0.0764,0.191 0.067,0.41921 -0.0209,0.50713 -0.0879,0.0879 -0.15045,-0.0684 -0.13897,-0.34727 z m 0.37386,-66.38838 c 0,-35.36156 0.0307,-49.78833 0.0683,-32.05948 0.0375,17.72885 0.0375,46.66104 -1e-5,64.29375 -0.0376,17.63271 -0.0683,3.1273 -0.0683,-32.23427 z M 62.369544,85.143604 c 0.0127,-0.308226 0.07539,-0.370919 0.159851,-0.159853 0.07643,0.190995 0.06703,0.419201 -0.02088,0.507119 -0.08792,0.08792 -0.150452,-0.06835 -0.138964,-0.347266 z M 26.437385,66.247943 c 0,-0.654843 0.0516,-0.922734 0.114663,-0.595312 0.06307,0.327422 0.06307,0.863203 0,1.190625 -0.06306,0.327422 -0.114663,0.05953 -0.114663,-0.595313 z M 53.967494,46.735012 c 5.067499,-0.04022 13.282811,-0.0402 18.25625,5e-5 4.973441,0.04025 0.827307,0.07316 -9.21363,0.07314 -10.040937,-2.7e-5 -14.110115,-0.03296 -9.04262,-0.07319 z"
         id="path906" />
      <path
         style="fill:#366daf;stroke-width:0.264583"
         d="m 101.25394,220.04595 c 0.006,-0.11406 3.38546,-7.41066 7.50914,-16.21467 5.43166,-11.59651 7.77574,-16.32771 8.50698,-17.17014 1.74758,-2.01334 4.72026,-2.92847 7.46435,-2.29786 l 0.87012,0.19996 -1.16628,0.77251 c -0.64145,0.42488 -1.4835,1.23027 -1.87122,1.78975 -0.38772,0.55948 -4.06914,8.20833 -8.18094,16.99744 l -7.47599,15.98021 -2.83385,0.0751 c -1.55861,0.0413 -2.82865,-0.0182 -2.82231,-0.13229 z M 150.73,188.02242 c -8.49735,-17.71716 -15.92638,-33.18495 -16.50895,-34.37287 l -1.05922,-2.15985 1.85693,-1.98838 c 5.26271,-5.63526 6.35813,-13.53896 2.8221,-20.36204 -1.88297,-3.63337 -6.24491,-7.2719 -10.07398,-8.40327 l -1.12448,-0.33224 v -6.28782 -6.28782 l -0.71829,-0.8802 c -0.51279,-0.62837 -0.55396,-0.739 -0.1439,-0.38667 0.54048,0.46439 0.60094,0.46698 1.02394,0.044 1.47347,-1.47348 4.01665,-1.11129 5.14063,0.7321 0.47131,0.77296 0.51656,1.36196 0.51747,6.73403 l 9.9e-4,5.88698 -0.99219,0.029 -0.99219,0.029 1.061,0.21096 c 6.10764,1.21439 11.07382,5.5848 13.18832,11.60616 0.71699,2.04175 0.80156,2.61202 0.80896,5.45511 0.01,3.68727 -0.35815,5.20679 -2.0491,8.46667 -0.71618,1.38069 -1.70614,2.73595 -2.84714,3.89775 l -1.7492,1.78109 15.8579,33.01162 c 8.72184,18.15639 16.13904,33.6367 16.48266,34.40068 l 0.62477,1.38907 h -2.83865 -2.83864 z m 42.71363,2.97657 c 10e-6,-11.93271 0.0325,-16.77562 0.0721,-10.76201 0.0397,6.0136 0.0396,15.77673 -3e-5,21.69583 -0.0397,5.91911 -0.0721,0.99889 -0.0721,-10.93382 z m -65.51206,-4.82865 c -0.32911,-0.41964 -0.31975,-0.429 0.0999,-0.0999 0.25466,0.19972 0.46302,0.40808 0.46302,0.46302 0,0.21776 -0.21728,0.0776 -0.56292,-0.36313 z m -18.10266,-36.38021 -1.04588,-1.12448 1.12448,1.04589 c 1.04575,0.97266 1.24606,1.20307 1.04588,1.20307 -0.0432,0 -0.54924,-0.50601 -1.12448,-1.12448 z m 9.96201,-1.94006 c -3.26862,-0.87898 -5.76399,-2.98981 -7.25478,-6.13679 -0.76323,-1.61114 -0.84269,-2.01589 -0.84269,-4.29242 0,-2.27653 0.0795,-2.68128 0.84269,-4.29242 2.06031,-4.34921 6.61522,-6.99043 11.09095,-6.43123 l 1.51969,0.18987 -1.63806,0.7862 c -2.12053,1.01775 -4.01055,2.92847 -5.11411,5.17012 -0.82863,1.68319 -0.88033,1.95201 -0.88033,4.57746 0,2.61419 0.0542,2.89927 0.86294,4.54214 1.06255,2.15833 3.65381,4.69357 5.53003,5.41045 l 1.27995,0.48905 -1.05834,0.18789 c -1.57996,0.2805 -2.75104,0.22642 -4.33794,-0.20032 z m -15.05735,-9.50317 c 0.005,-0.43656 0.0647,-0.58312 0.13177,-0.32569 0.0671,0.25743 0.0627,0.61462 -0.01,0.79375 -0.0725,0.17913 -0.12737,-0.0315 -0.12198,-0.46806 z m 28.3309,-0.92604 c 0,-0.65484 0.0516,-0.92273 0.11466,-0.59531 0.0631,0.32742 0.0631,0.8632 0,1.19062 -0.0631,0.32743 -0.11466,0.0595 -0.11466,-0.59531 z m -28.3309,-0.92604 c 0.005,-0.43656 0.0647,-0.58313 0.13177,-0.32569 0.0671,0.25743 0.0627,0.61461 -0.01,0.79375 -0.0725,0.17913 -0.12737,-0.0315 -0.12198,-0.46806 z m 4.96444,-11.31094 c 1.09643,-1.16818 1.33398,-1.37824 1.33398,-1.17957 0,0.0425 -0.56555,0.60801 -1.25677,1.25677 l -1.25677,1.17957 z m 94.4177,-2.23126 c 0.19099,-0.0764 0.4192,-0.067 0.50712,0.0209 0.0879,0.0879 -0.0684,0.15045 -0.34727,0.13896 -0.30822,-0.0127 -0.37092,-0.0754 -0.15985,-0.15985 z m -84.68862,-2.92024 c 0.23562,-0.1672 0.34731,-1.79583 0.4051,-5.90712 l 0.0798,-5.67627 -0.008,5.79895 c -0.007,4.92543 -0.068,5.81525 -0.40509,5.90713 -0.2882,0.0785 -0.3078,0.045 -0.0716,-0.12269 z m 95.32156,-2.05839 c 0.49366,-0.50933 0.95709,-0.92605 1.02985,-0.92605 0.0728,0 -0.27161,0.41672 -0.76527,0.92605 -0.49365,0.50932 -0.95708,0.92604 -1.02984,0.92604 -0.0728,0 0.27161,-0.41672 0.76526,-0.92604 z m 5.04797,-10.07622 c 0.0127,-0.30822 0.0754,-0.37092 0.15985,-0.15985 0.0764,0.19099 0.067,0.4192 -0.0209,0.50712 -0.0879,0.0879 -0.15045,-0.0684 -0.13897,-0.34727 z m -99.10734,-1.16858 c 0.26339,-0.29104 0.53842,-0.52916 0.61118,-0.52916 0.0728,0 -0.0832,0.23812 -0.3466,0.52916 -0.26339,0.29105 -0.53842,0.52917 -0.61118,0.52917 -0.0728,0 0.0832,-0.23812 0.3466,-0.52917 z M 49.58251,85.629147 c 2.364714,-0.04385 6.234245,-0.04385 8.598958,0 2.364714,0.04385 0.429948,0.07973 -4.299479,0.07973 -4.729427,0 -6.664192,-0.03588 -4.299479,-0.07973 z"
         id="path904" />
      <path
         style="fill:#062f41;stroke-width:0.264583"
         d="m 77.388678,251.10264 c -4.651502,-1.73421 -7.29565,-6.23615 -6.33226,-10.78132 0.3229,-1.52339 0.457965,-1.81589 25.061663,-54.27102 8.784729,-18.72907 15.971979,-34.08813 15.971659,-34.13125 -2.6e-4,-0.0431 -0.98364,-1.09043 -2.18517,-2.32736 -3.49517,-3.59814 -4.99251,-7.24838 -4.99251,-12.17083 0,-4.98275 1.4986,-8.60079 5.06193,-12.22087 1.87135,-1.90116 2.65089,-2.48348 4.50474,-3.3651 1.23299,-0.58637 2.83711,-1.20518 3.56472,-1.37514 0.7276,-0.16996 1.47174,-0.34857 1.65364,-0.3969 0.25253,-0.0671 0.33073,-1.53611 0.33073,-6.21273 v -6.12485 l 1.06065,-1.06064 c 1.01962,-1.01962 1.11365,-1.05556 2.43098,-0.92898 1.15262,0.11075 1.50957,0.2836 2.24665,1.08789 l 0.8763,0.95622 v 6.312 6.31201 l 1.12448,0.33224 c 3.82907,1.13137 8.19101,4.7699 10.07398,8.40327 3.53414,6.81943 2.44025,14.72717 -2.8158,20.35529 l -1.85062,1.98163 0.40508,0.84369 c 7.92364,16.50304 33.2018,69.23792 36.74022,76.64681 l 4.86495,10.18645 0.004,2.38591 c 0.004,2.1662 -0.0756,2.54839 -0.86361,4.14996 -1.71683,3.48914 -4.59875,5.23809 -8.63138,5.23809 -1.99554,0 -2.38081,-0.0887 -4.08246,-0.94001 -2.239,-1.12011 -3.32213,-2.29899 -4.67881,-5.09235 -1.47096,-3.02869 -10.66659,-22.09226 -19.54419,-40.51733 -4.30759,-8.94019 -8.14015,-16.69959 -8.5168,-17.2431 -2.57242,-3.712 -8.58066,-3.95708 -11.60028,-0.47318 -0.99243,1.14502 -1.93748,3.12012 -22.964228,47.9941 -3.068423,6.54844 -5.921708,12.40869 -6.340636,13.02279 -0.850529,1.2468 -1.889302,2.09973 -3.657594,3.00326 -1.481527,0.757 -5.38298,0.99454 -6.920394,0.42135 z M 126.23944,147.45458 c 2.73807,-1.02444 5.17354,-3.48728 6.2346,-6.30466 2.35352,-6.24917 -1.61036,-13.11062 -8.28447,-14.34037 -4.69625,-0.86532 -9.47854,1.7278 -11.65343,6.31889 -0.76323,1.61114 -0.84269,2.01589 -0.84269,4.29242 0,2.27653 0.0795,2.68128 0.84269,4.29242 2.5389,5.3595 8.28701,7.7678 13.7033,5.7413 z m 67.47097,103.46629 c -0.31847,-0.5153 -0.14806,-127.04817 0.17163,-127.43337 0.22648,-0.2729 1.45486,-0.35519 5.35474,-0.35873 5.80898,-0.005 7.75741,-0.31473 10.65967,-1.69301 4.86267,-2.30927 8.51464,-6.69425 9.7168,-11.66709 0.58376,-2.41483 0.61405,125.00735 0.0304,127.79698 -1.01787,4.86479 -4.6697,9.55781 -9.12829,11.73092 -3.50358,1.70762 -4.59398,1.89513 -11.02018,1.89513 -3.54593,0 -5.67907,-0.0999 -5.78473,-0.27083 z M 41.711156,85.151343 C 35.252294,83.765086 30.646998,79.916467 28.249239,73.901292 25.14112,66.10406 26.631306,58.283437 32.306547,52.608196 c 2.17664,-2.176637 4.697936,-3.75135 7.684818,-4.799655 l 2.116666,-0.74289 19.421387,-0.07595 19.421387,-0.07595 -2.376188,2.485538 c -8.419044,8.806471 -13.855708,20.083132 -15.712839,32.591365 -0.280877,1.891771 -0.511233,3.469349 -0.511903,3.505729 -7.94e-4,0.03638 -4.257704,0.05668 -9.460073,0.04511 -7.025569,-0.01561 -9.901269,-0.115988 -11.178646,-0.39015 z"
         id="path902" />
    </g>
  </g>
</svg>
