<?xml version="1.0" encoding="UTF-8" standalone="no"?>
<svg
   width="64"
   height="64"
   version="1.1"
   id="svg40"
   sodipodi:docname="dbeaver-ue.svg"
   inkscape:version="1.1.1 (3bf5ae0d25, 2021-09-20)"
   xmlns:inkscape="http://www.inkscape.org/namespaces/inkscape"
   xmlns:sodipodi="http://sodipodi.sourceforge.net/DTD/sodipodi-0.dtd"
   xmlns:xlink="http://www.w3.org/1999/xlink"
   xmlns="http://www.w3.org/2000/svg"
   xmlns:svg="http://www.w3.org/2000/svg">
  <sodipodi:namedview
     id="namedview42"
     pagecolor="#ffffff"
     bordercolor="#666666"
     borderopacity="1.0"
     inkscape:pageshadow="2"
     inkscape:pageopacity="0.0"
     inkscape:pagecheckerboard="0"
     showgrid="false"
     inkscape:zoom="24.085825"
     inkscape:cx="61.21858"
     inkscape:cy="44.258397"
     inkscape:window-width="1920"
     inkscape:window-height="1048"
     inkscape:window-x="0"
     inkscape:window-y="0"
     inkscape:window-maximized="1"
     inkscape:current-layer="svg40" />
  <defs
     id="defs20">
    <linearGradient
       id="linearGradient862"
       x1="7.9373"
       x2="7.9373"
       y1="15.081"
       y2="1.852"
       gradientTransform="scale(3.7796)"
       gradientUnits="userSpaceOnUse">
      <stop
         stop-color="#f1efeb"
         offset="0"
         id="stop2" />
      <stop
         stop-color="#fdfcfc"
         offset="1"
         id="stop4" />
    </linearGradient>
    <linearGradient
       id="linearGradient884"
       x1="78.639"
       x2="78.639"
       y1="143.06"
       y2="-25.269"
       gradientUnits="userSpaceOnUse">
      <stop
         stop-color="#291d1a"
         offset="0"
         id="stop7" />
      <stop
         stop-color="#513c34"
         offset="1"
         id="stop9" />
    </linearGradient>
    <linearGradient
       id="linearGradient892"
       x1="69.129"
       x2="69.129"
       y1="139.33"
       y2="-18.862"
       gradientUnits="userSpaceOnUse">
      <stop
         stop-color="#6c523c"
         offset="0"
         id="stop12" />
      <stop
         stop-color="#ae7952"
         stop-opacity=".96471"
         offset="1"
         id="stop14" />
    </linearGradient>
    <filter
       id="filter902"
       x="-0.029768815"
       y="-0.024702415"
       width="1.0595376"
       height="1.0494048"
       color-interpolation-filters="sRGB">
      <feGaussianBlur
         stdDeviation="2.0556612"
         id="feGaussianBlur17" />
    </filter>
    <linearGradient
       id="linearGradient865"
       x1="7.9373002"
       x2="7.9373002"
       y1="15.417"
       y2="1.0583"
       gradientTransform="matrix(3.7796,0,0,3.7796,-53.974881,-16.312769)"
       gradientUnits="userSpaceOnUse">
      <stop
         stop-color="#950ba8"
         offset="0"
         id="stop11" />
      <stop
         stop-color="#c455bb"
         offset="1"
         id="stop13" />
    </linearGradient>
    <linearGradient
       id="linearGradient940"
       x1="30"
       x2="30"
       y1="54"
       y2="9"
       gradientUnits="userSpaceOnUse"
       gradientTransform="translate(-53.974881,-16.312769)">
      <stop
         stop-color="#fff"
         offset="0"
         id="stop16" />
      <stop
         stop-color="#f5f5f5"
         offset="1"
         id="stop18" />
    </linearGradient>
    <linearGradient
       id="l"
       x1="525.44"
       x2="516.65997"
       y1="836.19"
       y2="828.5"
       gradientTransform="matrix(0.97893,0,0,1.0007,-171.41,-740)"
       gradientUnits="userSpaceOnUse"
       xlink:href="#a" />
    <linearGradient
       id="a">
      <stop
         stop-color="#dc85e9"
         offset="0"
         id="stop3" />
      <stop
         stop-color="#f2cbf8"
         offset="1"
         id="stop5" />
    </linearGradient>
    <linearGradient
       id="j"
       x1="525.44"
       x2="516.65997"
       y1="836.19"
       y2="828.5"
       gradientTransform="matrix(0.97893,0,0,1.0007,755.6,-1698.7)"
       gradientUnits="userSpaceOnUse"
       xlink:href="#a" />
    <linearGradient
       id="i"
       x1="525.44"
       x2="516.65997"
       y1="836.19"
       y2="828.5"
       gradientTransform="translate(-125.5,-1702.5)"
       gradientUnits="userSpaceOnUse"
       xlink:href="#a" />
    <linearGradient
       id="h"
       x1="520.59003"
       x2="516.15002"
       y1="735.04999"
       y2="720.85999"
       gradientUnits="userSpaceOnUse"
       xlink:href="#a" />
    <linearGradient
       id="linearGradient910"
       x1="45"
       x2="60.076"
       y1="19"
       y2="3.9236"
       gradientTransform="matrix(0.89283,0,0,0.89283,-50.546281,-12.856369)"
       gradientUnits="userSpaceOnUse">
      <stop
         stop-color="#fff"
         offset="0"
         id="stop21" />
      <stop
         stop-color="#ffccf7"
         offset="1"
         id="stop23" />
    </linearGradient>
  </defs>
  <style
     type="text/css"
     id="style26">.st0{display:none;}
	.st1{display:inline;opacity:0.2;fill:none;stroke:#000000;stroke-width:0.25;enable-background:new    ;}
	.st2{opacity:0.3;fill:url(#SVGID_1_);enable-background:new    ;}
	.st3{opacity:0.3;fill:url(#SVGID_2_);enable-background:new    ;}
	.st4{opacity:0.3;fill:url(#SVGID_3_);enable-background:new    ;}
	.st5{fill:url(#SVGID_4_);stroke:#90193A;}
	.st6{fill:url(#SVGID_5_);}
	.st7{fill:url(#SVGID_6_);}
	.st8{fill:none;stroke:#ABACAE;stroke-width:1.7875;stroke-miterlimit:10;}
	.st9{fill:none;stroke:#DE3E80;stroke-width:2.1907;stroke-miterlimit:10;}
	.st10{fill:url(#SVGID_7_);}
	.st11{fill:#273445;stroke:#DE3E80;stroke-width:0.9135;stroke-linecap:round;stroke-linejoin:round;}
	.st12{fill:url(#SVGID_8_);stroke:#ABACAE;stroke-width:0.6558;stroke-linecap:round;stroke-linejoin:round;}
	.st13{fill:#D3D3D3;stroke:#ABABAD;stroke-width:0.2667;}
	.st14{fill:url(#SVGID_9_);}
	.st15{fill:#101520;}
	.st16{fill:url(#SVGID_10_);}
	.st17{fill:url(#SVGID_11_);}
	.st18{fill:url(#SVGID_12_);}
	.st19{fill:url(#SVGID_13_);}
	.st20{fill:url(#SVGID_14_);}</style>
  <g
     id="g1133"
     transform="translate(-0.22294402,8.9025526)"
     style="fill:#f9f9f9">
    <rect
       style="fill:#f9f9f9;stroke:#000000;stroke-width:0;stroke-opacity:0.479872"
       id="rect1877"
       width="58.903221"
       height="59.722046"
       x="2.4520187"
       y="-7.0012984"
       ry="4.4363317" />
  </g>
  <g
     transform="matrix(0.26716871,0,0,0.26716871,12.713146,16.674571)"
     id="g38">
    <path
       d="M 64.221,154.2 C 41.608,148.5437 21.19,127.45 1.636,89.542 -21.481,44.728 -28.331,4.017 -16.611,-18.908 c 4.753,-9.2962 16.113,-15.222 26.655,-13.905 5.8286,0.72825 16.098,5.2138 18.735,8.1834 2.8371,3.1948 6.7791,12.777 8.4482,20.536 0.89298,4.151 1.859,15.349 2.2282,25.828 l 0.65169,18.5 3.107,-6.6076 c 1.7089,-3.6342 4.9249,-9.7202 7.1467,-13.524 5.5666,-9.5314 5.99,-12.587 2.7958,-20.176 -3.1874,-7.5728 -3.4232,-14.35 -0.59771,-17.175 1.616,-1.616 2.8075,-1.8702 6.4361,-1.3728 l 4.4529,0.61034 7.8139,-7.9179 c 8.388,-8.4997 16.736,-14.516 23.41,-16.87 7.8762,-2.7789 19.804,-1.4438 23.49,2.6292 l 1.886,2.084 -3.9861,-0.8396 c -8.2999,-1.7482 -16.589,-0.86981 -23.667,2.508 -14.874,7.0988 -31.432,31.008 -32.579,47.043 -0.30621,4.2796 -0.0411,7.6118 0.71844,9.0311 1.3706,2.561 0.60267,4.0388 -1.175,2.2612 -0.65083,-0.65083 -1.5724,-1.1833 -2.0479,-1.1833 -2.5608,0 -13.977,30.755 -17.152,46.208 -2.2279,10.843 -2.0706,27.569 0.34813,37.026 1.9164,7.4931 6.381,17.423 9.5615,21.266 l 1.6551,2 -0.53269,-2 c -0.29298,-1.1 -1.7328,-5.825 -3.1997,-10.5 -3.8502,-12.271 -4.5068,-33.118 -1.5022,-47.694 2.4704,-11.985 6.3001,-23.572 11.616,-35.145 3.7818,-8.2335 3.8691,-8.3308 6.9004,-7.6855 7.3763,1.5701 9.5701,1.7428 9.5701,0.75322 0,-0.56816 -1.3167,-1.492 -2.926,-2.053 -9.7217,-3.389 -6.7647,-13.223 9.3039,-30.94 l 6.5884,-7.2644 -0.61459,-5.8801 c -0.56396,-5.3957 -0.42895,-5.9794 1.639,-7.0862 2.7131,-1.452 7.6678,-0.62393 10.25,1.7131 2.7343,2.4745 13.412,2.9234 20.726,0.87131 7.5152,-2.1087 16.374,-2.3814 18.555,-0.57129 1.1032,0.91554 1.5004,2.3771 1.2008,4.4181 -0.24621,1.6775 0.39406,5.4965 1.4228,8.4866 1.02874,2.9901 2.1482,9.0682 2.4877,13.507 0.75119,9.8222 -0.97738,17.474 -6.2483,27.66 -4.4633,8.6246 -4.6373,12.302 -1.0068,21.276 3.0931,7.6452 5.0021,15.956 6.5711,28.609 1.6323,13.163 1.2493,22.496 -1.4571,35.504 -3.1043,14.92 -3.245,22.295 -0.49207,25.795 4.1564,5.284 1.6486,11.061 -5.8992,13.589 -4.7788,1.6006 -15.064,1.4156 -20.101,-0.36148 -5.9663,-2.105 -10.908,-1.8669 -15,0.72277 -3.0834,1.9516 -5.0475,2.2444 -16.5,2.4601 -8.835,0.16638 -14.876,-0.2244 -18.855,-1.2197 z m 35.143,-2.9632 c 5.6823,-3.0249 7.8126,-3.0784 16.212,-0.40676 10.186,3.2397 22.632,1.0026 25.149,-4.5199 0.99442,-2.1825 0.78839,-3.0568 -1.4978,-6.3557 -3.4079,-4.9176 -3.4365,-9.6176 -0.15079,-24.815 4.4068,-20.382 2.5329,-47.498 -4.4952,-65.05 -1.6526,-4.1272 -3.0048,-9.129 -3.0048,-11.115 0,-2.1982 1.7985,-7.4585 4.5966,-13.445 3.4339,-7.3461 4.7153,-11.409 5.0655,-16.063 0.50659,-6.7308 -0.0485,-6.6913 -3.9133,0.27819 -2.3273,4.1969 -4.2658,3.421 -3.9554,-1.5831 0.26492,-4.2713 -1.2793,-8.1259 -2.1621,-5.397 -0.26191,0.80959 -1.2575,3.9405 -2.2124,6.9575 -0.95491,3.017 -3.0404,6.7897 -4.6344,8.3837 -2.6929,2.6929 -3.3059,2.8612 -8.654,2.3763 -5.9174,-0.53657 -13.127,-3.613 -20.811,-8.8801 -6.5683,-4.5025 -7.3378,-4.0021 -4.8198,3.1345 2.6928,7.6323 2.0013,13.042 -2.9199,22.84 -6.815,13.57 -7.9341,18.49 -7.3031,32.109 0.484,10.447 0.97955,12.817 5.1884,24.818 6.9466,19.806 5.554,24.95 -5.0694,18.724 -6.1954,-3.6308 -17.975,-14.917 -21.055,-20.174 -1.3918,-2.3749 -3.1628,-4.318 -3.9355,-4.318 -0.7727,0 -1.405,0.2513 -1.405,0.55845 0,0.30714 -0.48875,3.7085 -1.0861,7.5586 -1.2541,8.0827 -0.0193,20.153 3.0805,30.113 1.0481,3.3676 1.6524,6.5327 1.3429,7.0335 -0.9494,1.5362 -7.2938,-5.4109 -11.047,-12.097 -1.9555,-3.4833 -4.7103,-9.7833 -6.1216,-14 -2.2792,-6.8095 -2.5681,-9.2878 -2.5843,-22.167 -0.0157,-12.487 0.3586,-16.002 2.6965,-25.321 3.8795,-15.463 14.324,-41.679 16.605,-41.679 0.46492,0 1.0649,-3.0694 1.3333,-6.8209 0.8447,-11.806 9.4033,-28.584 20.242,-39.681 6.1579,-6.3051 11.541,-9.7876 19.205,-12.424 4.7065,-1.619 5.254,-2.0113 2.8336,-2.0304 -4.4268,-0.035 -12.053,3.8999 -20.25,10.449 -3.9875,3.1857 -7.2683,6.0657 -7.2906,6.4 -0.0224,0.3343 -1.3858,2.1828 -3.0298,4.1078 -2.7452,3.2144 -3.5376,3.5408 -9.7094,4 l -6.7202,0.5 -0.29971,5.7434 c -0.2199,4.214 0.27036,7.01 1.8411,10.5 3.0034,6.6732 2.7099,12.006 -0.99199,18.022 -1.6647,2.7055 -5.0822,9.3775 -7.5944,14.827 -5.7607,12.496 -5.9863,12.908 -7.064,12.908 -0.49006,0 -1.1754,-10.125 -1.5229,-22.5 -0.94698,-33.721 -4.4329,-44.449 -16.405,-50.491 -5.1476,-2.5976 -7.0564,-3.0089 -13.963,-3.0089 -6.9421,0 -8.6236,0.3666 -12.716,2.7723 -5.8272,3.4254 -9.1369,7.6635 -11.966,15.323 -2.9992,8.1189 -3.2444,32.62 -0.45439,45.405 8.2129,37.635 33.82,85.602 56.137,105.15 13.659,10.932 24.199,15.342 43.296,15.756 12.355,0.0831 13.628,-0.0875 17.992,-2.4106 z m 17.577,-113.56 c -1.6992,-1.0805 -2.9747,-5.7554 -2.9747,-9.6366 0,-3.5233 1.6925,-4.7268 6.0534,-4.7268 2.6276,0 9.4163,-2.8453 10.456,-4.5274 0.34477,-0.55786 1.926,-1.0559 2.7905,-1.0559 2.036,0 1.3478,4.7172 -1.733,11.879 -1.8589,4.3212 -2.9285,5.4576 -6.7112,7.1309 -5.0302,2.2251 -4.8058,3.3487 -6.4744,2.2878 z m 7.1352,-2.9468 c 0.28871,-7.0055 1.2207,-6.8975 2.3112,-1.2501 0.33799,1.7503 6.1888,-9.3831 6.1888,-11.685 0,-1.377 0.27776,-1.4508 -5.4195,1.4396 -2.7057,1.3727 -6.1932,2.4958 -7.75,2.4958 -2.5782,0 -2.8305,0.31792 -2.8305,3.5657 0,6.9264 3.7142,9.6175 7.5,5.4343 z m 7.1231,-42.765 c 3.0519,-1.9964 6.1104,-8.6991 6.1104,-12.855 0,-3.9014 -0.16858,-4.154 -2.6399,-4.7766 -1.5304,-0.38556 -5.9879,0.13316 -10.352,1.0342 -12.783,2.639 -14.668,6.3169 -9.7483,11.028 5.6643,5.4249 13.652,7.1854 16.63,5.5695 z m -30.974,-13.235 c 2.3691,0 1.4575,-1.7711 -2.017,-3.9184 -3.9808,-2.4603 -7.8882,-2.6827 -9.6583,-0.54983 -1.0021,1.2075 -1.0223,2.3627 -0.0951,5.4573 l 1.1761,3.9256 4.6216,-2.4573 c 2.5419,-1.3515 5.2296,-2.4573 5.9727,-2.4573 z"
       filter="url(#filter902)"
       opacity="0.25"
       id="path28" />
    <g
       class="st0"
       id="g32">
      <path
         class="st1"
         d="M 128,94.1 H 0 m 128,4 H 0 m 128,4 H 0 m 128,-10 H 0 m 128,4 H 0 m 128,4 H 0 m 128,-18 H 0 m 128,4 H 0 m 128,4 H 0 m 128,-10 H 0 m 128,4 H 0 m 128,4 H 0 m 128,-18 H 0 m 128,4 H 0 m 128,4 H 0 m 128,-10 H 0 m 128,4 H 0 m 128,4 H 0 m 128,-18 H 0 m 128,4 H 0 m 128,4 H 0 m 128,-10 H 0 m 128,4 H 0 m 128,4 H 0 m 128,-18 H 0 m 128,4 H 0 m 128,4 H 0 m 128,-10 H 0 m 128,4 H 0 m 128,4 H 0 m 128,-14 H 0 m 128,4 H 0 m 128,-6 H 0 m 128,4 H 0 m 128,-14 H 0 m 128,4 H 0 m 128,4 H 0 m 128,-10 H 0 m 128,4 H 0 m 128,4 H 0 m 128,-18 H 0 m 128,4 H 0 m 128,4 H 0 m 128,-10 H 0 m 128,4 H 0 m 128,4 H 0 M 128,2.1 H 0 m 128,4 H 0 m 128,4 H 0 m 128,-6 H 0 m 128,4 H 0 m 128,108 H 0 m 128,4 H 0 m 128,4 H 0 m 128,-10 H 0 m 128,4 H 0 m 128,4 H 0 m 128,-18 H 0 m 128,4 H 0 m 128,4 H 0 m 128,-6 H 0 m 128,4 H 0 m 128,16 H 0 M 34.1,128 V 0 m -4,128 V 0 m -4,128 V 0 m 10,128 V 0 m -4,128 V 0 m -4,128 V 0 m 18,128 V 0 m -4,128 V 0 m -4,128 V 0 m 10,128 V 0 m -4,128 V 0 m -4,128 V 0 m 18,128 V 0 m -4,128 V 0 m -4,128 V 0 m 10,128 V 0 m -4,128 V 0 m -4,128 V 0 m 18,128 V 0 m -4,128 V 0 m -4,128 V 0 m 10,128 V 0 m -4,128 V 0 m -4,128 V 0 m 18,128 V 0 m -4,128 V 0 m -4,128 V 0 m 10,128 V 0 m -4,128 V 0 m -4,128 V 0 m 14,128 V 0 m -4,128 V 0 m 6,128 V 0 m -4,128 V 0 m 14,128 V 0 m -4,128 V 0 m -4,128 V 0 m 10,128 V 0 m -4,128 V 0 m -4,128 V 0 m 18,128 V 0 m -4,128 V 0 m -4,128 V 0 m 10,128 V 0 m -4,128 V 0 m -4,128 V 0 m 18,128 V 0 m -4,128 V 0 m -4,128 V 0 m 6,128 V 0 m -4,128 V 0 M 12.1,128 V 0 m -4,128 V 0 m -4,128 V 0 m 10,128 V 0 m -4,128 V 0 m -4,128 V 0 m 18,128 V 0 m -4,128 V 0 m -4,128 V 0 m 6,128 V 0 m -4,128 V 0 M 2.1,128 V 0"
         id="path30" />
    </g>
    <path
       d="M 64.221,152.11 C 41.608,146.4537 21.19,125.36 1.636,87.452 -21.481,42.638 -28.331,1.927 -16.611,-20.998 c 4.753,-9.2962 16.113,-15.222 26.655,-13.905 5.8286,0.72825 16.098,5.2138 18.735,8.1834 2.8371,3.1948 6.7791,12.777 8.4482,20.536 0.89298,4.151 1.859,15.349 2.2282,25.828 l 0.65169,18.5 3.107,-6.6076 c 1.7089,-3.6342 4.9249,-9.7202 7.1467,-13.524 5.5666,-9.5314 5.99,-12.587 2.7958,-20.176 -3.1874,-7.5728 -3.4232,-14.35 -0.59771,-17.175 1.616,-1.616 2.8075,-1.8702 6.4361,-1.3728 l 4.4529,0.61034 7.8139,-7.9179 c 8.388,-8.4997 16.736,-14.516 23.41,-16.87 7.8762,-2.7789 19.804,-1.4438 23.49,2.6292 l 1.886,2.084 -3.9861,-0.8396 c -8.2999,-1.7482 -16.589,-0.86981 -23.667,2.508 -14.874,7.0988 -31.432,31.008 -32.579,47.043 -0.30621,4.2796 -0.0411,7.6118 0.71844,9.0311 1.3706,2.561 0.60267,4.0388 -1.175,2.2612 -0.65083,-0.65083 -1.5724,-1.1833 -2.0479,-1.1833 -2.5608,0 -13.977,30.755 -17.152,46.208 -2.2279,10.843 -2.0706,27.569 0.34813,37.026 1.9164,7.4931 6.381,17.423 9.5615,21.266 l 1.6551,2 -0.53269,-2 c -0.29298,-1.1 -1.7328,-5.825 -3.1997,-10.5 -3.8502,-12.271 -4.5068,-33.118 -1.5022,-47.694 2.4704,-11.985 6.3001,-23.572 11.616,-35.145 3.7818,-8.2335 3.8691,-8.3308 6.9004,-7.6855 7.3763,1.5701 9.5701,1.7428 9.5701,0.75322 0,-0.56816 -1.3167,-1.492 -2.926,-2.053 -9.7217,-3.389 -6.7647,-13.223 9.3039,-30.94 l 6.5884,-7.2644 -0.61459,-5.8801 c -0.56396,-5.3957 -0.42895,-5.9794 1.639,-7.0862 2.7131,-1.452 7.6678,-0.62393 10.25,1.7131 2.7343,2.4745 13.412,2.9234 20.726,0.87131 7.5152,-2.1087 16.374,-2.3814 18.555,-0.57129 1.1032,0.91554 1.5004,2.3771 1.2008,4.4181 -0.24621,1.6775 0.39406,5.4965 1.4228,8.4866 1.02874,2.9901 2.1482,9.0682 2.4877,13.507 0.75119,9.8222 -0.97738,17.474 -6.2483,27.66 -4.4633,8.6246 -4.6373,12.302 -1.0068,21.276 3.0931,7.6452 5.0021,15.956 6.5711,28.609 1.6323,13.163 1.2493,22.496 -1.4571,35.504 -3.1043,14.92 -3.245,22.295 -0.49207,25.795 4.1564,5.284 1.6486,11.061 -5.8992,13.589 -4.7788,1.6006 -15.064,1.4156 -20.101,-0.36148 -5.9663,-2.105 -10.908,-1.8669 -15,0.72277 -3.0834,1.9516 -5.0475,2.2444 -16.5,2.4601 -8.835,0.16638 -14.876,-0.2244 -18.855,-1.2197 z m 35.143,-2.9632 c 5.6823,-3.0249 7.8126,-3.0784 16.212,-0.40676 10.186,3.2397 22.632,1.0026 25.149,-4.5199 0.99442,-2.1825 0.78839,-3.0568 -1.4978,-6.3557 -3.4079,-4.9176 -3.4365,-9.6176 -0.15079,-24.815 4.4068,-20.382 2.5329,-47.498 -4.4952,-65.05 -1.6526,-4.1272 -3.0048,-9.129 -3.0048,-11.115 0,-2.1982 1.7985,-7.4585 4.5966,-13.445 3.4339,-7.3461 4.7153,-11.409 5.0655,-16.063 0.50659,-6.7308 -0.0485,-6.6913 -3.9133,0.27819 -2.3273,4.1969 -4.2658,3.421 -3.9554,-1.5831 0.26492,-4.2713 -1.2793,-8.1259 -2.1621,-5.397 -0.26191,0.80959 -1.2575,3.9405 -2.2124,6.9575 -0.95491,3.017 -3.0404,6.7897 -4.6344,8.3837 -2.6929,2.6929 -3.3059,2.8612 -8.654,2.3763 -5.9174,-0.53657 -13.127,-3.613 -20.811,-8.8801 -6.5683,-4.5025 -7.3378,-4.0021 -4.8198,3.1345 2.6928,7.6323 2.0013,13.042 -2.9199,22.84 -6.815,13.57 -7.9341,18.49 -7.3031,32.109 0.484,10.447 0.97955,12.817 5.1884,24.818 6.9466,19.806 5.554,24.95 -5.0694,18.724 -6.1954,-3.6308 -17.975,-14.917 -21.055,-20.174 -1.3918,-2.3749 -3.1628,-4.318 -3.9355,-4.318 -0.7727,0 -1.405,0.2513 -1.405,0.55845 0,0.30714 -0.48875,3.7085 -1.0861,7.5586 -1.2541,8.0827 -0.0193,20.153 3.0805,30.113 1.0481,3.3676 1.6524,6.5327 1.3429,7.0335 -0.9494,1.5362 -7.2938,-5.4109 -11.047,-12.097 -1.9555,-3.4833 -4.7103,-9.7833 -6.1216,-14 -2.2792,-6.8095 -2.5681,-9.2878 -2.5843,-22.167 -0.0157,-12.487 0.3586,-16.002 2.6965,-25.321 3.8795,-15.463 14.324,-41.679 16.605,-41.679 0.46492,0 1.0649,-3.0694 1.3333,-6.8209 0.8447,-11.806 9.4033,-28.584 20.242,-39.681 6.1579,-6.3051 11.541,-9.7876 19.205,-12.424 4.7065,-1.619 5.254,-2.0113 2.8336,-2.0304 -4.4268,-0.035 -12.053,3.8999 -20.25,10.449 -3.9875,3.1857 -7.2683,6.0657 -7.2906,6.4 -0.0224,0.3343 -1.3858,2.1828 -3.0298,4.1078 -2.7452,3.2144 -3.5376,3.5408 -9.7094,4 l -6.7202,0.5 -0.29971,5.7434 c -0.2199,4.214 0.27036,7.01 1.8411,10.5 3.0034,6.6732 2.7099,12.006 -0.99199,18.022 -1.6647,2.7055 -5.0822,9.3775 -7.5944,14.827 -5.7607,12.496 -5.9863,12.908 -7.064,12.908 -0.49006,0 -1.1754,-10.125 -1.5229,-22.5 -0.94698,-33.721 -4.4329,-44.449 -16.405,-50.491 -5.1476,-2.5976 -7.0564,-3.0089 -13.963,-3.0089 -6.9421,0 -8.6236,0.3666 -12.716,2.7723 -5.8272,3.4254 -9.1369,7.6635 -11.966,15.323 -2.9992,8.1189 -3.2444,32.62 -0.45439,45.405 8.2129,37.635 33.82,85.602 56.137,105.15 13.659,10.932 24.199,15.342 43.296,15.756 12.355,0.0831 13.628,-0.0875 17.992,-2.4106 z m 17.577,-113.56 c -1.6992,-1.0805 -2.9747,-5.7554 -2.9747,-9.6366 0,-3.5233 1.6925,-4.7268 6.0534,-4.7268 2.6276,0 9.4163,-2.8453 10.456,-4.5274 0.34477,-0.55786 1.926,-1.0559 2.7905,-1.0559 2.036,0 1.3478,4.7172 -1.733,11.879 -1.8589,4.3212 -2.9285,5.4576 -6.7112,7.1309 -5.0302,2.2251 -4.8058,3.3487 -6.4744,2.2878 z m 7.1352,-2.9468 c 0.28871,-7.0055 1.2207,-6.8975 2.3112,-1.2501 0.33799,1.7503 6.1888,-9.3831 6.1888,-11.685 0,-1.377 0.27776,-1.4508 -5.4195,1.4396 -2.7057,1.3727 -6.1932,2.4958 -7.75,2.4958 -2.5782,0 -2.8305,0.31792 -2.8305,3.5657 0,6.9264 3.7142,9.6175 7.5,5.4343 z m 7.1231,-42.765 c 3.0519,-1.9964 6.1104,-8.6991 6.1104,-12.855 0,-3.9014 -0.16858,-4.154 -2.6399,-4.7766 -1.5304,-0.38556 -5.9879,0.13316 -10.352,1.0342 -12.783,2.639 -14.668,6.3169 -9.7483,11.028 5.6643,5.4249 13.652,7.1854 16.63,5.5695 z m -30.974,-13.235 c 2.3691,0 1.4575,-1.7711 -2.017,-3.9184 -3.9808,-2.4603 -7.8882,-2.6827 -9.6583,-0.54983 -1.0021,1.2075 -1.0223,2.3627 -0.0951,5.4573 l 1.1761,3.9256 4.6216,-2.4573 c 2.5419,-1.3515 5.2296,-2.4573 5.9727,-2.4573 z"
       fill="url(#linearGradient892)"
       id="path34"
       style="fill:url(#linearGradient892)" />
    <path
       d="M 63.576,150.2 C 54.2061,147.5624 46.597,143.2654 38.076,135.8 15.759,116.247 -9.848,68.281 -18.061,30.65 c -2.79,-12.785 -2.5448,-37.286 0.45439,-45.405 2.8294,-7.6593 6.1392,-11.897 11.966,-15.323 4.0925,-2.4057 5.774,-2.7723 12.716,-2.7723 6.9064,0 8.8151,0.41133 13.963,3.0089 11.973,6.0416 15.458,16.77 16.405,50.491 0.34753,12.375 1.0328,22.5 1.5229,22.5 1.0777,0 1.3033,-0.41224 7.064,-12.908 2.5122,-5.4493 5.9297,-12.121 7.5944,-14.827 3.7019,-6.0164 3.9954,-11.349 0.99199,-18.022 -1.5707,-3.49 -2.061,-6.286 -1.8411,-10.5 l 0.29971,-5.7434 6.7202,-0.5 c 6.1718,-0.4592 6.9641,-0.78564 9.7094,-4 1.644,-1.925 3.0075,-3.7735 3.0298,-4.1078 0.0224,-0.33429 3.3031,-3.2143 7.2906,-6.4 8.1973,-6.549 15.823,-10.484 20.25,-10.449 2.4204,0.0191 1.873,0.41142 -2.8336,2.0304 -7.6643,2.6365 -13.047,6.1189 -19.205,12.424 -10.838,11.098 -19.397,27.876 -20.242,39.681 -0.26842,3.7515 -0.86842,6.8209 -1.3333,6.8209 -2.2812,0 -12.726,26.216 -16.605,41.679 -2.3379,9.3188 -2.7122,12.833 -2.6965,25.321 0.0162,12.879 0.30512,15.357 2.5843,22.167 1.4114,4.2167 4.1661,10.517 6.1216,14 3.7533,6.6857 10.098,13.633 11.047,12.097 0.30951,-0.50081 -0.2948,-3.6659 -1.3429,-7.0335 -3.0998,-9.9596 -4.3346,-22.03 -3.0805,-30.113 0.59735,-3.8501 1.0861,-7.2514 1.0861,-7.5586 0,-0.30715 0.63224,-0.55845 1.405,-0.55845 0.77276,0 2.5437,1.9431 3.9355,4.318 3.0809,5.2571 14.86,16.543 21.055,20.174 10.623,6.2257 12.016,1.0821 5.0694,-18.724 -4.2088,-12 -4.7044,-14.371 -5.1884,-24.818 -0.63099,-13.62 0.48808,-18.54 7.3031,-32.109 4.9212,-9.7986 5.6127,-15.208 2.9199,-22.84 -2.518,-7.1367 -1.7485,-7.6371 4.8198,-3.1345 7.6836,5.2671 14.893,8.3435 20.811,8.8801 5.348,0.48494 5.9611,0.31661 8.654,-2.3763 1.594,-1.594 3.6795,-5.3667 4.6344,-8.3837 0.95491,-3.017 1.9505,-6.1479 2.2124,-6.9575 0.88281,-2.7289 2.427,1.1257 2.1621,5.397 -0.31036,5.0041 1.6282,5.7799 3.9554,1.5831 3.8648,-6.9695 4.4199,-7.009 3.9133,-0.27819 -0.35028,4.6541 -1.6316,8.7173 -5.0655,16.063 -2.7982,5.986 -4.5966,11.246 -4.5966,13.445 0,1.9861 1.3521,6.9879 3.0048,11.115 7.0282,17.552 8.902,44.668 4.4952,65.05 -3.2857,15.197 -3.2571,19.897 0.15079,24.815 2.2862,3.2989 2.4922,4.1732 1.4978,6.3557 -2.5162,5.5226 -14.963,7.7596 -25.149,4.5199 -8.3995,-2.6716 -10.53,-2.6182 -16.212,0.40676 -4.3639,2.3231 -5.6371,2.4937 -17.992,2.4106 -7.4017,-0.0498 -15.291,-0.65097 -17.796,-1.3562 z M 124.822,34.66 c 3.7828,-1.6733 4.8523,-2.8097 6.7112,-7.1309 3.0807,-7.1614 3.7689,-11.879 1.733,-11.879 -0.8645,0 -1.8539,0.45643 -2.1987,1.0143 -1.0396,1.6821 -8.242,4.9857 -10.87,4.9857 -4.3609,0 -5.6216,1.0186 -5.6216,4.5419 0,5.3588 2.4619,10.377 5.1229,10.443 0.34259,0.008 2.6478,-0.88042 5.1228,-1.9752 z m -4.0182,-45.759 c -4.6767,-2.525 -9.2275,-7.1173 -9.2275,-9.3117 0,-1.0407 1.0836,-2.6022 2.408,-3.4699 3.3142,-2.1715 17.471,-4.9722 20.842,-4.123 2.4713,0.62258 2.75,1.1327 2.75,5.0342 0,4.156 -3.3249,10.859 -6.3769,12.855 -1.9831,1.2972 -7.0599,0.81631 -10.396,-0.98469 z M 88.4548,-22.36 c -0.92717,-3.0946 -0.90704,-4.2498 0.0951,-5.4573 1.7702,-2.1329 5.6775,-1.9105 9.6583,0.54983 3.4744,2.1473 4.3861,3.9184 2.017,3.9184 -0.74308,0 -3.4308,1.1058 -5.9727,2.4573 l -4.6216,2.4573 -1.1761,-3.9256 z"
       fill="url(#linearGradient884)"
       id="path36"
       style="fill:url(#linearGradient884)" />
  </g>
  <rect
     style="fill:#f2f2f2;fill-opacity:1;stroke:#000000;stroke-width:0"
     id="rect13238"
     width="20.832291"
     height="10.006042"
     x="40.823654"
     y="42.900761"
     ry="1.839713" />
  <rect
     style="fill:#ff7f2a;fill-opacity:1;stroke:#000000;stroke-width:0;stroke-opacity:0.479872"
     id="rect13238-3"
     width="20.832291"
     height="10.006042"
     x="40.823654"
     y="42.900761"
     ry="1.839713" />
  <g
     aria-label="ce"
     id="text6305"
     style="font-size:15.3705px;line-height:1.25;fill:#f9f9f9;stroke-width:0.384262"
     transform="translate(-0.16376678,0.22317044)">
    <g
       aria-label="ue"
       id="text1809"
       style="font-size:15.6664px;fill:#f9f9f9;stroke-width:0.150499">
      <path
         d="m 50.331845,51.270218 v -7.04988 h -1.942633 v 7.04988 z M 47.903553,50.549563 V 49.78191 c -0.438659,0.281995 -0.939984,0.485658 -1.456975,0.485658 -0.532657,0 -0.971317,-0.422993 -0.971317,-0.95565 v -5.09158 h -1.942633 v 5.09158 c 0,1.143647 0.845985,2.114964 1.973966,2.114964 0.861652,0 1.691971,-0.360327 2.396959,-0.877319 z"
         style="font-family:'Kurier Heavy';-inkscape-font-specification:'Kurier Heavy, ';fill:#f9f9f9"
         id="path4145" />
      <path
         d="m 59.261672,47.901942 v -0.156664 c 0,-2.208962 -1.441309,-3.681604 -3.618938,-3.681604 -2.17763,0 -3.618939,1.472642 -3.618939,3.681604 0,2.208962 1.441309,3.681604 3.618939,3.681604 0.924317,0 1.817302,-0.234996 2.616288,-0.673655 v -1.065316 c -0.908651,0.422993 -1.613639,0.579657 -2.616288,0.579657 -1.080982,0 -1.519641,-1.284644 -1.519641,-2.52229 0,-1.56664 0.610989,-2.616289 1.519641,-2.616289 0.939984,0 1.51964,0.986983 1.51964,2.020966 h -2.553623 v 0.751987 z"
         style="font-family:'Kurier Heavy';-inkscape-font-specification:'Kurier Heavy, ';fill:#f9f9f9"
         id="path4147" />
    </g>
  </g>
</svg>
