<?xml version="1.0" encoding="UTF-8" standalone="no"?>
<!-- Created with Inkscape (http://www.inkscape.org/) -->

<svg
   xmlns:dc="http://purl.org/dc/elements/1.1/"
   xmlns:cc="http://creativecommons.org/ns#"
   xmlns:rdf="http://www.w3.org/1999/02/22-rdf-syntax-ns#"
   xmlns:svg="http://www.w3.org/2000/svg"
   xmlns="http://www.w3.org/2000/svg"
   xmlns:sodipodi="http://sodipodi.sourceforge.net/DTD/sodipodi-0.dtd"
   xmlns:inkscape="http://www.inkscape.org/namespaces/inkscape"
   width="512"
   height="512"
   viewBox="0 0 512 512.00002"
   id="svg2"
   version="1.1"
   inkscape:version="0.91 r13725"
   sodipodi:docname="evince.svg">
  <defs
     id="defs4" />
  <sodipodi:namedview
     id="base"
     pagecolor="#ffffff"
     bordercolor="#666666"
     borderopacity="1.0"
     inkscape:pageopacity="0.0"
     inkscape:pageshadow="2"
     inkscape:zoom="0.70710678"
     inkscape:cx="269.8755"
     inkscape:cy="157.05291"
     inkscape:document-units="px"
     inkscape:current-layer="layer1"
     showgrid="true"
     units="px"
     inkscape:showpageshadow="false"
     borderlayer="true"
     inkscape:window-width="1366"
     inkscape:window-height="746"
     inkscape:window-x="0"
     inkscape:window-y="0"
     inkscape:window-maximized="1">
    <inkscape:grid
       type="xygrid"
       id="grid4136" />
  </sodipodi:namedview>
  <metadata
     id="metadata7">
    <rdf:RDF>
      <cc:Work
         rdf:about="">
        <dc:format>image/svg+xml</dc:format>
        <dc:type
           rdf:resource="http://purl.org/dc/dcmitype/StillImage" />
        <dc:title></dc:title>
      </cc:Work>
    </rdf:RDF>
  </metadata>
  <g
     inkscape:label="Capa 1"
     inkscape:groupmode="layer"
     id="layer1"
     transform="translate(0,-610.5196)">
    <path
       style="fill:#d40000;fill-opacity:1;fill-rule:evenodd;stroke:none;stroke-width:1px;stroke-linecap:butt;stroke-linejoin:miter;stroke-opacity:1"
       d="m 90.143582,640.66975 c -4.442114,0 -8.01869,3.57657 -8.01869,8.01869 l 0,392.91576 0,16.0374 24.056068,0 0,-16.0374 328.76627,0 0,-392.91576 c 0,-4.44212 -3.57658,-8.01869 -8.01869,-8.01869 l -336.784958,0 z"
       id="path4178"
       inkscape:connector-curvature="0" />
    <path
       style="opacity:1;fill:#96281b;fill-opacity:1;stroke:none;stroke-opacity:1"
       d="m 90.143582,640.66975 c -4.442114,0 -8.01869,3.57657 -8.01869,8.01869 l 0,408.95316 80.186898,0 0,-416.97185 -72.168208,0 z"
       id="rect4181"
       inkscape:connector-curvature="0" />
    <path
       style="opacity:1;fill:#812317;fill-opacity:1;stroke:none;stroke-opacity:1"
       d="m 90.143582,640.66975 c -4.442114,0 -8.01869,3.57657 -8.01869,8.01869 l 0,408.95316 24.056068,0 0,-416.97185 -16.037378,0 z"
       id="rect4190"
       inkscape:connector-curvature="0" />
    <rect
       y="1057.826"
       x="90.143585"
       height="7.8364468"
       width="344.80365"
       id="rect4310"
       style="fill:#f8cece;fill-opacity:1;stroke:none" />
    <rect
       style="fill:#f8dddd;fill-opacity:1;stroke:none"
       id="rect4168"
       width="344.80365"
       height="8.0186892"
       x="90.143585"
       y="1049.6234" />
    <path
       style="opacity:1;fill:#96281b;fill-opacity:1;stroke:none;stroke-opacity:1"
       d="m 98.162271,1041.6042 c -8.884708,0 -16.037379,7.1527 -16.037379,16.0374 0,8.8847 7.152671,16.0374 16.037379,16.0374 l 64.149519,0 272.63544,0 0,-8.0187 -272.63544,0 -64.149519,0 c -4.442354,0 -8.018689,-3.5763 -8.018689,-8.0187 0,-4.4423 3.576335,-8.0187 8.018689,-8.0187 l 64.149519,0 0,-8.0187 -64.149519,0 z"
       id="path4188"
       inkscape:connector-curvature="0" />
    <path
       style="opacity:1;fill:#96281b;fill-opacity:1;stroke:none;stroke-opacity:1"
       d="m 162.31179,1041.6042 0,8.0187 272.63544,0 0,-8.0187 -272.63544,0 z"
       id="path4186"
       inkscape:connector-curvature="0" />
    <path
       style="font-style:normal;font-variant:normal;font-weight:normal;font-stretch:normal;font-size:medium;line-height:125%;font-family:'Respective 2.0';-inkscape-font-specification:'Respective 2.0, ';letter-spacing:0px;word-spacing:0px;fill:#ffffff;fill-opacity:1;stroke:none;stroke-width:8px;stroke-linecap:butt;stroke-linejoin:miter;stroke-opacity:1"
       d="m 434.94723,674.26367 c -19.36568,9.09637 -38.72284,21.78084 -58.08852,38.08877 -25.31767,21.21211 -48.92494,47.21819 -70.82131,78.00995 -21.21211,30.1075 -37.63864,61.59432 -49.27109,94.43886 -12.31671,32.16029 -18.13118,63.63144 -17.44691,94.42323 0.51343,23.10622 6.21682,43.89722 17.13368,62.37972 l 70.75867,0 c -4.33649,-8.4104 -7.30215,-18.5938 -8.86441,-30.5712 -2.05279,-15.73802 -1.70339,-33.51522 1.03366,-53.35882 3.4213,-20.5278 8.20324,-41.75193 14.36159,-63.6483 15.05376,12.31671 32.84656,16.43118 53.37441,12.3256 15.94434,-3.18887 31.88588,-9.35577 47.83023,-18.32396 l 0,-29.06775 c -2.57974,2.50629 -5.14162,5.04978 -7.79943,7.36091 -15.05376,13.68523 -30.44776,22.58163 -46.18577,26.6872 -15.73802,3.42131 -29.43202,-2.05942 -41.06447,-16.42891 8.89541,-26.6862 19.50747,-53.02601 31.82418,-79.02795 12.31671,-26.00194 25.31191,-48.57668 38.99715,-67.736 8.0775,-11.15464 16.15084,-20.6426 24.22834,-28.77018 l 0,-26.78117 z m 0,356.11123 c -5.14599,4.036 -10.23697,7.7774 -15.28563,11.2293 l 15.28563,0 0,-11.2293 z"
       id="path4190"
       inkscape:connector-curvature="0" />
    <path
       style="fill:#ffffff;fill-opacity:1"
       d="m 296.5289,739.42847 c -7.0734,-0.0783 -15.55083,0.54183 -24.75852,1.85717 -4.21654,-2.42136 -8.67083,-5.07624 -12.19657,-8.36958 -8.94635,-8.34662 -16.44652,-19.94125 -21.09912,-32.93445 0.3183,-1.24406 0.62508,-2.45917 0.90172,-3.68839 1.29448,-5.81514 2.22193,-25.035 2.22193,-25.035 0,0 -3.67803,14.43885 -4.25815,16.61659 -0.37088,1.3825 -0.8398,2.8574 -1.37229,4.39246 -2.82234,-9.91546 -4.25872,-19.53415 -4.25872,-26.82141 0,-2.06267 0.17632,-6.0642 0.76147,-9.23414 0.28377,-2.26056 1.10988,-3.43601 1.96117,-4.0038 1.68343,0.40895 3.56355,2.98668 5.53076,7.3025 1.68947,3.72989 1.58427,8.052 1.58427,10.72727 0,0 1.8111,-6.62417 1.39254,-10.53835 -0.25428,-2.35018 -2.49474,-8.39451 -7.25033,-8.32189 l -0.38731,0 -2.11728,-0.0309 c -3.47425,0 -6.7239,1.70121 -7.50893,4.50361 -2.91929,10.75158 0.34679,27.37837 5.79589,48.09312 l -1.64948,4.01019 c -4.17105,10.15692 -9.38181,20.2748 -13.96776,29.25451 -18.92904,37.00469 -33.65317,56.97066 -43.4706,58.36851 l -0.0421,-0.40236 c -0.21298,-4.61537 8.31735,-16.52048 19.87557,-25.983 1.20486,-0.97582 6.34434,-5.94596 6.34434,-5.94596 0,0 -6.9428,3.6684 -8.50132,4.60981 -14.48112,8.63968 -21.69018,17.29089 -22.86489,23.03465 -0.34803,1.70677 -0.11817,3.80179 1.38764,4.66286 l 3.70588,1.86098 c 10.07861,5.04122 22.46747,-8.21156 38.94772,-37.0665 16.7689,-5.49549 37.6883,-10.67227 56.73806,-13.47529 17.05021,9.73365 36.60938,14.36757 44.12213,12.36494 1.4298,-0.37722 2.93739,-1.49684 3.70434,-2.53065 0.60258,-0.9513 1.44074,-4.75856 1.44074,-4.75856 0,0 -1.41008,1.93093 -2.57309,2.49738 -4.75832,2.24367 -19.76954,-1.49973 -35.17959,-9.03122 13.32232,-1.41649 24.42652,-1.47603 30.35773,0.41822 7.5319,2.40179 7.5319,4.8691 7.43219,5.37096 0.0997,-0.4139 0.44265,-2.06659 0.40156,-2.7685 -0.17251,-1.80639 -0.72529,-3.41696 -2.09211,-4.75207 -2.79003,-2.74338 -9.67604,-4.13041 -19.05957,-4.2534 z m -83.78042,17.37773 c 2.85247,-5.06471 5.94232,-10.5805 9.10497,-16.53027 6.11854,-11.56301 9.83052,-20.48916 12.95145,-28.88882 4.91938,9.88837 11.71009,19.28579 20.61265,26.81615 1.98582,1.67845 4.096,3.26604 6.26808,4.76567 -16.16986,3.00368 -33.15543,7.23143 -48.93715,13.83727 z"
       id="path2994"
       inkscape:connector-curvature="0" />
  </g>
</svg>
