<?xml version="1.0" encoding="UTF-8" standalone="no"?>
<!-- Created with Inkscape (http://www.inkscape.org/) -->

<svg
   width="64"
   height="64"
   viewBox="0 0 16.933333 16.933334"
   version="1.1"
   id="svg5"
   inkscape:version="1.1 (c68e22c387, 2021-05-23)"
   sodipodi:docname="kdenlive.svg"
   xmlns:inkscape="http://www.inkscape.org/namespaces/inkscape"
   xmlns:sodipodi="http://sodipodi.sourceforge.net/DTD/sodipodi-0.dtd"
   xmlns="http://www.w3.org/2000/svg"
   xmlns:svg="http://www.w3.org/2000/svg">
  <sodipodi:namedview
     id="namedview7"
     pagecolor="#ffffff"
     bordercolor="#666666"
     borderopacity="1.0"
     inkscape:pageshadow="2"
     inkscape:pageopacity="0.0"
     inkscape:pagecheckerboard="0"
     inkscape:document-units="px"
     showgrid="false"
     units="px"
     width="64px"
     inkscape:zoom="4.0694164"
     inkscape:cx="-4.0546355"
     inkscape:cy="35.508777"
     inkscape:window-width="1920"
     inkscape:window-height="1054"
     inkscape:window-x="0"
     inkscape:window-y="0"
     inkscape:window-maximized="1"
     inkscape:current-layer="g914" />
  <defs
     id="defs2" />
  <g
     inkscape:label="Layer 1"
     inkscape:groupmode="layer"
     id="layer1">
    <g
       id="g914"
       transform="translate(-21.954113,-17.103451)">
      <path
         style="fill:#f8c1bb;stroke-width:0.031618"
         d="m 30.407452,26.2796 c 0,-2.79109 0.0038,-3.932898 0.0082,-2.537353 0.0046,1.395544 0.0046,3.679162 0,5.074706 -0.0046,1.395545 -0.0082,0.253736 -0.0082,-2.537353 z m 0.37942,0 c 0,-2.79109 0.0038,-3.932898 0.0082,-2.537353 0.0046,1.395544 0.0046,3.679162 0,5.074706 -0.0046,1.395545 -0.0082,0.253736 -0.0082,-2.537353 z"
         id="path928" />
      <path
         style="fill:#a9cdf5;stroke-width:0.031618"
         d="m 25.712545,28.935522 v -0.348327 l 1.778518,0.0081 1.77852,0.0081 v 0.33199 0.33199 l -1.77852,0.0081 -1.778518,0.0081 z m 3.541228,0 v -0.316183 h -1.754805 -1.754805 v 0.316183 0.316181 h 1.754805 1.754805 z m -1.399101,-0.750755 1.399101,-0.0088 V 27.860453 27.54493 l -1.3912,-0.0088 -1.391204,-0.0088 1.399106,4.98e-4 1.399108,4.98e-4 v 0.33199 0.331991 l -1.407005,4.98e-4 -1.407007,4.97e-4 1.399101,-0.0088 z M 24.554503,26.76968 c 7.2e-5,-0.19129 0.0053,-0.265468 0.01165,-0.16484 0.0063,0.10062 0.0063,0.257136 -1.32e-4,0.347799 -0.0064,0.09066 -0.0115,0.0084 -0.0115,-0.182959 z m -2.181651,-1.075016 c 7.2e-5,-0.191288 0.0053,-0.265467 0.01164,-0.16484 0.0063,0.100619 0.0063,0.257136 -1.32e-4,0.347798 -0.0064,0.09066 -0.0115,0.0084 -0.0115,-0.182958 z m 2.699426,-1.43071 c 0.769507,-0.0047 2.028698,-0.0047 2.798203,0 0.769507,0.0047 0.139912,0.0086 -1.399101,0.0086 -1.539012,0 -2.168607,-0.004 -1.399102,-0.0086 z m 0.591075,-0.719321 0.0018,-0.347799 1.802232,-3.98e-4 1.802234,-3.98e-4 -1.793262,0.0086 -1.793261,0.0086 -0.0107,0.339636 -0.0107,0.339633 0.0018,-0.347797 z m 2.760446,-0.766446 0.829974,-0.0092 v -0.315132 -0.31513 l -0.814165,-0.0092 -0.814167,-0.0092 0.822071,7.88e-4 0.822071,7.89e-4 v 0.331989 0.331991 l -0.83788,8.29e-4 -0.83788,8.3e-4 0.829976,-0.0092 z"
         id="path926" />
      <path
         style="fill:#f6ada4;stroke-width:0.031618"
         d="m 29.894041,19.268313 c 0.395622,-0.005 1.043002,-0.005 1.438623,0 0.395622,0.005 0.07194,0.0091 -0.719312,0.0091 -0.791243,0 -1.114934,-0.0041 -0.719311,-0.0091 z"
         id="path924" />
      <path
         style="fill:#82b8f3;stroke-width:0.031618"
         d="M 27.546396,29.963109 V 29.63112 h 0.853688 0.853689 v 0.331989 0.33199 h -0.853689 -0.853688 z m -1.802233,-1.027587 v -0.316183 h 1.754805 1.754805 v 0.316183 0.316181 h -1.754805 -1.754805 z m 0.727217,-1.075017 v -0.316182 h 1.391198 1.391195 v 0.316182 0.316182 H 27.862578 26.47138 Z M 24.574293,26.76968 v -0.33199 h 2.33974 2.33974 v 0.33199 0.331991 h -2.33974 -2.33974 z m -2.18165,-1.075016 v -0.33199 h 3.430565 3.430565 v 0.33199 0.33199 h -3.430565 -3.430565 z m 1.296344,-1.075015 v -0.33199 h 2.782393 2.782393 v 0.33199 0.331989 H 26.47138 23.688987 Z m 1.99194,-1.075016 v -0.33199 h 1.786423 1.786423 v 0.33199 0.331991 H 27.46735 25.680927 Z m 1.928705,-1.090824 v -0.316182 h 0.822071 0.82207 v 0.316182 0.316181 h -0.82207 -0.822071 z m 0.727216,-1.090825 v -0.331991 h 0.458463 0.458462 v 0.331991 0.33199 h -0.458462 -0.458463 z"
         id="path922" />
      <path
         style="fill:#f28476;stroke-width:0.031618"
         d="m 30.423643,26.277488 v -5.061007 l -0.617326,-0.954337 -0.617328,-0.954338 0.712183,-0.0086 c 0.391698,-0.0047 1.031589,-0.0047 1.421979,0 l 0.7098,0.0086 -0.630754,0.95502 -0.630753,0.955018 v 5.060326 5.060327 h -0.1739 -0.173901 z"
         id="path920" />
      <path
         style="fill:#6a90bc;stroke-width:0.031618"
         d="m 31.925073,25.678855 c 0,-2.46068 0.0038,-3.46732 0.0084,-2.236981 0.0046,1.23034 0.0046,3.243622 0,4.473964 -0.0046,1.230338 -0.0084,0.223698 -0.0084,-2.236983 z"
         id="path918" />
      <path
         style="fill:#517db1;stroke-width:0.031618"
         d="m 31.99364,30.237278 c -0.04818,-0.05324 -0.05233,-0.415317 -0.05233,-4.563917 0,-4.252336 0.0031,-4.508771 0.05532,-4.553617 0.09128,-0.07839 0.165302,-0.09081 0.254949,-0.04283 0.226573,0.121318 6.129236,4.441702 6.171405,4.517089 0.04218,0.07543 0.04218,0.09417 2.9e-5,0.168836 -0.02757,0.04883 -1.330469,1.015119 -3.112162,2.308122 -3.247322,2.356636 -3.182997,2.314626 -3.317225,2.166308 z"
         id="path916" />
    </g>
  </g>
</svg>
