<?xml version="1.0" encoding="UTF-8" standalone="no"?>
<svg
   width="64"
   height="64"
   viewBox="0 0 16.933 16.933"
   version="1.1"
   id="svg3"
   sodipodi:docname="novi.svg"
   xml:space="preserve"
   inkscape:version="1.3 (0e150ed6c4, 2023-07-21)"
   xmlns:inkscape="http://www.inkscape.org/namespaces/inkscape"
   xmlns:sodipodi="http://sodipodi.sourceforge.net/DTD/sodipodi-0.dtd"
   xmlns:xlink="http://www.w3.org/1999/xlink"
   xmlns="http://www.w3.org/2000/svg"
   xmlns:svg="http://www.w3.org/2000/svg"><sodipodi:namedview
     id="namedview3"
     pagecolor="#ffffff"
     bordercolor="#000000"
     borderopacity="0.25"
     inkscape:showpageshadow="2"
     inkscape:pageopacity="0.0"
     inkscape:pagecheckerboard="0"
     inkscape:deskcolor="#d1d1d1"
     inkscape:zoom="8.921875"
     inkscape:cx="7.6777583"
     inkscape:cy="27.180385"
     inkscape:window-width="1920"
     inkscape:window-height="1047"
     inkscape:window-x="0"
     inkscape:window-y="0"
     inkscape:window-maximized="1"
     inkscape:current-layer="g114" /><defs
     id="defs2"><linearGradient
       id="a"><stop
         offset="0"
         id="stop1" /><stop
         offset="1"
         stop-opacity="0"
         id="stop2" /></linearGradient><linearGradient
       xlink:href="#a"
       id="b"
       x1="44.062"
       y1="57"
       x2="44.062"
       y2="28.742"
       gradientUnits="userSpaceOnUse"
       gradientTransform="matrix(.26458 0 0 .27517 0 279.463)" /></defs><g
     id="g114"
     transform="translate(0.47237871,8.4989111)"><path
       style="fill:#ecc84f;stroke-width:0.220855"
       d="M 6.909639,6.8829319 C 6.4177005,6.8120423 5.5733556,6.5645108 5.1462573,6.3659724 4.5824265,6.1038728 4.1365912,5.7725118 3.6457377,5.2507313 2.7446155,4.292833 2.2974969,2.9546672 2.442575,1.6498287 2.6698571,-0.39435638 4.1369702,-2.013193 6.1366101,-2.42623 c 0.2456956,-0.050749 0.5490827,-0.092272 0.6741958,-0.092272 0.348964,0 0.590428,-0.1054662 0.6333925,-0.2766501 C 7.5510943,-3.2210563 7.2925248,-5.0859382 7.0820357,-5.4071845 6.9493295,-5.6097194 6.5913351,-5.7907719 6.3235711,-5.7907719 c -0.5550276,0 -1.8115663,0.7403449 -2.5445199,1.4992151 -0.7037798,0.7286634 -1.1335125,1.4360354 -1.415219,2.3295542 C 2.0973538,-1.1167858 2.0468827,-0.47256618 2.1797008,0.38829028 2.2149892,0.6169824 2.2019777,0.65236246 2.0131903,0.84114876 1.6551781,1.199161 1.2098371,1.0762038 0.97259357,0.55384331 0.76933281,0.10630957 0.84415886,-1.1635905 1.1325795,-2.1613585 c 0.6209384,-2.1480907 2.3466599,-3.9934703 4.4117973,-4.7177082 0.5796098,-0.2032663 1.2161354,-0.1813418 1.7069612,0.058796 0.419421,0.2052037 0.8365512,0.6218894 1.0168945,1.0158117 0.2140135,0.4674683 0.3631081,1.3827501 0.4041386,2.4809957 0.04277,1.1448019 -0.010418,1.3725594 -0.3975642,1.7039835 -0.279338,0.2391028 -0.5985917,0.3280782 -1.1771796,0.3280782 -0.9211226,0 -1.7915293,0.35491689 -2.4356423,0.99315762 C 3.099878,1.24962 3.3772776,3.8081154 5.2375727,5.010482 6.4000097,5.7618013 8.3634923,5.9302197 9.8897412,5.4095233 11.062169,5.0095368 12.210427,4.1574926 12.54168,3.4417017 12.739924,3.0133262 12.748956,2.3771371 12.56266,1.9644173 12.077157,0.88886314 11.037153,-0.12302338 9.6927934,-0.82785744 9.4410465,-0.95984582 9.2708032,-1.0982629 9.1668931,-1.2554438 8.8578414,-1.7229342 8.9924205,-2.6037595 9.5974825,-4.0736532 c 0.4621705,-1.1227652 0.9353295,-1.8406292 1.3396585,-2.0324966 0.247375,-0.1173872 0.67452,-0.1204206 0.946639,-0.00676 0.736093,0.30756 1.949662,1.6611739 2.529795,2.8217331 0.559008,1.1183007 0.870193,2.95429589 0.640781,3.78063733 -0.09384,0.33802001 -0.448551,0.67330137 -0.712317,0.67330137 -0.454248,0 -0.736458,-0.47768126 -0.53412,-0.90407677 0.08453,-0.17813805 0.09576,-0.31447929 0.06663,-0.80913933 -0.08412,-1.4286601 -0.617631,-2.639993 -1.618259,-3.6742136 -0.774983,-0.8009991 -0.864509,-0.7861201 -1.344129,0.2233928 -0.282219,0.5940214 -0.642606,1.6567159 -0.642606,1.8948902 0,0.1478697 0.04367,0.2025081 0.267836,0.3351187 1.420408,0.8402707 2.368434,1.77024633 3.002009,2.9448548 0.676427,1.2540513 0.493089,2.6333917 -0.486807,3.6624965 C 12.080211,5.8572972 10.652039,6.6031698 9.1762638,6.8605234 8.6380015,6.954389 7.484759,6.9657702 6.9096367,6.8828934 Z"
       id="path114" /></g></svg>
