<?xml version="1.0" encoding="UTF-8" standalone="no"?>
<!-- Created with Inkscape (http://www.inkscape.org/) -->

<svg
   xmlns:dc="http://purl.org/dc/elements/1.1/"
   xmlns:cc="http://creativecommons.org/ns#"
   xmlns:rdf="http://www.w3.org/1999/02/22-rdf-syntax-ns#"
   xmlns:svg="http://www.w3.org/2000/svg"
   xmlns="http://www.w3.org/2000/svg"
   xmlns:xlink="http://www.w3.org/1999/xlink"
   xmlns:sodipodi="http://sodipodi.sourceforge.net/DTD/sodipodi-0.dtd"
   xmlns:inkscape="http://www.inkscape.org/namespaces/inkscape"
   width="51.200001"
   height="51.200001"
   viewBox="0 0 48.000001 48"
   id="svg4148"
   version="1.1"
   inkscape:version="0.92.2 (5c3e80d, 2017-08-06)"
   sodipodi:docname="gnome-tweak-tool.svg">
  <title
     id="title4159">Boston Icons</title>
  <defs
     id="defs4150">
    <linearGradient
       x1="302.85999"
       y1="366.64999"
       x2="302.85999"
       y2="609.51001"
       id="linearGradient5557"
       gradientUnits="userSpaceOnUse"
       gradientTransform="matrix(0.06285526,0,0,0.02470644,1.3086708,1034.3879)">
      <stop
         id="stop5050"
         style="stop-color:#000000;stop-opacity:0"
         offset="0" />
      <stop
         id="stop5056"
         style="stop-color:#000000;stop-opacity:1"
         offset="0.5" />
      <stop
         id="stop5052"
         style="stop-color:#000000;stop-opacity:0"
         offset="1" />
    </linearGradient>
    <radialGradient
       cx="605.71002"
       cy="486.64999"
       r="117.14"
       id="radialGradient5559"
       xlink:href="#linearGradient5060"
       gradientUnits="userSpaceOnUse"
       gradientTransform="matrix(0.06285526,0,0,0.02470644,1.3222642,1034.3879)" />
    <linearGradient
       id="linearGradient5060">
      <stop
         id="stop5062"
         style="stop-color:#000000;stop-opacity:1"
         offset="0" />
      <stop
         id="stop5064"
         style="stop-color:#000000;stop-opacity:0"
         offset="1" />
    </linearGradient>
    <radialGradient
       cx="605.71002"
       cy="486.64999"
       r="117.14"
       id="radialGradient5561"
       xlink:href="#linearGradient5060"
       gradientUnits="userSpaceOnUse"
       gradientTransform="matrix(-0.06285526,0,0,0.02470644,46.731931,1034.3879)" />
    <linearGradient
       gradientTransform="matrix(1.0000196,0,0,1.0000196,0.02643675,1002.9459)"
       xlink:href="#linearGradient4197"
       id="linearGradient4195"
       x1="24.668751"
       y1="6.21875"
       x2="24.7125"
       y2="12.6375"
       gradientUnits="userSpaceOnUse" />
    <linearGradient
       gradientTransform="matrix(0.40394,0,0,0.42567,4.5497,-4.793)"
       gradientUnits="userSpaceOnUse"
       id="linearGradient4197"
       y2="57.610001"
       x2="83.239998"
       y1="42.457001"
       x1="83.239998">
      <stop
         offset="0"
         style="stop-color:#e5e5e5;stop-opacity:1"
         id="stop4199" />
      <stop
         offset="1"
         style="stop-color:#d4d4d4;stop-opacity:1"
         id="stop4201" />
    </linearGradient>
    <linearGradient
       x1="24"
       y1="13"
       x2="24"
       y2="40"
       id="linearGradient2884"
       gradientUnits="userSpaceOnUse"
       gradientTransform="matrix(1.0526207,0,0,1.074121,-1.2367881,1001.9829)">
      <stop
         id="stop6459"
         style="stop-color:#ffffff;stop-opacity:0.94117999"
         offset="0" />
      <stop
         id="stop6461"
         style="stop-color:#ffffff;stop-opacity:0.70587999"
         offset="1" />
    </linearGradient>
    <linearGradient
       x1="18.386"
       y1="44.960999"
       x2="18.386"
       y2="0.25938001"
       id="linearGradient2927"
       xlink:href="#linearGradient3104"
       gradientUnits="userSpaceOnUse"
       gradientTransform="matrix(1.0000196,0,0,1.0000196,6.0195543,1004.9459)" />
    <linearGradient
       id="linearGradient3104">
      <stop
         id="stop3106"
         style="stop-color:#aaaaaa;stop-opacity:1"
         offset="0" />
      <stop
         id="stop3108"
         style="stop-color:#c8c8c8;stop-opacity:1"
         offset="1" />
    </linearGradient>
    <linearGradient
       xlink:href="#linearGradient3805"
       id="linearGradient4243"
       gradientUnits="userSpaceOnUse"
       gradientTransform="matrix(0.40394793,0,0,0.42567835,4.576226,1000.1528)"
       x1="83.239998"
       y1="42.457001"
       x2="83.239998"
       y2="57.610001" />
    <linearGradient
       x1="83.239998"
       y1="42.457001"
       x2="83.239998"
       y2="57.610001"
       id="linearGradient3805"
       gradientUnits="userSpaceOnUse"
       gradientTransform="matrix(0.40394,0,0,0.42567,4.5497,-4.793)">
      <stop
         id="stop3127"
         style="stop-color:#ffffff;stop-opacity:1"
         offset="0" />
      <stop
         id="stop3129"
         style="stop-color:#e1e1e1;stop-opacity:1"
         offset="1" />
    </linearGradient>
    <linearGradient
       x1="25.497999"
       y1="44.638"
       x2="25.497999"
       y2="0.27636999"
       id="linearGradient3843"
       xlink:href="#linearGradient3104"
       gradientUnits="userSpaceOnUse"
       gradientTransform="matrix(1.0000196,0,0,1.0000196,6.0195543,1004.9459)" />
    <linearGradient
       x1="15.926584"
       y1="9.9026098"
       x2="15.926584"
       y2="38.096584"
       id="linearGradient2887"
       gradientUnits="userSpaceOnUse"
       gradientTransform="matrix(1.322626,0,0,1.2414244,-9.0382416,997.65263)">
      <stop
         id="stop3317"
         style="stop-color:#ffffff;stop-opacity:1"
         offset="0" />
      <stop
         offset="0.02223206"
         style="stop-color:#ffffff;stop-opacity:0"
         id="stop4238" />
      <stop
         id="stop4240"
         style="stop-color:#ffffff;stop-opacity:0"
         offset="1" />
      <stop
         id="stop3319"
         style="stop-color:#ffffff;stop-opacity:0.71518987"
         offset="1" />
    </linearGradient>
  </defs>
  <sodipodi:namedview
     id="base"
     pagecolor="#0f0f0f"
     bordercolor="#666666"
     borderopacity="1.0"
     inkscape:pageopacity="0"
     inkscape:pageshadow="2"
     inkscape:zoom="11.2"
     inkscape:cx="20.417912"
     inkscape:cy="22.436133"
     inkscape:document-units="px"
     inkscape:current-layer="layer1"
     showgrid="false"
     units="px"
     showguides="false"
     inkscape:guide-bbox="true"
     inkscape:window-width="1366"
     inkscape:window-height="744"
     inkscape:window-x="0"
     inkscape:window-y="0"
     inkscape:window-maximized="1"
     inkscape:document-rotation="0"
     inkscape:snap-global="false">
    <inkscape:grid
       type="xygrid"
       id="grid4696"
       originx="0"
       originy="0"
       spacingx="1"
       spacingy="1" />
    <sodipodi:guide
       position="0,36.999999"
       orientation="1,0"
       id="guide4698"
       inkscape:locked="false" />
    <sodipodi:guide
       position="7,47.999999"
       orientation="0,1"
       id="guide4700"
       inkscape:locked="false" />
    <sodipodi:guide
       position="48,36.999999"
       orientation="1,0"
       id="guide4702"
       inkscape:locked="false" />
    <sodipodi:guide
       position="36,0"
       orientation="0,1"
       id="guide4704"
       inkscape:locked="false" />
    <sodipodi:guide
       position="16,39.999999"
       orientation="1,0"
       id="guide4706"
       inkscape:locked="false" />
    <sodipodi:guide
       position="32.000001,45.999999"
       orientation="1,0"
       id="guide4708"
       inkscape:locked="false" />
    <sodipodi:guide
       position="24,39.999999"
       orientation="1,0"
       id="guide4710"
       inkscape:locked="false" />
    <sodipodi:guide
       position="8.0000001,43.999999"
       orientation="1,0"
       id="guide4712"
       inkscape:locked="false" />
    <sodipodi:guide
       position="40,40.999999"
       orientation="1,0"
       id="guide4714"
       inkscape:locked="false" />
    <sodipodi:guide
       position="2,39.999999"
       orientation="0,1"
       id="guide4716"
       inkscape:locked="false" />
    <sodipodi:guide
       position="3.0000001,32"
       orientation="0,1"
       id="guide4718"
       inkscape:locked="false" />
    <sodipodi:guide
       position="7,24"
       orientation="0,1"
       id="guide4720"
       inkscape:locked="false" />
    <sodipodi:guide
       position="3.0000001,16"
       orientation="0,1"
       id="guide4722"
       inkscape:locked="false" />
    <sodipodi:guide
       position="8.0000001,7.9999999"
       orientation="0,1"
       id="guide4724"
       inkscape:locked="false" />
    <sodipodi:guide
       position="33.000001,33"
       orientation="-0.70710678,0.70710678"
       id="guide4726"
       inkscape:locked="false" />
    <sodipodi:guide
       position="18,30"
       orientation="0.70710678,0.70710678"
       id="guide4728"
       inkscape:locked="false" />
    <sodipodi:guide
       position="2,27"
       orientation="1,0"
       id="guide4158"
       inkscape:locked="false" />
    <sodipodi:guide
       position="7,45.999999"
       orientation="0,1"
       id="guide4160"
       inkscape:locked="false" />
    <sodipodi:guide
       position="46,35.999999"
       orientation="1,0"
       id="guide4162"
       inkscape:locked="false" />
    <sodipodi:guide
       position="30.000001,2"
       orientation="0,1"
       id="guide4164"
       inkscape:locked="false" />
    <sodipodi:guide
       position="12,39.999999"
       orientation="0,1"
       id="guide4179"
       inkscape:locked="false" />
  </sodipodi:namedview>
  <metadata
     id="metadata4153">
    <rdf:RDF>
      <cc:Work
         rdf:about="">
        <dc:format>image/svg+xml</dc:format>
        <dc:type
           rdf:resource="http://purl.org/dc/dcmitype/StillImage" />
        <dc:title>Boston Icons</dc:title>
        <dc:description>diazchris.deviantart.com</dc:description>
        <dc:creator>
          <cc:Agent>
            <dc:title>Chris D</dc:title>
          </cc:Agent>
        </dc:creator>
        <dc:publisher>
          <cc:Agent>
            <dc:title>Chris D</dc:title>
          </cc:Agent>
        </dc:publisher>
      </cc:Work>
    </rdf:RDF>
  </metadata>
  <g
     inkscape:label="Capa 1"
     inkscape:groupmode="layer"
     id="layer1"
     transform="translate(0,-1004.3622)">
    <path
       inkscape:connector-curvature="0"
       style="opacity:0.23612982;fill:url(#radialGradient5559);stroke-width:1.00001967;stroke-linecap:round;stroke-linejoin:round"
       id="path5058"
       d="m 39.201717,1043.4468 v 5.9998 c 3.236782,0.012 7.82519,-1.3443 7.82519,-3.0004 0,-1.6561 -3.612184,-2.9994 -7.82519,-2.9994 z" />
    <path
       inkscape:connector-curvature="0"
       style="opacity:0.23612982;fill:url(#radialGradient5561);stroke-width:1.00001967;stroke-linecap:round;stroke-linejoin:round"
       id="path5018"
       d="m 8.8506687,1043.4468 v 5.9998 c -3.2367835,0.012 -7.8251908,-1.3443 -7.8251908,-3.0004 0,-1.6561 3.6121842,-2.9994 7.8251908,-2.9994 z" />
    <rect
       width="43.000847"
       height="38.000748"
       rx="2.0000393"
       ry="2.0000393"
       x="2.5264857"
       y="1008.4459"
       id="rect1887"
       style="fill:url(#linearGradient4195);fill-opacity:1;stroke:#13160b;stroke-width:1.00001967;stroke-linecap:round;stroke-linejoin:round;stroke-opacity:0.67009469" />
    <path
       inkscape:connector-curvature="0"
       style="fill:url(#linearGradient2884);stroke-width:1.00001967;stroke-linecap:round;stroke-linejoin:round"
       d="m 3.0264957,1016.9462 v 27.0005 c 0,2.0001 2.0000393,2.0001 2.0000393,2.0001 h 38.000748 c 2.000039,0 2.000039,-2.0001 2.000039,-2.0001 v -27.0005 z"
       id="rect6287" />
    <path
       inkscape:connector-curvature="0"
       d="m 8.5641006,1028.4464 3.9557634,0.044 c 0,0 1.093298,0 1.050069,0.9077 l 10e-7,4.0548 c 0.04323,1.0376 -0.92038,0.9943 -0.92038,0.9943 H 8.3697988 c 0,0 -0.9296733,0.086 -0.8432136,-0.9511 l -9e-7,-4.2499 c 0,0 0.04323,-0.8423 1.0375163,-0.7991 z"
       id="path3835"
       style="fill:#4aadea;fill-opacity:1;fill-rule:evenodd;stroke:#4e80a9;stroke-width:1.00001967;stroke-linecap:round;stroke-linejoin:round;stroke-opacity:0.69620254" />
    <path
       inkscape:connector-curvature="0"
       d="m 23.30865,1031.2096 c 0,1.6646 -1.350928,3.0155 -3.015458,3.0155 -1.664535,0 -3.01546,-1.3509 -3.01546,-3.0155 0,-1.6644 1.350925,-3.0154 3.01546,-3.0154 1.66453,0 3.015458,1.351 3.015458,3.0154 z"
       id="path3833"
       style="fill:#4aadea;fill-opacity:1;fill-rule:evenodd;stroke:#276ba4;stroke-width:0.96924907;stroke-linecap:round;stroke-linejoin:round;stroke-opacity:0.69620254" />
    <path
       inkscape:connector-curvature="0"
       d="m 18.888807,1019.4482 h 22.276438 c 0.754505,0 1.361927,0.6628 1.361927,1.4862 v 3.0262 c 0,0.8234 -0.607413,1.4862 -1.361927,1.4862 H 18.888807 c -0.755014,0 -1.362025,-0.6629 -1.362025,-1.486 v -3.0262 c 0,-0.8233 0.60741,-1.4862 1.361925,-1.4862 z"
       id="path3831"
       style="fill:#ffffff;fill-rule:evenodd;stroke:url(#linearGradient2927);stroke-width:1.00001967;stroke-linecap:round;stroke-linejoin:round" />
    <path
       inkscape:connector-curvature="0"
       d="m 34.527116,1019.4462 v 5.9948 h 6.240021 c 0.97617,0 1.754635,-0.8204 1.754635,-1.8491 v -2.2833 c 0,-1.0288 -0.778464,-1.8624 -1.754634,-1.8624 z"
       id="rect3618"
       style="fill:url(#linearGradient4243);fill-rule:evenodd;stroke:url(#linearGradient3843);stroke-width:1.00001967;stroke-linecap:round;stroke-linejoin:round" />
    <path
       inkscape:connector-curvature="0"
       style="fill:#777777;fill-opacity:1;fill-rule:evenodd;stroke:none;stroke-width:1.00001967px;stroke-linecap:round;stroke-linejoin:round;stroke-opacity:1"
       d="m 37.027165,1021.9463 1.00002,2 h 1.000019 l 1.00002,-2 z"
       id="path4230" />
    <path
       inkscape:connector-curvature="0"
       style="fill:none;fill-rule:evenodd;stroke:#ffffff;stroke-width:1.00001967px;stroke-linecap:round;stroke-linejoin:round;stroke-opacity:1"
       d="m 8.3047215,1031.1683 1.5677408,2.0001 3.0490227,-3.7896"
       id="path4232" />
    <path
       inkscape:connector-curvature="0"
       style="opacity:0.15;fill:#000000;fill-opacity:1;stroke:none;stroke-width:1.00001967;stroke-linecap:round;stroke-linejoin:round;stroke-opacity:1"
       d="M 3.0264957,1015.9462 H 45.027322 v 1 H 3.0264957 Z"
       id="rect4236" />
    <rect
       width="41.000805"
       height="36.00071"
       rx="1.0000197"
       ry="1.0000197"
       x="3.5265055"
       y="1009.4459"
       id="rect2779"
       style="opacity:0.7;fill:none;stroke:url(#linearGradient2887);stroke-width:1.00001967;stroke-linecap:round;stroke-linejoin:round" />
    <path
       inkscape:connector-curvature="0"
       id="path4245"
       d="m 18.312299,1030.969 1.567742,2 3.049022,-3.7896"
       style="fill:none;fill-rule:evenodd;stroke:#ffffff;stroke-width:1.00001967px;stroke-linecap:round;stroke-linejoin:round;stroke-opacity:1" />
    <path
       inkscape:connector-curvature="0"
       style="fill:none;fill-rule:evenodd;stroke:#ff2800;stroke-width:1.00001967px;stroke-linecap:butt;stroke-linejoin:miter;stroke-opacity:1"
       d="m 5.0265398,1010.9461 3.0000542,3"
       id="path4264" />
    <path
       inkscape:connector-curvature="0"
       id="path4266"
       d="m 8.026594,1010.9461 -3.0000542,3"
       style="fill:none;fill-rule:evenodd;stroke:#ff2800;stroke-width:1.00001967px;stroke-linecap:butt;stroke-linejoin:miter;stroke-opacity:1" />
    <path
       inkscape:connector-curvature="0"
       style="fill:none;fill-rule:evenodd;stroke:#8a8a8a;stroke-width:1.00001967px;stroke-linecap:butt;stroke-linejoin:miter;stroke-opacity:1"
       d="m 43.027283,1010.9461 -3.000055,3"
       id="path4268" />
    <path
       inkscape:connector-curvature="0"
       style="opacity:0.7;fill:#858585;fill-opacity:1;stroke:none;stroke-width:1.00001967;stroke-linecap:round;stroke-linejoin:round;stroke-opacity:1"
       d="m 15.026732,1011.9461 h 3.000059 v 1 h -3.000059 z"
       id="rect4270" />
    <path
       inkscape:connector-curvature="0"
       style="opacity:0.25;fill:#ffffff;fill-opacity:1;stroke:none;stroke-width:1.00001967;stroke-linecap:round;stroke-linejoin:round;stroke-opacity:1"
       d="m 15.026732,1012.9461 h 3.000059 v 1 h -3.000059 z"
       id="rect4272" />
    <path
       inkscape:connector-curvature="0"
       id="path4276"
       d="m 19.026811,1011.9461 h 9.000177 v 1 h -9.000177 z"
       style="opacity:0.7;fill:#858585;fill-opacity:1;stroke:none;stroke-width:1.00001967;stroke-linecap:round;stroke-linejoin:round;stroke-opacity:1" />
    <path
       inkscape:connector-curvature="0"
       id="path4278"
       d="m 19.026811,1012.9461 h 9.000177 v 1 h -9.000177 z"
       style="opacity:0.25;fill:#ffffff;fill-opacity:1;stroke:none;stroke-width:1.00001967;stroke-linecap:round;stroke-linejoin:round;stroke-opacity:1" />
    <path
       inkscape:connector-curvature="0"
       style="opacity:0.7;fill:#858585;fill-opacity:1;stroke:none;stroke-width:1.00001967;stroke-linecap:round;stroke-linejoin:round;stroke-opacity:1"
       d="m 29.027008,1011.9461 h 5.000098 v 1 h -5.000098 z"
       id="path4280" />
    <path
       inkscape:connector-curvature="0"
       style="opacity:0.25;fill:#ffffff;fill-opacity:1;stroke:none;stroke-width:1.00001967;stroke-linecap:round;stroke-linejoin:round;stroke-opacity:1"
       d="m 29.027008,1012.9461 h 5.000098 v 1 h -5.000098 z"
       id="path4282" />
    <g
       id="g4923"
       transform="matrix(0.52773259,0,0,0.52773259,1.9417604,492.89336)">
      <g
         transform="translate(1.6917557,16.22433)"
         id="g8142">
        <circle
           style="fill:#000000;fill-opacity:0.2;stroke:none"
           id="path4151-5"
           cx="34"
           cy="1021.3622"
           r="6" />
        <g
           id="g8136">
          <circle
             r="6"
             cy="1020.3622"
             cx="33"
             id="path4151"
             style="fill:#13a0bf;fill-opacity:1;stroke:none" />
          <circle
             r="3"
             style="fill:#ffffff;fill-opacity:1;stroke:none"
             id="circle4194"
             cx="33"
             cy="1020.3622" />
          <path
             sodipodi:nodetypes="cscsc"
             inkscape:connector-curvature="0"
             id="path4151-7"
             d="m 39,1020.3622 c 0,-2 -2.686292,-5 -6,-5 -3.313708,0 -6,3 -6,5 0,-3.3137 2.686292,-6 6,-6 3.313708,0 6,2.6863 6,6 z"
             style="fill:#ffffff;fill-opacity:0.2;stroke:none" />
          <path
             sodipodi:nodetypes="cscsc"
             inkscape:connector-curvature="0"
             id="path4151-7-4"
             d="m 39,1020.3622 c 0,2 -2.686292,5 -6,5 -3.313708,0 -6,-3 -6,-5 0,3.3137 2.686292,6 6,6 3.313708,0 6,-2.6863 6,-6 z"
             style="fill:#000000;fill-opacity:0.2;stroke:none" />
        </g>
      </g>
      <g
         transform="translate(4e-7,16.000017)"
         id="g8150">
        <rect
           style="opacity:1;fill:#000000;fill-opacity:0.2;stroke:none;stroke-width:0;stroke-linecap:butt;stroke-linejoin:miter;stroke-miterlimit:0;stroke-dasharray:none;stroke-opacity:1"
           id="rect4135-9-1"
           width="12"
           height="12"
           x="11"
           y="1015.3622"
           rx="2"
           ry="2" />
        <rect
           style="opacity:1;fill:#13a080;fill-opacity:1;stroke:none;stroke-width:0;stroke-linecap:butt;stroke-linejoin:miter;stroke-miterlimit:0;stroke-dasharray:none;stroke-opacity:1"
           id="rect4135-9"
           width="12"
           height="12"
           x="10"
           y="1014.3622"
           rx="2"
           ry="2" />
        <path
           style="fill:#fefefe;fill-opacity:1;fill-rule:evenodd;stroke:none;stroke-width:0;stroke-linecap:butt;stroke-linejoin:miter;stroke-miterlimit:0;stroke-dasharray:none;stroke-opacity:1"
           d="m 19.382092,1016.6122 1.117908,0.9725 -5.47678,6.5275 -3.52322,-3.2878 0.969974,-1.0959 2.427106,2.2631 z"
           id="path4424"
           inkscape:connector-curvature="0" />
        <path
           style="opacity:1;fill:#ffffff;fill-opacity:0.2;stroke:none;stroke-width:0;stroke-linecap:butt;stroke-linejoin:miter;stroke-miterlimit:0;stroke-dasharray:none;stroke-opacity:1"
           d="m 12,1014.3622 h 8 c 1.108,0 2,0.892 2,2 0,-0.5794 -1.248592,-1 -2.007494,-1 H 12 c -0.68535,0 -2,0.3923 -2,1 0,-1.108 0.892,-2 2,-2 z"
           id="rect4135-9-9"
           inkscape:connector-curvature="0"
           sodipodi:nodetypes="sscsscs" />
        <path
           style="opacity:1;fill:#000000;fill-opacity:0.2;stroke:none;stroke-width:0;stroke-linecap:butt;stroke-linejoin:miter;stroke-miterlimit:0;stroke-dasharray:none;stroke-opacity:1"
           d="m 12,1026.3622 h 8 c 1.108,0 2,-0.892 2,-2 0,0.5794 -1.248592,1 -2.007494,1 H 12 c -0.68535,0 -2.0000004,-0.3923 -2.0000004,-1 0,1.108 0.8920004,2 2.0000004,2 z"
           id="rect4135-9-9-2"
           inkscape:connector-curvature="0"
           sodipodi:nodetypes="sscsscs" />
      </g>
    </g>
    <g
       transform="matrix(0.06752044,0,0,-0.06752044,31.45387,1034.6975)"
       id="g210"
       style="stroke-width:1.38846843;stroke-miterlimit:4;stroke-dasharray:none">
      <path
         inkscape:connector-curvature="0"
         id="path212"
         style="fill:#ff7900;fill-opacity:1;fill-rule:nonzero;stroke:#ff7900;stroke-width:6.94234217;stroke-miterlimit:4;stroke-dasharray:none;stroke-opacity:1"
         d="m 0,0 92.254,-0.001 c 24.243,0.024 43.958,19.754 43.958,44.002 0,11.754 -4.576,22.804 -12.887,31.115 -8.311,8.31 -19.361,12.887 -31.115,12.887 H -0.06 c -24.245,-0.021 -43.965,-19.752 -43.965,-44.002 0,-24.248 19.714,-43.978 43.957,-44.002 z M 92.21,-3.996 H -0.022 c -26.466,0 -47.998,21.531 -47.998,47.997 0,26.466 21.532,47.998 47.998,47.998 H 92.21 c 12.821,0 24.874,-4.993 33.94,-14.058 9.066,-9.066 14.058,-21.119 14.057,-33.94 0,-26.466 -21.531,-47.997 -47.997,-47.997" />
    </g>
    <g
       transform="matrix(0.06752044,0,0,-0.06752044,37.679969,1029.3602)"
       id="g214">
      <path
         inkscape:connector-curvature="0"
         id="path216"
         style="fill:#ff7900;fill-opacity:1;fill-rule:nonzero;stroke:none"
         d="M 0,0 C 19.355,0 35.045,-15.69 35.045,-35.045 35.045,-54.4 19.355,-70.09 0,-70.09 c -19.355,0 -35.045,15.69 -35.045,35.045 C -35.045,-15.69 -19.355,0 0,0" />
    </g>
    <g
       transform="matrix(0.06752044,0,0,-0.06752044,31.45387,1042.6824)"
       id="g218"
       style="stroke:#00b1ff;stroke-opacity:1;stroke-width:7.94203944;stroke-miterlimit:4;stroke-dasharray:none">
      <path
         inkscape:connector-curvature="0"
         id="path220"
         style="fill:#00b1ff;fill-opacity:1;fill-rule:nonzero;stroke:#00b1ff;stroke-opacity:1;stroke-width:7.94203944;stroke-miterlimit:4;stroke-dasharray:none"
         d="m 0,0 92.255,-0.001 c 24.243,0.024 43.958,19.754 43.958,44.003 0,24.242 -19.706,43.969 -43.94,44.002 H -0.022 c -24.263,0 -44.003,-19.739 -44.003,-44.002 0,-24.249 19.714,-43.979 43.957,-44.003 z M 92.21,-3.996 H -0.022 c -26.466,0 -47.998,21.531 -47.998,47.998 0,26.466 21.532,47.997 47.998,47.997 h 92.357 c 26.408,-0.068 47.873,-21.573 47.873,-47.997 0,-26.467 -21.531,-47.998 -47.998,-47.998" />
    </g>
    <g
       transform="matrix(0.06752044,0,0,-0.06752044,31.452357,1037.3452)"
       id="g222">
      <path
         inkscape:connector-curvature="0"
         id="path224"
         style="fill:#00b1ff;fill-opacity:1;fill-rule:nonzero;stroke:none"
         d="M 0,0 C 19.355,0 35.045,-15.69 35.045,-35.045 35.045,-54.4 19.355,-70.09 0,-70.09 c -19.355,0 -35.045,15.69 -35.045,35.045 C -35.045,-15.69 -19.355,0 0,0" />
    </g>
  </g>
</svg>
