<?xml version="1.0" encoding="UTF-8" standalone="no"?>
<!-- Created with Inkscape (http://www.inkscape.org/) -->

<svg
   xmlns:dc="http://purl.org/dc/elements/1.1/"
   xmlns:cc="http://creativecommons.org/ns#"
   xmlns:rdf="http://www.w3.org/1999/02/22-rdf-syntax-ns#"
   xmlns:svg="http://www.w3.org/2000/svg"
   xmlns="http://www.w3.org/2000/svg"
   xmlns:sodipodi="http://sodipodi.sourceforge.net/DTD/sodipodi-0.dtd"
   xmlns:inkscape="http://www.inkscape.org/namespaces/inkscape"
   width="48"
   height="48"
   viewBox="0 0 48.000001 48.000001"
   id="svg4176"
   version="1.1"
   inkscape:version="0.91 r13725"
   sodipodi:docname="yandex-browser-beta.svg">
  <defs
     id="defs4178" />
  <sodipodi:namedview
     id="base"
     pagecolor="#ffffff"
     bordercolor="#666666"
     borderopacity="1.0"
     inkscape:pageopacity="0.0"
     inkscape:pageshadow="2"
     inkscape:zoom="5.6"
     inkscape:cx="29.410405"
     inkscape:cy="34.086709"
     inkscape:document-units="px"
     inkscape:current-layer="layer1"
     showgrid="false"
     inkscape:window-width="1366"
     inkscape:window-height="740"
     inkscape:window-x="0"
     inkscape:window-y="0"
     inkscape:window-maximized="1"
     units="px" />
  <metadata
     id="metadata4181">
    <rdf:RDF>
      <cc:Work
         rdf:about="">
        <dc:format>image/svg+xml</dc:format>
        <dc:type
           rdf:resource="http://purl.org/dc/dcmitype/StillImage" />
        <dc:title></dc:title>
      </cc:Work>
    </rdf:RDF>
  </metadata>
  <g
     inkscape:label="Capa 1"
     inkscape:groupmode="layer"
     id="layer1"
     transform="translate(0,-1004.3622)">
    <g
       id="g4632"
       transform="matrix(0.94020345,0,0,0.94020345,-348.65084,529.344)">
      <circle
         style="opacity:1;fill:#e8e7e7;fill-opacity:1;stroke:#030300;stroke-width:0;stroke-linecap:round;stroke-linejoin:round;stroke-miterlimit:4;stroke-dasharray:none;stroke-opacity:1"
         id="path4650"
         cx="396.40826"
         cy="530.39331"
         r="23.961531" />
      <path
         style="fill:#fd0000"
         d="m 394.5689,555.74973 c -2.87928,-0.61566 -5.34655,-2.68186 -6.87217,-5.75505 -1.48266,-2.98663 -2.40258,-7.66083 -2.70328,-13.73555 -0.0655,-1.32278 -0.15044,-2.48448 -0.1888,-2.58157 -0.0384,-0.0971 -0.69507,-0.67192 -1.45935,-1.27742 -1.69069,-1.33945 -4.55142,-4.16855 -5.60082,-5.53891 -1.4887,-1.944 -2.48921,-3.88978 -2.91745,-5.67378 -0.30365,-1.26501 -0.29904,-3.35098 0.01,-4.526 0.35207,-1.33858 0.80994,-2.15556 1.72249,-3.07339 1.12962,-1.13617 2.4524,-1.76367 4.55555,-2.16106 l 0.33517,-0.0633 0.11983,0.8057 c 0.2938,1.97539 1.66091,4.22899 4.06618,6.70285 1.66818,1.71576 4.42691,4.02752 4.80166,4.02369 0.0968,-9.6e-4 0.89753,-0.67933 1.77938,-1.50743 8.66794,-8.13955 16.24181,-11.5871 21.46499,-9.77066 2.0623,0.7172 3.47103,2.17379 4.13792,4.2785 0.17839,0.563 0.25052,1.11211 0.29137,2.218 l 0.0543,1.46975 -0.81989,0 c -2.346,0 -5.54608,1.32069 -9.3622,3.86382 -3.79188,2.52698 -7.45471,5.78626 -10.2529,9.12329 l -0.89615,1.06872 0.0703,2.19147 c 0.11771,3.66982 0.48187,7.33997 0.98878,9.96514 0.79543,4.11941 1.95732,6.25561 3.99243,7.34032 0.35535,0.1894 0.64609,0.38363 0.64609,0.43163 0,0.15605 -1.58726,1.18936 -2.413,1.57087 -1.24687,0.57609 -2.23642,0.78926 -3.61674,0.77911 -0.65199,-0.005 -1.52214,-0.0807 -1.93367,-0.16871 z"
         id="path4634"
         inkscape:connector-curvature="0" />
    </g>
  </g>
</svg>
