<?xml version="1.0" encoding="UTF-8" standalone="no"?>
<svg
   height="48"
   width="48"
   version="1.1"
   id="svg32"
   sodipodi:docname="pycharm-professional.svg"
   inkscape:version="1.3 (0e150ed6c4, 2023-07-21)"
   xmlns:inkscape="http://www.inkscape.org/namespaces/inkscape"
   xmlns:sodipodi="http://sodipodi.sourceforge.net/DTD/sodipodi-0.dtd"
   xmlns="http://www.w3.org/2000/svg"
   xmlns:svg="http://www.w3.org/2000/svg"
   xmlns:rdf="http://www.w3.org/1999/02/22-rdf-syntax-ns#"
   xmlns:cc="http://creativecommons.org/ns#"
   xmlns:dc="http://purl.org/dc/elements/1.1/">
  <metadata
     id="metadata38">
    <rdf:RDF>
      <cc:Work
         rdf:about="">
        <dc:format>image/svg+xml</dc:format>
        <dc:type
           rdf:resource="http://purl.org/dc/dcmitype/StillImage" />
      </cc:Work>
    </rdf:RDF>
  </metadata>
  <defs
     id="defs36" />
  <sodipodi:namedview
     pagecolor="#ffffff"
     bordercolor="#666666"
     borderopacity="1"
     objecttolerance="10"
     gridtolerance="10"
     guidetolerance="10"
     inkscape:pageopacity="0"
     inkscape:pageshadow="2"
     inkscape:window-width="1920"
     inkscape:window-height="1047"
     id="namedview34"
     showgrid="false"
     inkscape:zoom="16.617009"
     inkscape:cx="14.774018"
     inkscape:cy="22.838045"
     inkscape:current-layer="svg32"
     inkscape:showpageshadow="2"
     inkscape:pagecheckerboard="0"
     inkscape:deskcolor="#d1d1d1"
     inkscape:window-x="0"
     inkscape:window-y="0"
     inkscape:window-maximized="1"
     showguides="true">
    <sodipodi:guide
       position="17.588008,33.276434"
       orientation="0,-1"
       id="guide1"
       inkscape:locked="false" />
  </sodipodi:namedview>
  <linearGradient
     id="a"
     gradientUnits="userSpaceOnUse"
     x1="11.660663"
     x2="10.415977"
     y1="56.928329"
     y2="32.880904">
    <stop
       offset="0"
       stop-color="#cdd0d1"
       id="stop2" />
    <stop
       offset="1"
       stop-color="#f6f6f7"
       id="stop4" />
  </linearGradient>
  <linearGradient
     id="b"
     gradientUnits="userSpaceOnUse"
     x1="14.428456"
     x2="5.505778"
     y1="47.467573"
     y2="39.642166">
    <stop
       offset="0"
       stop-color="#16a085"
       id="stop7" />
    <stop
       offset="1"
       stop-color="#2dcb72"
       id="stop9" />
  </linearGradient>
  <filter
     id="c"
     color-interpolation-filters="sRGB"
     x="0"
     y="0"
     width="1"
     height="1">
    <feColorMatrix
       values="0.21 0.72 0.072 0 0 0.21 0.72 0.072 0 0 0.21 0.72 0.072 0 0 0 0 0 1 0"
       id="feColorMatrix12" />
  </filter>
  <linearGradient
     id="d"
     gradientUnits="userSpaceOnUse"
     x1="-36.269841119541"
     x2="-9.404565898507"
     y1="51.897396711501"
     y2="7.457087775484">
    <stop
       offset="0"
       stop-color="#38da82"
       id="stop15" />
    <stop
       offset="1"
       stop-color="#e4f451"
       id="stop17" />
  </linearGradient>
  <path
     style="fill:#f0f44d;stroke-width:0.147804"
     d="m 32.105971,43.749383 c -0.0215,-0.0076 -0.584629,-0.166172 -1.251381,-0.352482 -0.666751,-0.186308 -1.731401,-0.485419 -2.365891,-0.664687 -1.787531,-0.505049 -4.823492,-1.360936 -6.120034,-1.725339 -0.645243,-0.181351 -1.349144,-0.388956 -1.564225,-0.461346 -0.215082,-0.07239 -0.540636,-0.175234 -0.723455,-0.228546 l -0.332398,-0.09693 -0.01324,-0.229544 c -0.0073,-0.126249 -7.98e-4,-1.025834 0.0144,-1.999076 l 0.02764,-1.76953 2.214624,-1.4e-5 c 1.218043,-7e-6 5.05218,-0.01168 8.520306,-0.02603 l 6.305681,-0.02602 0.0099,-7.19426 0.0099,-7.194262 0.645243,-0.249245 c 0.354885,-0.137086 0.759628,-0.292785 0.899431,-0.345998 0.139803,-0.05321 0.434915,-0.167437 0.655806,-0.253829 0.22089,-0.08639 0.415897,-0.157077 0.43335,-0.157077 0.01745,0 0.05024,0.07479 0.07286,0.166199 0.04626,0.186928 0.08192,0.322395 0.774422,2.9427 0.272845,1.032389 0.536375,2.02665 0.585628,2.209469 0.487449,1.809358 3.572396,13.510492 3.56415,13.518738 -0.01168,0.01168 -0.72108,0.254604 -6.008015,2.057691 -1.86045,0.634499 -4.005753,1.366413 -4.767339,1.626478 -1.273703,0.434942 -1.475015,0.492385 -1.587328,0.452936 z"
     id="path7" />
  <path
     style="fill:#9de16d;stroke-width:0.147804"
     d="m 20.39383,41.212661 c 0,-0.0081 0.03079,-0.03891 0.06844,-0.06844 0.06202,-0.04864 0.06341,-0.04725 0.01477,0.01477 -0.05109,0.06514 -0.0832,0.08586 -0.0832,0.05367 z m 0.234635,-0.27374 c 0,-0.0081 0.03079,-0.03891 0.06844,-0.06844 0.06202,-0.04864 0.06341,-0.04725 0.01477,0.01477 -0.05109,0.06514 -0.0832,0.08586 -0.0832,0.05367 z m 0.247668,-0.319352 c 0,-0.03132 0.01467,-0.05694 0.03259,-0.05694 0.01792,0 0.03259,0.01656 0.03259,0.0368 0,0.02023 -0.01466,0.04586 -0.03259,0.05694 -0.01792,0.01103 -0.03259,-0.0055 -0.03259,-0.0368 z m -2.50602,-0.732332 c -1.831349,-0.519974 -2.35585,-0.682568 -2.354924,-0.73002 6.51e-4,-0.03358 0.137037,-0.712158 0.30307,-1.507958 l 0.301876,-1.446909 5.904953,-2.36e-4 c 3.735818,-1.49e-4 4.31571,0.0035 1.578622,0.01001 l -4.326332,0.01014 -0.02764,1.76936 c -0.0152,0.973147 -0.02167,1.872355 -0.0144,1.998238 l 0.01324,0.228878 0.312846,0.0939 c 0.566618,0.170086 0.782937,0.242804 0.723455,0.243194 -0.03227,1.48e-4 -1.118911,-0.300652 -2.414774,-0.668586 z M 4.4449007,35.674424 c 0,-0.05377 0.00885,-0.07576 0.01972,-0.04888 0.010906,0.02689 0.010906,0.07087 0,0.09777 -0.010906,0.02688 -0.01972,0.0049 -0.01972,-0.04888 z m 0.039106,-0.391057 c 0,-0.05377 0.00885,-0.07576 0.01972,-0.04888 0.010906,0.02688 0.010906,0.07087 0,0.09777 -0.010906,0.02689 -0.01972,0.0049 -0.01972,-0.04888 z m 0.040556,-0.410609 c 7.391e-4,-0.06452 0.00962,-0.08618 0.019476,-0.04814 0.00988,0.03804 0.00924,0.09084 -0.00154,0.117319 -0.010777,0.02648 -0.018822,-0.0046 -0.018026,-0.06918 z m 0.040556,-0.410609 c 0,-0.07527 0.00808,-0.10608 0.017885,-0.06844 0.00988,0.03764 0.00988,0.09923 0,0.136869 -0.00988,0.03764 -0.017885,0.0068 -0.017885,-0.06844 z m 0.036207,-0.430162 c 0,-0.05377 0.00885,-0.07576 0.01972,-0.04888 0.010906,0.02689 0.010906,0.07087 0,0.09777 -0.010906,0.02689 -0.01972,0.0049 -0.01972,-0.04888 z m 0.036014,-0.452974 c 0.00192,-0.04556 0.011162,-0.05482 0.02362,-0.02363 0.01129,0.02823 0.00988,0.06196 -0.00308,0.07495 -0.012997,0.013 -0.022235,-0.01014 -0.02054,-0.05132 z m 0.039106,-0.391057 c 0.00192,-0.04556 0.011162,-0.05482 0.02362,-0.02363 0.011291,0.02823 0.00988,0.06196 -0.00308,0.07495 -0.012997,0.013 -0.022235,-0.01014 -0.02054,-0.05132 z m 0.042199,-0.40735 c 0,-0.05377 0.00885,-0.07576 0.01972,-0.04888 0.010906,0.02689 0.010906,0.07087 0,0.09777 -0.010906,0.02689 -0.01972,0.0049 -0.01972,-0.04888 z m 0.039106,-0.430162 c 0,-0.05377 0.00885,-0.07576 0.01972,-0.04888 0.010906,0.02689 0.010906,0.07087 0,0.09777 -0.010906,0.02689 -0.01972,0.0049 -0.01972,-0.04888 z m 0.036014,-0.413868 c 0.00192,-0.04556 0.011162,-0.05482 0.02362,-0.02363 0.011291,0.02823 0.00988,0.06196 -0.00308,0.07495 -0.012997,0.013 -0.022235,-0.01013 -0.02054,-0.05132 z m 0.039106,-0.430162 c 0.00192,-0.04556 0.011162,-0.05482 0.02362,-0.02362 0.011291,0.02823 0.00988,0.06196 -0.00308,0.07495 -0.012997,0.013 -0.022235,-0.01014 -0.020541,-0.05132 z m 0.078213,-0.821219 c 0.00192,-0.04556 0.011162,-0.05482 0.02362,-0.02362 0.011291,0.02823 0.00988,0.06196 -0.00308,0.07495 -0.012997,0.013 -0.022235,-0.01014 -0.020541,-0.05132 z m 0.039106,-0.391057 c 0.00192,-0.04556 0.011162,-0.05482 0.023633,-0.02363 0.011291,0.02823 0.00988,0.06196 -0.00308,0.07495 -0.012997,0.013 -0.022235,-0.01014 -0.020541,-0.05132 z m 0.039106,-0.430161 c 0.00192,-0.04556 0.011162,-0.05482 0.02362,-0.02363 0.011291,0.02823 0.00988,0.06196 -0.00308,0.07495 -0.012997,0.013 -0.022235,-0.01013 -0.02054,-0.05132 z m 0.039106,-0.430162 c 0.00192,-0.04556 0.011162,-0.05482 0.02362,-0.02363 0.011291,0.02823 0.00988,0.06196 -0.00308,0.07495 -0.012997,0.013 -0.022235,-0.01014 -0.02054,-0.05132 z m 6.5666643,-0.310904 c -0.225834,-0.07389 -0.61298,-0.198445 -0.860324,-0.276789 -0.247344,-0.07834 -0.601382,-0.192999 -0.7867541,-0.25479 -0.1853718,-0.06179 -0.3657463,-0.112341 -0.400833,-0.112341 -0.144654,0 -0.2059323,0.102039 1.3608741,-2.265934 l 1.175858,-1.777113 0.0127,0.486627 c 0.01848,0.704372 -0.03708,4.338885 -0.06629,4.336615 -0.01357,-0.001 -0.20946,-0.06238 -0.435294,-0.136268 z M 5.2239331,27.361215 c 0.00192,-0.04556 0.011162,-0.05482 0.02362,-0.02362 0.011291,0.02823 0.00988,0.06196 -0.00308,0.07495 -0.012997,0.013 -0.022235,-0.01014 -0.020541,-0.05132 z M 40.927388,26.227152 c 0.0019,-0.04556 0.01116,-0.05482 0.02363,-0.02362 0.01129,0.02823 0.0099,0.06196 -0.0031,0.07495 -0.013,0.013 -0.02223,-0.01014 -0.02054,-0.05132 z M 28.06832,25.049837 c 0.03764,-0.0099 0.09923,-0.0099 0.13687,0 0.03764,0.0099 0.0068,0.01789 -0.06844,0.01789 -0.07528,0 -0.10608,-0.0081 -0.06844,-0.01789 z m 0.977641,0 c 0.03764,-0.0099 0.09923,-0.0099 0.13687,0 0.03764,0.0099 0.0068,0.01789 -0.06844,0.01789 -0.07527,0 -0.10608,-0.0081 -0.06844,-0.01789 z m -1.346701,-0.03886 c 0.02823,-0.01129 0.06196,-0.0099 0.07495,0.0031 0.013,0.013 -0.01014,0.02223 -0.05132,0.02054 -0.04556,-0.0019 -0.05482,-0.01116 -0.02363,-0.02363 z m 1.796416,8.14e-4 c 0.02689,-0.01091 0.07087,-0.01091 0.09777,0 0.02689,0.01091 0.0049,0.01972 -0.04888,0.01972 -0.05377,0 -0.07576,-0.0089 -0.04888,-0.01972 z m -12.87624,-1.5872 7.1e-4,-1.4958 0.987435,-0.001 0.987436,-10e-4 -0.977196,0.01142 -0.977195,0.01142 -0.0109,1.485352 -0.01091,1.485354 z m 8.482915,0.391048 -0.07449,-0.08799 0.08799,0.07449 c 0.08269,0.07001 0.105784,0.101474 0.07449,0.101474 -0.0074,0 -0.04701,-0.03959 -0.08799,-0.08799 z m 7.433788,-0.303069 c 0.127699,-0.129049 0.240986,-0.234634 0.251739,-0.234634 0.01078,0 -0.08494,0.10558 -0.212632,0.234634 -0.127699,0.129048 -0.240985,0.234634 -0.251739,0.234634 -0.01078,0 0.08494,-0.105592 0.212632,-0.234634 z m -7.884775,-0.146646 c -0.04864,-0.06202 -0.04725,-0.06341 0.01477,-0.01477 0.03764,0.02952 0.06844,0.06032 0.06844,0.06844 0,0.03219 -0.03211,0.01142 -0.0832,-0.05367 z m 7.427797,-0.818431 c -0.629351,-0.629351 -0.69771,-0.686519 -0.762422,-0.637608 -0.06815,0.05151 -0.06823,0.05063 -0.0021,-0.02158 0.06726,-0.07332 0.08778,-0.05659 0.78198,0.637609 0.392102,0.392102 0.704111,0.712913 0.693356,0.712913 -0.01078,0 -0.330659,-0.311102 -0.710894,-0.691338 z m -3.658146,0.46871 c 0.03805,-0.0099 0.09084,-0.0092 0.11732,0.0014 0.02648,0.01065 -0.0046,0.01882 -0.06918,0.01803 -0.06452,-7.98e-4 -0.08618,-0.0096 -0.04814,-0.01948 z m 0.468523,1.42e-4 c 0.03764,-0.0099 0.09923,-0.0099 0.13687,0 0.03764,0.0099 0.0068,0.01789 -0.06844,0.01789 -0.07528,0 -0.10608,-0.0081 -0.06844,-0.01789 z m 2.101929,-0.848131 c 0,-0.0081 0.03079,-0.03891 0.06844,-0.06844 0.06202,-0.04864 0.06341,-0.04725 0.01477,0.01477 -0.05109,0.06514 -0.0832,0.08586 -0.0832,0.05367 z m 8.801858,-0.242681 c 0.0019,-0.04556 0.01116,-0.05482 0.02362,-0.02362 0.01129,0.02823 0.0099,0.06196 -0.0031,0.07495 -0.013,0.013 -0.02223,-0.01014 -0.02054,-0.05132 z m -20.814624,-0.04301 c 0.02823,-0.01129 0.06196,-0.0099 0.07495,0.0031 0.013,0.013 -0.01014,0.02223 -0.05132,0.02054 -0.04556,-0.0019 -0.05482,-0.01116 -0.02363,-0.02363 z m 0.27374,-0.03911 c 0.02823,-0.01129 0.06196,-0.0099 0.07495,0.0031 0.013,0.013 -0.01014,0.02224 -0.05132,0.02054 -0.04556,-0.0019 -0.05482,-0.01116 -0.02363,-0.02363 z m 2.021273,-0.872717 c 0.03893,-0.04302 0.07959,-0.07821 0.09034,-0.07821 0.01078,0 -0.01232,0.03519 -0.05123,0.07821 -0.03893,0.04302 -0.07957,0.07821 -0.09034,0.07821 -0.01078,0 0.01232,-0.03519 0.05123,-0.07821 z m 2.137432,-0.430162 c 0,-0.05377 0.0089,-0.07576 0.01972,-0.04888 0.01091,0.02688 0.01091,0.07087 0,0.09777 -0.01091,0.02688 -0.01972,0.0049 -0.01972,-0.04888 z M 5.8887293,20.361305 c 0.00192,-0.04556 0.011162,-0.05482 0.02362,-0.02363 0.01129,0.02823 0.00988,0.06196 -0.00308,0.07495 -0.012997,0.013 -0.022235,-0.01014 -0.02054,-0.05132 z M 25.718379,20.227694 c 0,-0.05377 0.0089,-0.07576 0.01972,-0.04888 0.01091,0.02689 0.01091,0.07087 0,0.09777 -0.01091,0.02689 -0.01972,0.0049 -0.01972,-0.04888 z M 23.37953,19.875743 c 0,-0.182819 0.0068,-0.257608 0.01497,-0.166198 0.0082,0.0914 0.0082,0.240988 0,0.332398 -0.0082,0.09142 -0.01497,0.01662 -0.01497,-0.1662 z m -6.761078,-0.0099 c -0.01039,-0.02693 -0.01418,-0.744029 -0.0086,-1.593556 l 0.01026,-1.544594 0.967884,-10e-4 0.967883,-0.0011 -0.958107,0.01155 -0.958108,0.01155 v 1.562809 1.562809 l 0.889654,0.01129 0.889653,0.01129 -0.890881,0.009 c -0.684146,0.0069 -0.89524,-0.0023 -0.909668,-0.03995 z m 9.09684,-0.404013 c 0.0019,-0.04556 0.01116,-0.05482 0.02363,-0.02362 0.01129,0.02823 0.0099,0.06196 -0.0031,0.07495 -0.013,0.013 -0.02223,-0.01014 -0.02054,-0.05132 z m -2.307233,-0.273739 c 0.0019,-0.04556 0.01116,-0.05482 0.02362,-0.02363 0.01129,0.02823 0.0099,0.06196 -0.0031,0.07495 -0.013,0.013 -0.02224,-0.01014 -0.02054,-0.05132 z m 0.03911,-0.27374 c 0.0019,-0.04556 0.01116,-0.05482 0.02362,-0.02363 0.01129,0.02823 0.0099,0.06196 -0.0031,0.07495 -0.013,0.013 -0.02224,-0.01014 -0.02054,-0.05132 z m -1.00617,-0.602879 c 0,-0.182819 0.0068,-0.257609 0.01497,-0.166199 0.0082,0.09142 0.0082,0.240989 0,0.332399 -0.0082,0.09142 -0.01497,0.01662 -0.01497,-0.1662 z m -2.27272,0 c 0,-0.07527 0.0081,-0.106067 0.01789,-0.06844 0.0099,0.03764 0.0099,0.09923 0,0.13687 -0.0099,0.03764 -0.01789,0.0068 -0.01789,-0.06844 z m 10.974627,-0.65502 c -0.04864,-0.06202 -0.04725,-0.06341 0.01477,-0.01477 0.03764,0.02952 0.06844,0.06031 0.06844,0.06844 0,0.03219 -0.03211,0.01142 -0.0832,-0.05367 z m 0.278727,0.01456 c 0,-0.0081 0.03079,-0.03891 0.06844,-0.06844 0.06202,-0.04864 0.06341,-0.04725 0.01477,0.01477 -0.05109,0.06514 -0.0832,0.08586 -0.0832,0.05367 z m -4.614466,-0.312845 c 0,-0.0081 0.03079,-0.03891 0.06844,-0.06844 0.06202,-0.04864 0.06341,-0.04725 0.01477,0.01477 -0.05109,0.06514 -0.0832,0.08586 -0.0832,0.05367 z m 5.357473,-0.54748 c 0,-0.0081 0.03079,-0.03891 0.06844,-0.06844 0.06202,-0.04864 0.06341,-0.04725 0.01477,0.01477 -0.05109,0.06514 -0.0832,0.08586 -0.0832,0.05367 z m -3.09668,-0.129241 c 0.02823,-0.01129 0.06196,-0.0099 0.07495,0.0031 0.013,0.013 -0.01014,0.02223 -0.05132,0.02054 -0.04556,-0.0019 -0.05482,-0.01116 -0.02362,-0.02362 z m 3.331312,-0.144475 c 0,-0.0081 0.03079,-0.03891 0.06844,-0.06844 0.06202,-0.04864 0.06341,-0.04725 0.01477,0.01477 -0.05109,0.06514 -0.0832,0.08586 -0.0832,0.05367 z m -7.82113,-0.117319 c 0,-0.0081 0.03079,-0.03891 0.06844,-0.06844 0.06202,-0.04864 0.06341,-0.04725 0.01477,0.01477 -0.05109,0.06514 -0.0832,0.08586 -0.0832,0.05367 z m 8.111629,-0.258975 c 0,-0.05065 0.01321,-0.06387 0.03854,-0.03854 0.02533,0.02533 0.02533,0.05177 0,0.0771 -0.02533,0.02533 -0.03854,0.01206 -0.03854,-0.03854 z m -11.106926,-0.24441 -0.07449,-0.08799 0.08799,0.07449 c 0.04839,0.04098 0.08799,0.08057 0.08799,0.08799 0,0.03129 -0.03147,0.0082 -0.101474,-0.07449 z m -0.234634,-0.234634 -0.07449,-0.08799 0.08799,0.07449 c 0.08269,0.07 0.105784,0.101474 0.07449,0.101474 -0.0074,0 -0.04701,-0.03959 -0.08799,-0.08799 z m -2.213085,-0.916367 c 0.02823,-0.01129 0.06196,-0.0099 0.07495,0.0031 0.013,0.013 -0.01014,0.02224 -0.05133,0.02054 -0.04556,-0.0019 -0.05482,-0.01116 -0.02362,-0.02363 z m -3.678376,-0.0417 c 0.586096,-0.006 1.545162,-0.006 2.131258,0 0.586095,0.006 0.106567,0.01103 -1.065628,0.01103 -1.172192,0 -1.651726,-0.005 -1.06563,-0.01103 z m 12.203406,-0.07562 c 0.02823,-0.01129 0.06196,-0.0099 0.07495,0.0031 0.013,0.013 -0.01014,0.02224 -0.05132,0.02054 -0.04556,-0.0019 -0.05482,-0.01116 -0.02363,-0.02363 z m 2.15081,0 c 0.02823,-0.01129 0.06196,-0.0099 0.07495,0.0031 0.013,0.013 -0.01014,0.02224 -0.05132,0.02054 -0.04556,-0.0019 -0.05482,-0.01116 -0.02363,-0.02363 z m -1.91862,-0.03829 c 0.02688,-0.0109 0.07087,-0.0109 0.09777,0 0.02689,0.01091 0.0049,0.01972 -0.04888,0.01972 -0.05377,0 -0.07576,-0.0089 -0.04888,-0.01972 z m 1.603331,0 c 0.02689,-0.0109 0.07087,-0.0109 0.09777,0 0.02689,0.01091 0.0049,0.01972 -0.04888,0.01972 -0.05377,0 -0.07576,-0.0089 -0.04888,-0.01972 z m -1.133607,-0.04086 c 0.04864,-0.0094 0.119038,-0.009 0.156422,7.84e-4 0.03739,0.0098 -0.0024,0.01744 -0.08844,0.017 -0.08603,-4.28e-4 -0.116626,-0.0085 -0.06797,-0.0178 z m 0.567113,-3.99e-4 c 0.05944,-0.009 0.147431,-0.0087 0.195529,5.33e-4 0.0481,0.0092 -5.33e-4,0.01664 -0.108082,0.01635 -0.107543,-2.96e-4 -0.146893,-0.0078 -0.08745,-0.01687 z m -1.18255,-3.138972 -2.052115,-0.02008 0.106055,-0.0834 c 0.05833,-0.04587 0.25148,-0.214565 0.42923,-0.37488 0.177748,-0.160314 0.657533,-0.588798 1.066187,-0.9521845 1.393813,-1.2394218 1.525114,-1.3600692 1.515343,-1.3923731 -0.0054,-0.01777 0.0076,-0.032319 0.02864,-0.032319 0.02113,0 0.201499,-0.1464951 0.400832,-0.3255443 0.199333,-0.1790504 1.399674,-1.2463604 2.667425,-2.3718014 1.962879,-1.7425372 2.309479,-2.0352233 2.335161,-1.9719127 0.01659,0.04089 0.269643,1.7197161 0.562349,3.7307237 0.292704,2.0110075 0.541608,3.6959733 0.553119,3.7443663 l 0.02093,0.08799 -2.790515,-0.0092 c -1.534785,-0.0051 -3.713968,-0.01828 -4.842631,-0.02933 z"
     id="path6" />
  <path
     style="fill:#09c4e5;stroke-width:0.147804"
     d="m 40.985083,26.285832 c -0.01103,-0.03048 -0.250607,-0.935299 -0.532475,-2.010703 -0.281868,-1.075406 -0.54497,-2.078465 -0.584668,-2.229022 -0.0397,-0.150557 -0.118012,-0.449715 -0.174034,-0.664797 -0.157826,-0.605964 -0.177093,-0.654751 -0.250027,-0.633133 -0.06227,0.01845 -0.521493,0.193415 -1.824012,0.694922 -0.344129,0.1325 -0.665284,0.249644 -0.713677,0.260318 l -0.08799,0.01941 v -3.996594 c 0,-2.409237 0.01425,-3.991416 0.03589,-3.983558 0.01975,0.0072 0.710443,0.578086 1.534896,1.268703 0.824452,0.690617 2.449271,2.050631 3.610708,3.022255 1.161439,0.971622 2.128039,1.790516 2.148,1.819762 0.0257,0.03764 -0.418307,0.982048 -1.52076,3.234648 -0.856379,1.749811 -1.571636,3.197614 -1.58946,3.217342 -0.01903,0.02105 -0.04066,0.01297 -0.0524,-0.01955 z"
     id="path5" />
  <path
     style="fill:#5adb7b;stroke-width:0.147804"
     d="m 18.282126,43.671529 c 0.05051,-0.05377 0.10064,-0.09777 0.111392,-0.09777 0.01078,0 -0.02177,0.044 -0.0723,0.09777 -0.05051,0.05377 -0.10064,0.09777 -0.111391,0.09777 -0.01078,0 0.02177,-0.044 0.0723,-0.09777 z m 0.234633,-0.27374 c 0.05051,-0.05377 0.10064,-0.09777 0.111405,-0.09777 0.01078,0 -0.02177,0.04399 -0.0723,0.09777 -0.05051,0.05377 -0.10064,0.09777 -0.111405,0.09777 -0.01078,0 0.02177,-0.04399 0.0723,-0.09777 z m 0.195528,-0.234634 c 0.05051,-0.05377 0.10064,-0.09777 0.111405,-0.09777 0.01078,0 -0.02177,0.04399 -0.0723,0.09777 -0.05051,0.05377 -0.10064,0.09777 -0.111405,0.09777 -0.01078,0 0.02177,-0.044 0.0723,-0.09777 z m -1.977137,-0.15858 c -0.07289,-0.0584 -0.07241,-0.05912 0.01206,-0.01818 0.04839,0.02345 0.08799,0.05082 0.08799,0.06082 0,0.02992 -0.02028,0.02128 -0.100063,-0.04263 z m 2.211772,-0.115164 c 0.05051,-0.05377 0.10064,-0.09777 0.111392,-0.09777 0.01078,0 -0.02177,0.04399 -0.07229,0.09777 -0.05051,0.05377 -0.10064,0.09777 -0.111404,0.09777 -0.01078,0 0.02177,-0.044 0.0723,-0.09777 z m 0.234633,-0.27374 c 0.05051,-0.05377 0.10064,-0.09777 0.111392,-0.09777 0.01078,0 -0.02177,0.044 -0.0723,0.09777 -0.05051,0.05377 -0.10064,0.09777 -0.111392,0.09777 -0.01078,0 0.02177,-0.04399 0.0723,-0.09777 z m 0.234634,-0.273739 c 0.05051,-0.05377 0.10064,-0.09777 0.111404,-0.09777 0.01078,0 -0.02177,0.04399 -0.0723,0.09777 -0.05051,0.05377 -0.10064,0.09777 -0.111404,0.09777 -0.01078,0 0.02177,-0.044 0.0723,-0.09777 z m 0.117319,-0.149107 c 0,-0.0067 0.0572,-0.06392 0.127096,-0.127095 L 19.7877,41.950874 19.672844,42.07797 c -0.107068,0.118474 -0.13933,0.145068 -0.13933,0.114855 z m 0.312845,-0.359267 c 0.05051,-0.05377 0.10064,-0.09777 0.111392,-0.09777 0.01078,0 -0.02177,0.044 -0.0723,0.09777 -0.05051,0.05377 -0.100639,0.09777 -0.111391,0.09777 -0.01078,0 0.02177,-0.04399 0.0723,-0.09777 z m -5.45754,-0.197686 c -0.07289,-0.0584 -0.07241,-0.05912 0.01206,-0.01818 0.0484,0.02345 0.08799,0.05082 0.08799,0.06082 0,0.02992 -0.02028,0.02128 -0.100063,-0.04264 z m 5.770385,-0.173818 c 0.111802,-0.129047 0.212065,-0.234635 0.222819,-0.234635 0.01078,0 -0.07191,0.105593 -0.183714,0.234635 -0.111789,0.129048 -0.212065,0.234635 -0.222819,0.234635 -0.01078,0 0.07191,-0.105593 0.183714,-0.234635 z m -6.239653,-0.09992 c -0.07289,-0.0584 -0.07241,-0.05912 0.01206,-0.01818 0.0484,0.02345 0.08799,0.05082 0.08799,0.06081 0,0.02992 -0.02028,0.02128 -0.100062,-0.04263 z m 6.474286,-0.186053 c 0,-0.0067 0.0572,-0.06392 0.127096,-0.127096 l 0.127096,-0.114855 -0.114856,0.127095 c -0.107068,0.118474 -0.139331,0.145069 -0.139331,0.114856 z m 0.352293,-0.396001 c 0.117781,-0.142211 0.121925,-0.156274 0.05385,-0.183003 -0.06262,-0.0246 -0.06377,-0.02937 -0.0076,-0.0317 0.123966,-0.0051 0.113227,0.07294 -0.03039,0.22095 l -0.143425,0.147807 z m -7.960642,-0.08274 c -0.0729,-0.0584 -0.07241,-0.05912 0.01206,-0.01818 0.04839,0.02345 0.08799,0.05082 0.08799,0.06081 0,0.02992 -0.02028,0.02129 -0.100062,-0.04263 z m -0.273741,-0.156422 c -0.0729,-0.0584 -0.07241,-0.05912 0.01206,-0.01818 0.04839,0.02345 0.08799,0.05082 0.08799,0.06081 0,0.02992 -0.02028,0.02128 -0.100062,-0.04263 z m 8.109391,-0.005 c 0.02823,-0.01129 0.06196,-0.0099 0.07495,0.0031 0.013,0.013 -0.01014,0.02224 -0.05132,0.02054 -0.04556,-0.0019 -0.05482,-0.01116 -0.02362,-0.02363 z m -0.657464,-0.167193 c -0.118294,-0.03949 -0.197483,-0.07338 -0.175975,-0.07529 0.0215,-0.0019 0.144691,0.02987 0.273739,0.07063 0.129048,0.04076 0.208238,0.07465 0.175976,0.07529 -0.03227,5.91e-4 -0.155445,-0.03114 -0.27374,-0.07063 z m -7.921195,-0.101551 c -0.07289,-0.0584 -0.07241,-0.05912 0.01206,-0.01818 0.0484,0.02345 0.08799,0.05082 0.08799,0.06081 0,0.02992 -0.02028,0.02128 -0.100062,-0.04263 z m 7.483701,-0.04411 c 0.02823,-0.01129 0.06196,-0.0099 0.07495,0.0031 0.013,0.013 -0.01014,0.02224 -0.05132,0.02054 -0.04556,-0.0019 -0.05482,-0.01116 -0.02362,-0.02362 z m -0.325065,-0.07252 c -0.154215,-0.05335 -0.154491,-0.0538 -0.01955,-0.03102 0.159523,0.0269 0.322616,0.08646 0.234634,0.08567 -0.03225,-2.95e-4 -0.129049,-0.02488 -0.21508,-0.05464 z m -7.627904,-0.157117 c -0.07289,-0.0584 -0.07241,-0.05912 0.01206,-0.01818 0.0484,0.02345 0.08799,0.05082 0.08799,0.06081 0,0.02992 -0.02028,0.02128 -0.100063,-0.04264 z m 6.975328,-0.04411 c 0.02823,-0.01129 0.06196,-0.0099 0.07495,0.0031 0.013,0.013 -0.01014,0.02224 -0.05133,0.02054 -0.04556,-0.0019 -0.05482,-0.01116 -0.02362,-0.02362 z m -0.246855,-0.0515 c -0.04929,-0.02118 -0.05653,-0.0336 -0.01955,-0.0336 0.03225,0 0.09385,0.01513 0.136869,0.0336 0.04929,0.02118 0.05653,0.03361 0.01955,0.03361 -0.03225,0 -0.09385,-0.01513 -0.136869,-0.03361 z M 17.61733,39.70391 c -0.118295,-0.03949 -0.197484,-0.07338 -0.175975,-0.07529 0.0215,-0.0019 0.14469,0.02987 0.273738,0.07063 0.129049,0.04076 0.208238,0.07465 0.175976,0.07529 -0.03227,6.51e-4 -0.155445,-0.03114 -0.273739,-0.07063 z m -6.708922,-0.101551 c -0.07289,-0.0584 -0.07241,-0.05912 0.01206,-0.01818 0.0484,0.02345 0.08799,0.05082 0.08799,0.06081 0,0.02992 -0.02028,0.02129 -0.100062,-0.04263 z m 6.115005,-0.08322 c 0.02823,-0.01129 0.06196,-0.0099 0.07495,0.0031 0.013,0.013 -0.01014,0.02223 -0.05132,0.02054 -0.04556,-0.0019 -0.05482,-0.01116 -0.02362,-0.02363 z m -0.246855,-0.0515 c -0.04929,-0.02118 -0.05653,-0.03361 -0.01955,-0.03361 0.03227,0 0.09385,0.01513 0.13687,0.03361 0.04929,0.02118 0.05653,0.0336 0.01955,0.0336 -0.03227,0 -0.09385,-0.01513 -0.13687,-0.0336 z m -0.273739,-0.07821 c -0.04929,-0.02118 -0.05653,-0.03361 -0.01955,-0.03361 0.03227,0 0.09385,0.01513 0.13687,0.03361 0.04929,0.02118 0.05653,0.03361 0.01955,0.03361 -0.03227,0 -0.09385,-0.01513 -0.13687,-0.03361 z m -6.041822,-0.03908 c -0.03525,-0.02277 -0.04007,-0.03814 -0.01206,-0.0385 0.02561,-3.25e-4 0.05745,0.017 0.07075,0.0385 0.03001,0.04855 0.01647,0.04855 -0.05866,0 z m 5.741197,-0.06582 c 0.02823,-0.01129 0.06196,-0.0099 0.07495,0.0031 0.013,0.013 -0.01014,0.02223 -0.05132,0.02054 -0.04556,-0.0019 -0.05482,-0.01116 -0.02362,-0.02363 z m -0.213807,-0.07273 c -0.0127,-0.03319 -0.01219,-0.07132 0.0012,-0.08473 0.01341,-0.01341 0.02438,0.0037 0.02438,0.03793 0,0.03427 0.03079,0.07036 0.06844,0.08019 0.06414,0.01676 0.06406,0.01817 -0.0012,0.02241 -0.03831,0.0024 -0.08009,-0.02262 -0.09281,-0.05581 z m -5.822985,-0.03958 c -0.0729,-0.0584 -0.07241,-0.05912 0.01206,-0.01818 0.04839,0.02345 0.08799,0.05082 0.08799,0.06082 0,0.02992 -0.02029,0.02128 -0.100063,-0.04264 z m 5.852478,-0.173823 c -0.0059,-0.08818 0.125453,-0.726502 0.14034,-0.681846 0.0071,0.02128 -0.02069,0.196601 -0.06175,0.389599 -0.04106,0.192998 -0.07642,0.324508 -0.07859,0.292247 z m -6.3217461,-0.09992 c -0.072888,-0.0584 -0.072414,-0.05912 0.01206,-0.01818 0.048395,0.02345 0.087989,0.05082 0.087989,0.06081 0,0.02992 -0.020285,0.02129 -0.1000627,-0.04263 z M 9.2780506,38.663183 c -0.1461948,-0.07932 -0.1372958,-0.112341 0.00975,-0.0363 0.064523,0.03337 0.1173192,0.06901 0.1173192,0.07921 0,0.02516 -0.00423,0.02375 -0.1270958,-0.04293 z M 8.5620697,38.233678 c -0.072901,-0.0584 -0.072414,-0.05912 0.01206,-0.01818 0.048395,0.02345 0.087989,0.05082 0.087989,0.06082 0,0.02992 -0.020284,0.02128 -0.1000627,-0.04264 z m 7.6114373,-0.04021 c 0.0019,-0.04556 0.01116,-0.05482 0.02362,-0.02362 0.01129,0.02823 0.0099,0.06196 -0.0031,0.07495 -0.013,0.013 -0.02224,-0.01014 -0.02054,-0.05132 z m 0.0422,-0.172717 c 0,-0.05377 0.0089,-0.07576 0.01972,-0.04888 0.01091,0.02689 0.01091,0.07087 0,0.09777 -0.01091,0.02688 -0.01972,0.0049 -0.01972,-0.04888 z m -8.1228979,-0.06081 c -0.072888,-0.0584 -0.072414,-0.05912 0.01206,-0.01818 0.048395,0.02345 0.087989,0.05082 0.087989,0.06082 0,0.02992 -0.020284,0.02128 -0.1000626,-0.04264 z m 8.1611549,-0.08583 c -0.003,-0.02689 -0.03485,-0.04888 -0.07093,-0.04888 -0.03608,0 -0.207656,-0.04958 -0.38128,-0.110173 -0.173623,-0.0606 -0.500454,-0.168428 -0.726289,-0.239636 -0.225836,-0.07121 -0.560189,-0.178044 -0.743008,-0.237416 -0.182818,-0.05936 -0.517172,-0.164867 -0.743006,-0.234434 -0.225836,-0.06957 -0.533793,-0.167051 -0.68435,-0.216629 -0.150553,-0.04959 -0.616887,-0.198785 -1.036295,-0.331557 C 11.449397,36.322614 10.956667,36.164653 10.773848,36.10436 10.591029,36.044071 10.203882,35.920997 9.9135235,35.83087 9.6231635,35.740738 9.3152069,35.643099 9.229174,35.613886 9.1431476,35.584672 8.7295999,35.452816 8.3101913,35.320873 7.8907839,35.188928 7.3980534,35.031792 7.2152335,34.97168 7.0324148,34.91157 6.6980614,34.805067 6.472227,34.735013 6.2463913,34.66496 5.946859,34.566101 5.8066007,34.515332 c -0.1402584,-0.05077 -0.282549,-0.09231 -0.3162,-0.09231 -0.034847,0 -0.2384042,0.256768 -0.472786,0.596361 -0.6129469,0.888086 -0.5674305,0.795133 -0.4253259,0.868618 0.066101,0.03418 0.1201803,0.07095 0.1201803,0.0817 0,0.02642 -0.225343,-0.09148 -0.2462408,-0.128824 -0.00911,-0.01628 0.00642,-0.249576 0.034654,-0.518428 0.028175,-0.26885 0.079906,-0.814374 0.1149713,-1.212274 0.133484,-1.514913 0.2832893,-2.984828 0.2876271,-2.822247 0.00372,0.139055 0.046253,0.229964 0.2379012,0.508374 0.1283584,0.186471 0.2796686,0.39183 0.3362421,0.456355 0.056568,0.06452 0.1621992,0.205304 0.234727,0.312845 0.2203482,0.326727 0.4287297,0.5868 0.4669162,0.582741 0.052771,-0.0056 0.4031912,-0.51476 2.1235681,-3.085503 1.5873561,-2.371969 1.9321157,-2.867767 1.3430975,-1.931504 -0.1772503,0.281745 -0.195994,0.347725 -0.09878,0.347725 0.03509,0 0.2154612,0.05055 0.400833,0.112342 0.1853722,0.06179 0.5394102,0.176433 0.7867532,0.254761 0.247345,0.07833 0.639898,0.203747 0.872344,0.27871 0.232445,0.07497 0.43011,0.136294 0.439256,0.136294 0.0091,0 0.02258,-0.42674 0.02985,-0.948311 0.0073,-0.521572 0.01206,1.04021 0.01078,3.470626 l -0.0026,4.418937 h 2.268457 2.268457 l -0.164969,0.782113 c -0.09074,0.430162 -0.172193,0.817308 -0.181024,0.860325 -0.0089,0.04302 -0.01845,0.05621 -0.02138,0.02933 z M 6.9317158,37.294487 c -0.1461936,-0.07932 -0.1372945,-0.112341 0.00975,-0.0363 0.064523,0.03337 0.1173192,0.06901 0.1173192,0.07921 0,0.02516 -0.00423,0.02375 -0.1270958,-0.04293 z M 6.6850041,37.138722 c -0.072901,-0.0584 -0.072414,-0.05912 0.01206,-0.01818 0.048395,0.02345 0.087989,0.05082 0.087989,0.06081 0,0.02992 -0.020285,0.02129 -0.1000626,-0.04263 z m -0.4692667,-0.27374 c -0.072901,-0.0584 -0.072414,-0.05912 0.01206,-0.01818 0.048395,0.02345 0.087989,0.05082 0.087989,0.06082 0,0.02992 -0.020284,0.02128 -0.1000626,-0.04264 z m -0.469268,-0.273738 c -0.072901,-0.0584 -0.072414,-0.05912 0.01206,-0.01818 0.048396,0.02345 0.087989,0.05082 0.087989,0.06082 0,0.02992 -0.020284,0.02128 -0.1000626,-0.04263 z M 5.3283849,36.355952 c -0.1461936,-0.07932 -0.1372946,-0.112341 0.00975,-0.0363 0.064523,0.03337 0.1173192,0.06901 0.1173192,0.07921 0,0.02516 -0.00423,0.02375 -0.1270959,-0.04293 z M 5.0816732,36.200187 c -0.072901,-0.0584 -0.072414,-0.05912 0.01206,-0.01818 0.048395,0.02345 0.087989,0.05082 0.087989,0.06081 0,0.02992 -0.020284,0.02129 -0.1000626,-0.04263 z m -0.273741,-0.156423 c -0.072888,-0.0584 -0.072414,-0.05912 0.01206,-0.01818 0.048395,0.02345 0.087989,0.05082 0.087989,0.06081 0,0.02992 -0.020285,0.02128 -0.1000627,-0.04263 z M 16.769808,31.539 c 1.286772,-0.0058 3.38088,-0.0058 4.653573,3e-6 1.272693,0.0058 0.21988,0.01039 -2.339585,0.01039 -2.559464,-10e-7 -3.600758,-0.0046 -2.313988,-0.01039 z M 4.9156224,30.84487 c 7.39e-4,-0.06452 0.00962,-0.08619 0.019476,-0.04814 0.00988,0.03805 0.00924,0.09084 -0.00154,0.11732 -0.010777,0.02648 -0.018822,-0.0046 -0.018026,-0.06918 z m 0.039106,-0.391056 c 7.39e-4,-0.06452 0.00962,-0.08618 0.019476,-0.04814 0.00988,0.03804 0.00924,0.09084 -0.00154,0.117319 -0.010777,0.02648 -0.018822,-0.0046 -0.018026,-0.06918 z m 0.040556,-0.41061 c 0,-0.07527 0.00808,-0.10608 0.017885,-0.06844 0.00988,0.03764 0.00988,0.09923 0,0.13687 -0.00988,0.03764 -0.017885,0.0068 -0.017885,-0.06844 z m 0.040685,-0.391056 c 0,-0.09679 0.00757,-0.136381 0.016949,-0.08799 0.00937,0.0484 0.00937,0.127584 0,0.175977 -0.00937,0.0484 -0.016949,0.0089 -0.016949,-0.08799 z m 0.039106,-0.430162 c 0,-0.09679 0.00757,-0.136381 0.016949,-0.08799 0.00937,0.04839 0.00937,0.127583 0,0.175976 -0.00937,0.04839 -0.016949,0.0089 -0.016949,-0.08799 z m 0.036079,-0.488821 c 7.39e-4,-0.06452 0.00962,-0.08618 0.019476,-0.04814 0.00988,0.03805 0.00924,0.09084 -0.00154,0.117319 -0.010777,0.02648 -0.018822,-0.0046 -0.018026,-0.06918 z m 0.037657,-0.410608 c 0,-0.05377 0.00885,-0.07576 0.01972,-0.04888 0.010906,0.02688 0.010906,0.07087 0,0.09777 -0.010906,0.02689 -0.01972,0.0049 -0.01972,-0.04888 z m 0.040556,-0.371505 c 7.39e-4,-0.06452 0.00962,-0.08618 0.019476,-0.04814 0.00988,0.03805 0.00924,0.09084 -0.00154,0.117319 -0.010777,0.02648 -0.018822,-0.0046 -0.018026,-0.06918 z m 0.040556,-0.410608 c 0,-0.07528 0.00808,-0.10608 0.017885,-0.06844 0.00988,0.03764 0.00988,0.09923 0,0.13687 -0.00988,0.03764 -0.017885,0.0068 -0.017885,-0.06844 z m 4.7799166,-0.02933 c 0.06029,-0.0914 0.117062,-0.166199 0.126172,-0.166199 0.02821,0 -0.121528,0.238004 -0.1802568,0.286523 -0.030549,0.02522 -0.00616,-0.02892 0.054079,-0.120322 z m 0.197422,-0.298255 c 0.03696,-0.05641 0.07461,-0.102577 0.08364,-0.102577 0.02829,0 -0.06277,0.150712 -0.107902,0.178613 -0.02362,0.0146 -0.0127,-0.01962 0.02426,-0.07603 z m -4.9374432,-0.08302 c 4.427e-4,-0.08603 0.00847,-0.116626 0.017795,-0.06797 0.00937,0.04864 0.00898,0.119038 -7.39e-4,0.156423 -0.00975,0.03739 -0.017436,-0.0024 -0.017013,-0.08844 z m 0.038311,-0.449714 c 0,-0.07528 0.00808,-0.10608 0.017885,-0.06844 0.00988,0.03764 0.00988,0.09923 0,0.13687 -0.00988,0.03764 -0.017885,0.0068 -0.017885,-0.06844 z m 0.036207,-0.430163 c 0,-0.05377 0.00885,-0.07576 0.01972,-0.04888 0.010906,0.02689 0.010906,0.07087 0,0.09777 -0.010906,0.02688 -0.01972,0.0049 -0.01972,-0.04888 z M 5.3834428,25.8198 c 0,-0.05377 0.00885,-0.07576 0.01972,-0.04888 0.010906,0.02688 0.010906,0.07087 0,0.09777 -0.010906,0.02688 -0.01972,0.0049 -0.01972,-0.04888 z m 0.040556,-0.371503 c 7.39e-4,-0.06452 0.00962,-0.08619 0.019476,-0.04814 0.00988,0.03804 0.00924,0.09084 -0.00154,0.117319 -0.010777,0.02648 -0.018822,-0.0046 -0.018026,-0.06918 z m 0.040556,-0.41061 c 0,-0.07528 0.00808,-0.10608 0.017885,-0.06844 0.00988,0.03764 0.00988,0.09923 0,0.13687 -0.00988,0.03764 -0.017885,0.0068 -0.017885,-0.06844 z m 22.4693422,0.01244 c 0.02823,-0.01129 0.06196,-0.0099 0.07495,0.0031 0.013,0.013 -0.01014,0.02223 -0.05132,0.02054 -0.04556,-0.0019 -0.05482,-0.01116 -0.02363,-0.02362 z m 1.327148,8.14e-4 c 0.02688,-0.01091 0.07087,-0.01091 0.09777,0 0.02689,0.01091 0.0049,0.01972 -0.04888,0.01972 -0.05377,0 -0.07576,-0.0089 -0.04888,-0.01972 z M 14.39055,19.856237 c 1e-6,-2.81756 0.0046,-3.964432 0.01039,-2.5486 0.0056,1.415832 0.0056,3.72111 -3e-6,5.12284 -0.0056,1.40173 -0.01039,0.243322 -0.01039,-2.57424 z m -8.886888,4.790442 c 0,-0.07527 0.00808,-0.10608 0.017885,-0.06844 0.00988,0.03764 0.00988,0.09923 0,0.13687 -0.00988,0.03764 -0.017885,0.0068 -0.017885,-0.06844 z m 0.037657,-0.449714 c 7.39e-4,-0.06452 0.00962,-0.08619 0.019476,-0.04814 0.00988,0.03804 0.00924,0.09084 -0.00154,0.117319 -0.010777,0.02648 -0.018822,-0.0046 -0.018026,-0.06918 z m 26.662429,-0.347163 c 0,-0.0081 0.03079,-0.03891 0.06844,-0.06844 0.06202,-0.04864 0.06341,-0.04725 0.01477,0.01477 -0.05109,0.06514 -0.0832,0.08586 -0.0832,0.05367 z M 5.5758895,23.763544 c 0.00192,-0.04556 0.011162,-0.05482 0.02362,-0.02362 0.01129,0.02823 0.00988,0.06196 -0.00308,0.07495 -0.012997,0.013 -0.022235,-0.01014 -0.020541,-0.05132 z m 0.042199,-0.407351 c 0,-0.05377 0.00885,-0.07576 0.01972,-0.04888 0.010906,0.02688 0.010906,0.07087 0,0.09777 -0.010906,0.02688 -0.01972,0.0049 -0.01972,-0.04888 z m 0.040556,-0.371504 c 7.39e-4,-0.06452 0.00962,-0.08618 0.019476,-0.04814 0.00988,0.03805 0.00924,0.09084 -0.00154,0.117319 -0.010777,0.02648 -0.018822,-0.0046 -0.018026,-0.06918 z m 22.9771765,0.031 c 0.04864,-0.0094 0.119039,-0.009 0.156422,7.82e-4 0.03739,0.0098 -0.0024,0.01744 -0.08844,0.01701 -0.08603,-4.28e-4 -0.116626,-0.0085 -0.06797,-0.01779 z M 5.6991799,22.574033 c 0,-0.07528 0.00808,-0.10608 0.017885,-0.06844 0.00988,0.03764 0.00988,0.09923 0,0.13687 -0.00988,0.03764 -0.017885,0.0068 -0.017885,-0.06844 z m 0.039902,-0.41061 c 4.426e-4,-0.08603 0.00847,-0.116626 0.017796,-0.06797 0.00937,0.04864 0.00898,0.119038 -7.39e-4,0.156423 -0.00975,0.03739 -0.017436,-0.0024 -0.017013,-0.08844 z M 18.644603,21.921242 c 0.03805,-0.0099 0.09084,-0.0092 0.117319,0.0014 0.02647,0.01065 -0.0046,0.01882 -0.06918,0.01803 -0.06452,-7.98e-4 -0.08618,-0.0096 -0.04814,-0.01948 z m 0.451415,-0.03872 c 0.02823,-0.01129 0.06196,-0.0099 0.07495,0.0031 0.013,0.013 -0.01014,0.02223 -0.05132,0.02054 -0.04556,-0.0019 -0.05482,-0.01116 -0.02363,-0.02363 z M 5.7744931,21.713709 c 0,-0.05377 0.00885,-0.07576 0.01972,-0.04888 0.010906,0.02688 0.010906,0.07087 0,0.09777 -0.010906,0.02688 -0.01972,0.0049 -0.01972,-0.04888 z m 0.036014,-0.413869 c 0.00192,-0.04556 0.011162,-0.05482 0.02362,-0.02362 0.011291,0.02823 0.00988,0.06196 -0.00308,0.07495 -0.012997,0.013 -0.022235,-0.01014 -0.02054,-0.05133 z m 0.042199,-0.407349 c 0,-0.05377 0.00885,-0.07576 0.01972,-0.04888 0.010906,0.02689 0.010906,0.07087 0,0.09777 -0.010906,0.02688 -0.01972,0.0049 -0.01972,-0.04888 z m 15.6165309,-0.07821 c 0.03893,-0.04302 0.07957,-0.07821 0.09034,-0.07821 0.01078,0 -0.01232,0.03519 -0.05123,0.07821 -0.03893,0.04302 -0.07957,0.07821 -0.09034,0.07821 -0.01078,0 0.01232,-0.03519 0.05123,-0.07821 z M 5.8932609,20.520985 c 7.39e-4,-0.06452 0.00962,-0.08618 0.019476,-0.04814 0.00988,0.03804 0.00924,0.09084 -0.00154,0.117319 -0.010777,0.02648 -0.018822,-0.0046 -0.018026,-0.06918 z M 23.372035,20.266798 c 0,-0.05377 0.0089,-0.07576 0.01972,-0.04888 0.01091,0.02689 0.01091,0.07087 0,0.09777 -0.01091,0.02689 -0.01972,0.0049 -0.01972,-0.04888 z M 5.9338146,20.110375 c 0,-0.07528 0.00808,-0.10608 0.017885,-0.06844 0.00988,0.03764 0.00988,0.09923 0,0.136868 -0.00988,0.03764 -0.017885,0.0068 -0.017885,-0.06844 z m 19.7882464,-0.09777 c 4.28e-4,-0.08603 0.0085,-0.116626 0.01779,-0.06797 0.0094,0.04864 0.009,0.119038 -7.84e-4,0.156423 -0.0098,0.03739 -0.01744,-0.0024 -0.017,-0.08844 z m -7.05621,-0.163584 c 0.02823,-0.01129 0.06196,-0.0099 0.07495,0.0031 0.013,0.013 -0.01014,0.02223 -0.05132,0.02054 -0.04556,-0.0019 -0.05482,-0.01116 -0.02363,-0.02362 z m 7.056999,-0.168814 c 0,-0.09679 0.0076,-0.136381 0.01695,-0.08799 0.0094,0.04839 0.0094,0.127583 0,0.175976 -0.0094,0.04839 -0.01695,0.0089 -0.01695,-0.08799 z m -19.749929,0 c 0,-0.07528 0.00808,-0.106067 0.017885,-0.06844 0.00988,0.03764 0.00988,0.09923 0,0.13687 -0.00988,0.03764 -0.017885,0.0068 -0.017885,-0.06844 z m 17.399114,-0.195528 c 0,-0.05377 0.0089,-0.07576 0.01972,-0.04888 0.01091,0.02688 0.01091,0.07087 0,0.09777 -0.01091,0.02689 -0.01972,0.0049 -0.01972,-0.04888 z m -3.662552,-0.07821 c 0.03893,-0.04302 0.07959,-0.07821 0.09034,-0.07821 0.01078,0 -0.01232,0.03519 -0.05123,0.07821 -0.03893,0.04302 -0.07958,0.07821 -0.09034,0.07821 -0.01078,0 0.01232,-0.03519 0.05123,-0.07821 z M 6.0060408,19.227236 c 0.00192,-0.04556 0.011162,-0.05482 0.023633,-0.02363 0.011291,0.02823 0.00988,0.06196 -0.00308,0.07495 -0.012997,0.013 -0.022235,-0.01014 -0.020541,-0.05132 z m 0.042198,-0.407351 c 0,-0.05377 0.00885,-0.07576 0.01972,-0.04888 0.010906,0.02688 0.010906,0.07087 0,0.09777 -0.010906,0.02688 -0.01972,0.0049 -0.01972,-0.04888 z M 22.430417,18.679756 c 0.0019,-0.04556 0.01116,-0.05482 0.02362,-0.02362 0.01129,0.02823 0.0099,0.06196 -0.0031,0.07495 -0.013,0.013 -0.02223,-0.01014 -0.02054,-0.05133 z M 6.0873444,18.428829 c 0,-0.05377 0.00885,-0.07576 0.01972,-0.04888 0.010906,0.02689 0.010906,0.07087 0,0.09777 -0.010906,0.02688 -0.01972,0.0049 -0.01972,-0.04888 z m 0.042006,-0.391057 c 0,-0.07527 0.00808,-0.106067 0.017885,-0.06844 0.00988,0.03764 0.00988,0.09923 0,0.13687 -0.00988,0.03764 -0.017885,0.0068 -0.017885,-0.06844 z M 22.43042,17.936747 c 0.0019,-0.04556 0.01116,-0.05482 0.02362,-0.02363 0.01129,0.02823 0.0099,0.06196 -0.0031,0.07495 -0.013,0.013 -0.02223,-0.01014 -0.02054,-0.05132 z M 6.1692459,17.627161 c 4.44e-4,-0.08603 0.00847,-0.116626 0.017796,-0.06797 0.00937,0.04864 0.00898,0.119039 -7.39e-4,0.156423 -0.00975,0.03739 -0.017436,-0.0024 -0.017013,-0.08844 z M 26.63119,17.529395 c 0.08401,-0.08603 0.161541,-0.156423 0.172295,-0.156423 0.01078,0 -0.04918,0.07039 -0.13319,0.156423 -0.08401,0.08603 -0.161541,0.156423 -0.172295,0.156423 -0.01078,0 0.04918,-0.07039 0.13319,-0.156423 z m 4.907759,0.02434 c 0,-0.0081 0.03079,-0.03891 0.06844,-0.06844 0.06202,-0.04864 0.06341,-0.04725 0.01477,0.01477 -0.05109,0.06514 -0.0832,0.08586 -0.0832,0.05367 z M 6.2075633,17.216548 c 0,-0.07527 0.00808,-0.10608 0.017885,-0.06844 0.00988,0.03764 0.00988,0.09923 0,0.13687 -0.00988,0.03764 -0.017885,0.0068 -0.017885,-0.06844 z m 25.5660187,0.06345 c 0,-0.0081 0.03079,-0.03891 0.06844,-0.06844 0.06202,-0.04864 0.06341,-0.04725 0.01477,0.01477 -0.05109,0.06514 -0.0832,0.08586 -0.0832,0.05367 z m 0.234634,-0.27374 c 0,-0.0081 0.03079,-0.03891 0.06844,-0.06844 0.06202,-0.04864 0.06341,-0.04725 0.01477,0.01477 -0.05109,0.06514 -0.0832,0.08586 -0.0832,0.05367 z M 6.2406832,16.763573 c 0.00192,-0.04556 0.011162,-0.05482 0.02362,-0.02363 0.011291,0.02823 0.00988,0.06196 -0.00308,0.07495 -0.012997,0.013 -0.022235,-0.01014 -0.02054,-0.05132 z m 22.1803348,-0.0825 c 0.03805,-0.0099 0.09084,-0.0092 0.117319,0.0014 0.02648,0.01065 -0.0046,0.01882 -0.06918,0.01803 -0.06452,-7.98e-4 -0.08618,-0.0096 -0.04814,-0.01948 z m 0.469267,0 c 0.03805,-0.0099 0.09084,-0.0092 0.117319,0.0014 0.02647,0.01065 -0.0046,0.01882 -0.06918,0.01803 -0.06452,-7.98e-4 -0.08618,-0.0096 -0.04814,-0.01948 z M 6.2828752,16.356223 c 0,-0.05377 0.00885,-0.07576 0.01972,-0.04888 0.010906,0.02688 0.010906,0.07087 0,0.09777 -0.010906,0.02689 -0.01972,0.0049 -0.01972,-0.04888 z M 24.871436,16.082484 c 0.08401,-0.08603 0.161541,-0.156422 0.172295,-0.156422 0.01078,0 -0.04918,0.07039 -0.13319,0.156422 -0.08401,0.08603 -0.161541,0.156423 -0.172295,0.156423 -0.01078,0 0.04918,-0.07039 0.13319,-0.156423 z M 6.3219804,15.965164 c 0,-0.05377 0.00885,-0.07576 0.01972,-0.04888 0.010906,0.02688 0.010906,0.07087 0,0.09777 -0.010906,0.02689 -0.01972,0.0049 -0.01972,-0.04888 z m 26.1896216,-0.02933 c -0.04864,-0.06202 -0.04725,-0.06341 0.01477,-0.01477 0.03764,0.02952 0.06844,0.06031 0.06844,0.06844 0,0.03219 -0.03211,0.01142 -0.0832,-0.05367 z M 6.3639851,15.574107 c 0,-0.07527 0.00808,-0.106067 0.017885,-0.06844 0.00988,0.03764 0.00988,0.09923 0,0.136869 -0.00988,0.03764 -0.017885,0.0068 -0.017885,-0.06844 z m 0.039902,-0.41061 c 4.426e-4,-0.08603 0.00847,-0.116626 0.017796,-0.06797 0.00937,0.04864 0.00898,0.119038 -7.39e-4,0.156422 -0.00975,0.03739 -0.017436,-0.0024 -0.017013,-0.08844 z m 0.038311,-0.410608 c 0,-0.07527 0.00808,-0.10608 0.017885,-0.06844 0.00988,0.03764 0.00988,0.09923 0,0.13687 -0.00988,0.03764 -0.017885,0.0068 -0.017885,-0.06844 z M 18.68297,14.725932 c 0.03764,-0.0099 0.09923,-0.0099 0.13687,0 0.03764,0.0099 0.0068,0.01789 -0.06844,0.01789 -0.07528,0 -0.10608,-0.0081 -0.06844,-0.01789 z m 10.971578,-0.117075 c 0.02823,-0.01129 0.06196,-0.0099 0.07495,0.0031 0.013,0.013 -0.01014,0.02224 -0.05132,0.02054 -0.04556,-0.0019 -0.05482,-0.01116 -0.02362,-0.02362 z m -1.507267,-0.03949 c 0.03805,-0.0099 0.09084,-0.0092 0.117319,0.0014 0.02648,0.01065 -0.0046,0.01882 -0.06918,0.01803 -0.06452,-7.99e-4 -0.08619,-0.0096 -0.04814,-0.01948 z m 1.094958,0 c 0.03804,-0.0099 0.09084,-0.0092 0.117319,0.0014 0.02648,0.01065 -0.0046,0.01882 -0.06918,0.01803 -0.06452,-7.99e-4 -0.08618,-0.0096 -0.04814,-0.01948 z M 6.4784073,14.283621 c 0,-0.05377 0.00885,-0.07576 0.01972,-0.04888 0.010906,0.02688 0.010906,0.07087 0,0.09777 -0.010906,0.02688 -0.01972,0.0049 -0.01972,-0.04888 z m 0.039106,-0.391057 c 0,-0.05377 0.00885,-0.07576 0.01972,-0.04888 0.010906,0.02688 0.010906,0.07087 0,0.09777 -0.010906,0.02689 -0.01972,0.0049 -0.01972,-0.04888 z m 0.039106,-0.391056 c 0,-0.05377 0.00885,-0.07576 0.01972,-0.04888 0.010906,0.02689 0.010906,0.07087 0,0.09777 -0.010906,0.02689 -0.01972,0.0049 -0.01972,-0.04888 z m 0.042006,-0.391057 c 0,-0.07527 0.00808,-0.10608 0.017885,-0.06844 0.00988,0.03764 0.00988,0.09923 0,0.13687 -0.00988,0.03764 -0.017885,0.0068 -0.017885,-0.06844 z m 0.039106,-0.430162 c 0,-0.07527 0.00808,-0.10608 0.017885,-0.06844 0.00988,0.03764 0.00988,0.09923 0,0.13687 -0.00988,0.03764 -0.017885,0.0068 -0.017885,-0.06844 z m 0.036207,-0.430162 c 0,-0.05377 0.00885,-0.07576 0.01972,-0.04888 0.010906,0.02688 0.010906,0.07087 0,0.09777 -0.010906,0.02689 -0.01972,0.0049 -0.01972,-0.04888 z m 0.039106,-0.430162 c 0,-0.05377 0.00885,-0.07576 0.01972,-0.04888 0.010906,0.02689 0.010906,0.07087 0,0.09777 -0.010906,0.02688 -0.01972,0.0049 -0.01972,-0.04888 z m 0.039106,-0.391056 c 0,-0.05377 0.00885,-0.07576 0.01972,-0.04888 0.010906,0.02688 0.010906,0.07087 0,0.09777 -0.010906,0.02688 -0.01972,0.0049 -0.01972,-0.04888 z M 25.907744,11.194274 c 0.161311,-0.14908 0.307677,-0.271659 0.325259,-0.272398 0.01758,-7.39e-4 -0.09303,0.108646 -0.2458,0.24307 l -0.277767,0.24441 2.04466,0.02008 2.04466,0.02008 -2.092152,0.008 -2.092152,0.008 z M 6.7927059,11.018299 c 7.39e-4,-0.06452 0.00962,-0.08618 0.019476,-0.04814 0.00988,0.03805 0.00924,0.09084 -0.00154,0.11732 -0.010777,0.02648 -0.018822,-0.0046 -0.018027,-0.06918 z m 19.6234121,-0.27374 c 0.07296,-0.07527 0.141458,-0.136868 0.152212,-0.136868 0.01078,0 -0.04015,0.06158 -0.113111,0.136868 -0.07296,0.07527 -0.141459,0.13687 -0.152212,0.13687 -0.01078,0 0.04014,-0.06159 0.113111,-0.13687 z M 6.8332621,10.607691 c 0,-0.07528 0.00808,-0.10608 0.017885,-0.06844 0.00988,0.03764 0.00988,0.09923 0,0.136869 -0.00988,0.03764 -0.017885,0.0068 -0.017885,-0.06844 z M 26.826727,10.392735 C 26.955776,10.270091 27.184543,10.064 27.3351,9.9347615 c 0.150558,-0.1292372 0.193137,-0.1582809 0.09462,-0.064536 -0.09851,0.093737 -0.327283,0.2998285 -0.508373,0.4579725 -0.209639,0.183076 -0.244014,0.206524 -0.09462,0.06455 z M 6.8723659,10.216633 c 0,-0.07527 0.00808,-0.10608 0.017885,-0.06844 0.00988,0.03764 0.00988,0.09923 0,0.13687 -0.00988,0.03764 -0.017885,0.0068 -0.017885,-0.06844 z M 27.804368,9.5127317 c 0.08401,-0.086026 0.161541,-0.1564218 0.172296,-0.1564218 0.01078,0 -0.04918,0.070386 -0.13319,0.1564218 -0.08401,0.086026 -0.161542,0.1564218 -0.172296,0.1564218 -0.01078,0 0.04918,-0.070386 0.13319,-0.1564218 z m 0.35195,-0.3128462 c 0.08401,-0.086026 0.161543,-0.1564218 0.172297,-0.1564218 0.01078,0 -0.04918,0.070386 -0.13319,0.1564218 -0.08401,0.086026 -0.161541,0.1564244 -0.172296,0.1564244 -0.01078,0 0.04918,-0.070386 0.133189,-0.1564244 z m 0.371505,-0.3323968 c 0.07296,-0.075275 0.141458,-0.1368699 0.152212,-0.1368699 0.01078,0 -0.04015,0.061585 -0.113111,0.1368699 -0.07296,0.075275 -0.141458,0.1368686 -0.152212,0.1368686 -0.01078,0 0.04015,-0.061585 0.113111,-0.1368686 z m 0.195528,-0.1516349 c 0,-0.00808 0.03079,-0.038914 0.06844,-0.068436 0.06202,-0.048639 0.06341,-0.047254 0.01477,0.014768 -0.05109,0.065139 -0.0832,0.08586 -0.0832,0.053669 z"
     id="path4" />
  <path
     style="fill:#26d686;stroke-width:0.147804"
     d="m 18.065089,43.772693 c -0.02043,-0.01964 -0.292314,-0.184067 -0.604182,-0.365398 -0.682812,-0.397011 -2.648187,-1.544588 -3.754142,-2.192034 -0.440916,-0.25812 -0.960045,-0.560847 -1.153616,-0.672727 -0.193575,-0.11188 -0.615915,-0.358209 -0.938536,-0.547395 -0.322622,-0.189187 -0.69217,-0.405011 -0.82122,-0.479609 -0.129048,-0.07459 -0.287425,-0.166526 -0.35195,-0.204281 -0.06452,-0.03776 -0.222902,-0.129592 -0.351951,-0.204084 C 9.9604435,39.032673 9.7580716,38.913402 9.6397773,38.842114 9.5214829,38.770829 9.2575198,38.616122 9.0531926,38.498327 8.621503,38.249456 8.4595577,38.154965 7.6649418,37.688327 7.3423203,37.498868 6.91998,37.25245 6.7264071,37.140735 6.5328342,37.029022 6.172084,36.81799 5.924741,36.671782 5.6773981,36.525576 5.2498346,36.274721 4.9745989,36.114329 l -0.5004287,-0.291623 0.065921,-0.103475 c 0.3282386,-0.51523 0.9008024,-1.296193 0.9503051,-1.296193 0.033654,0 0.1759417,0.04154 0.3162,0.09231 0.1402584,0.05077 0.4397907,0.149626 0.6656263,0.219681 0.2258345,0.07005 0.5601879,0.176555 0.7430065,0.236667 0.1828199,0.06011 0.6755505,0.217249 1.0949578,0.349193 0.4194086,0.131943 0.8329512,0.263799 0.9189828,0.293013 0.086026,0.02922 0.3939894,0.126852 0.6843494,0.216984 0.2903589,0.09013 0.6775059,0.213198 0.8603249,0.27349 0.182818,0.06029 0.675549,0.218254 1.094957,0.351026 0.419408,0.132772 0.885742,0.281967 1.0363,0.331545 0.150556,0.04958 0.458513,0.147061 0.68435,0.216629 0.225834,0.06956 0.560188,0.175064 0.743007,0.234434 0.182818,0.05938 0.517172,0.166209 0.743007,0.237417 0.225835,0.07121 0.552666,0.179044 0.726289,0.239635 0.173625,0.0606 0.3452,0.110173 0.38128,0.110173 0.03608,0 0.0656,0.0081 0.0656,0.01801 0,0.0099 -0.05169,0.251874 -0.114869,0.537703 -0.06318,0.285828 -0.120374,0.596466 -0.127096,0.690307 l -0.01219,0.17062 0.606137,0.170579 c 0.333375,0.09381 0.755716,0.213184 0.938535,0.265255 0.182819,0.05208 0.490777,0.139251 0.684349,0.193731 0.193573,0.05448 0.541124,0.153096 0.772337,0.219144 0.530587,0.151571 1.131629,0.321529 1.534896,0.434025 0.172065,0.048 0.318011,0.09162 0.324325,0.09693 0.0063,0.0053 -0.442422,0.545174 -0.997193,1.199687 -0.554771,0.654512 -1.158254,1.36837 -1.341073,1.586353 -0.329814,0.393249 -0.380095,0.433895 -0.45167,0.365105 z m -5.983528,-7.601391 c -0.01065,-0.02783 -0.01402,-0.313789 -0.0074,-0.635466 l 0.01206,-0.584867 0.0086,0.615553 0.0086,0.615551 1.965059,0.01052 1.965059,0.01052 -1.966285,0.0094 c -1.579321,0.0076 -1.970108,-5.47e-4 -1.985704,-0.0412 z M 6.0963936,33.084481 C 6.0125868,32.98923 5.9075524,32.847062 5.67106,32.508752 5.5890879,32.391497 5.4884017,32.259513 5.4473028,32.215459 5.4062077,32.171413 5.2658955,31.979656 5.1355061,31.789345 l -0.2370724,-0.346017 0.021311,-0.321163 c 0.011675,-0.176639 0.057428,-0.698437 0.1015638,-1.15955 0.1731074,-1.808456 0.277984,-2.932111 0.3173187,-3.399806 0.022607,-0.268851 0.066088,-0.726388 0.096624,-1.016748 0.030523,-0.290358 0.074261,-0.747894 0.097189,-1.016746 0.022927,-0.268851 0.085321,-0.937558 0.138661,-1.486014 0.053335,-0.548457 0.1500362,-1.560315 0.2148889,-2.248575 0.064857,-0.688259 0.1708006,-1.805703 0.2354404,-2.483209 0.2245424,-2.353439 0.3490376,-3.662409 0.4500407,-4.731782 0.055863,-0.591473 0.1575752,-1.653529 0.2260217,-2.360125 L 6.9219456,9.9348924 7.4303175,9.7212826 C 7.7099245,9.6037965 8.0002832,9.4835392 8.0755618,9.4540464 8.1508365,9.4245498 8.3356143,9.3482487 8.4861701,9.2844685 8.9340887,9.0947344 10.064825,8.6213467 10.685864,8.3635587 c 0.12367,-0.051334 0.506417,-0.2115698 0.850547,-0.356075 0.344131,-0.1445051 0.722477,-0.3027334 0.840772,-0.3516177 0.118294,-0.048883 0.556558,-0.2314412 0.973919,-0.4056816 0.644284,-0.2689772 0.765302,-0.3081362 0.801665,-0.2594071 0.02356,0.031562 0.127789,0.167584 0.231619,0.3022638 0.179587,0.2329321 0.537336,0.7162017 0.78661,1.0625988 0.06329,0.087951 0.38952,0.5294621 0.724951,0.9811322 0.628165,0.8458469 0.810411,1.0936449 1.25936,1.7123379 l 0.261421,0.360261 4.020647,0.01982 c 3.71054,0.01829 3.505637,0.02057 -2.656642,0.02933 l -6.67729,0.0095 v 6.45415 6.454151 l -2.4602465,3.683989 c -2.4566873,3.678656 -3.3286358,4.969506 -3.42016,5.063267 -0.039081,0.04003 -0.063689,0.03243 -0.1266339,-0.03911 z M 25.65354,11.389818 c 0.03893,-0.04302 0.07957,-0.07821 0.09034,-0.07821 0.01078,0 -0.01232,0.03519 -0.05123,0.07821 -0.03893,0.04302 -0.07959,0.07821 -0.09034,0.07821 -0.01078,0 0.01232,-0.03519 0.05123,-0.07821 z m 0.254187,-0.210293 c 0,-0.0081 0.03079,-0.03891 0.06844,-0.06844 0.06202,-0.04864 0.06341,-0.04725 0.01477,0.01477 -0.05109,0.06514 -0.0832,0.08586 -0.0832,0.05367 z m 0.312844,-0.271211 c 0,-0.0067 0.0572,-0.06392 0.127096,-0.127096 l 0.127096,-0.114856 -0.114856,0.127096 c -0.107055,0.118474 -0.139329,0.145068 -0.139329,0.114856 z m 0.430163,-0.398373 c 0.05051,-0.05377 0.10064,-0.09777 0.111392,-0.09777 0.01078,0 -0.02177,0.044 -0.0723,0.09777 -0.05051,0.05377 -0.10064,0.09777 -0.111392,0.09777 -0.01078,0 0.02177,-0.04399 0.0723,-0.09777 z m 0.332397,-0.293293 c 0.03893,-0.04302 0.07957,-0.07821 0.09034,-0.07821 0.01078,0 -0.01232,0.03519 -0.05123,0.07821 -0.03893,0.04302 -0.07957,0.07821 -0.09034,0.07821 -0.01078,0 0.01232,-0.03519 0.05123,-0.07821 z m 0.391057,-0.3519509 c 0.03893,-0.04302 0.07959,-0.078213 0.09034,-0.078213 0.01078,0 -0.01232,0.035193 -0.05123,0.078213 -0.03893,0.04302 -0.07957,0.078213 -0.09034,0.078213 -0.01078,0 0.01232,-0.035193 0.05123,-0.078213 z m 0.293293,-0.2541865 c 0.05051,-0.053771 0.10064,-0.097766 0.111391,-0.097766 0.01078,0 -0.02177,0.043995 -0.07229,0.097766 -0.05051,0.053771 -0.10064,0.097766 -0.111392,0.097766 -0.01078,0 0.02177,-0.043995 0.07229,-0.097766 z M 27.980325,9.341559 c 0,-0.00808 0.03079,-0.038914 0.06844,-0.068436 0.06202,-0.048639 0.06341,-0.047254 0.01477,0.014768 -0.05109,0.065139 -0.0832,0.08586 -0.0832,0.053669 z m 0.41061,-0.3762914 c 0.03893,-0.04302 0.07959,-0.078213 0.09034,-0.078213 0.01078,0 -0.01232,0.035193 -0.05123,0.078213 -0.03893,0.04302 -0.07957,0.078213 -0.09034,0.078213 -0.01078,0 0.01232,-0.035193 0.05123,-0.078213 z m 0.293292,-0.2493984 c 0,-0.00808 0.03079,-0.038914 0.06844,-0.068436 0.06202,-0.048639 0.06341,-0.047254 0.01477,0.014768 -0.05109,0.065139 -0.0832,0.08586 -0.0832,0.053669 z M 14.371561,6.8210544 c 0.03227,-0.019938 0.102655,-0.048011 0.156422,-0.062393 0.06795,-0.018167 0.07987,-0.015101 0.03911,0.010136 -0.03227,0.019938 -0.102655,0.048011 -0.156423,0.062393 -0.06795,0.018167 -0.07987,0.015101 -0.03911,-0.010136 z M 14.762618,6.658034 c 0.03226,-0.020849 0.07626,-0.037913 0.09777,-0.037913 0.0215,0 0.0127,0.017064 -0.01955,0.037913 -0.03227,0.020849 -0.07626,0.037913 -0.09777,0.037913 -0.0215,0 -0.0127,-0.017064 0.01955,-0.037913 z m 0.273738,-0.1173192 c 0.03227,-0.020849 0.07626,-0.037913 0.09777,-0.037913 0.0215,0 0.0127,0.017064 -0.01955,0.037913 -0.03227,0.020849 -0.07626,0.037913 -0.09777,0.037913 -0.0215,0 -0.0127,-0.017064 0.01955,-0.037913 z m 0.195529,-0.078213 c 0.03227,-0.020849 0.07626,-0.0379 0.09777,-0.0379 0.0215,0 0.0127,0.017051 -0.01955,0.0379 -0.03227,0.020849 -0.07626,0.037913 -0.09777,0.037913 -0.0215,0 -0.0127,-0.017064 0.01955,-0.037913 z M 15.65676,6.2849976 c 0.07237,-0.031421 0.142762,-0.056504 0.156423,-0.055747 0.05087,0.00282 -0.172991,0.1131495 -0.229347,0.1130212 -0.03225,-8.09e-5 5.46e-4,-0.025853 0.07293,-0.057274 z M 16.7179,5.8368122 c 0.03227,-0.020849 0.07626,-0.037913 0.09777,-0.037913 0.0215,0 0.0127,0.017064 -0.01955,0.037913 -0.03225,0.020849 -0.07625,0.037913 -0.09777,0.037913 -0.0215,0 -0.0127,-0.017064 0.01955,-0.037913 z"
     id="path3" />
  <path
     style="fill:#1ed48e;stroke-width:0.147804"
     d="m 21.437364,11.429199 -4.020646,-0.01982 -0.261421,-0.360261 C 16.706348,10.430422 16.524101,10.182624 15.895937,9.3367772 15.560505,8.8851071 15.234277,8.4437178 15.170986,8.3559119 14.805879,7.849394 14.561251,7.5197377 14.361785,7.2654421 14.238115,7.107777 14.136926,6.9703362 14.136926,6.960022 c 0,-0.010264 0.0572,-0.041146 0.127096,-0.068513 0.249341,-0.097625 1.344794,-0.554445 1.652214,-0.6890003 0.172065,-0.075313 0.414032,-0.1796047 0.537703,-0.2317569 0.12367,-0.052155 0.326043,-0.1384865 0.449715,-0.1918511 0.195573,-0.084384 1.325791,-0.5577809 1.965059,-0.8230655 0.118294,-0.049088 0.364659,-0.1533349 0.547478,-0.2316542 0.18282,-0.078316 0.561167,-0.2373803 0.840771,-0.3534666 0.279606,-0.1160875 0.657953,-0.275237 0.840773,-0.3536667 0.182818,-0.078431 0.360646,-0.1511884 0.395172,-0.1616873 0.03761,-0.011419 0.460982,0.2434041 1.055851,0.6355306 0.546194,0.3600407 1.239444,0.8162386 1.540558,1.0137747 0.301113,0.1975362 0.996217,0.6542627 1.544673,1.01495 1.154731,0.7593997 2.102053,1.3814649 2.729773,1.79253 L 28.805854,8.60165 28.295327,9.0572025 c -0.551781,0.492361 -1.359375,1.2076775 -1.859672,1.6471805 -0.172066,0.151158 -0.330443,0.293827 -0.351951,0.317044 -0.138616,0.149634 -0.523832,0.445004 -0.570066,0.437107 -0.0306,-0.0053 -1.864915,-0.01842 -4.076272,-0.02933 z"
     id="path2" />
  <path
     style="fill:#000000;stroke-width:0.147804"
     d="M 12.103433,23.825352 V 11.467907 l 12.347608,0.0099 12.347608,0.0099 0.0099,12.347608 0.0099,12.347608 H 24.460961 12.103515 Z m 11.614377,8.485987 v -0.782113 h -4.634019 -4.634019 v 0.782113 0.782113 h 4.634019 4.634019 z m -7.078121,-8.85743 v -1.505567 l 1.00697,-3.25e-4 c 1.128249,-3.55e-4 1.543804,-0.03577 2.077141,-0.176995 1.186572,-0.314198 2.032932,-0.99416 2.456282,-1.973362 0.437943,-1.012956 0.357145,-2.453882 -0.189394,-3.377587 -0.338395,-0.571922 -0.985019,-1.116022 -1.615068,-1.358995 -0.834418,-0.321785 -1.20365,-0.354143 -3.872801,-0.339397 l -2.111706,0.01168 -0.0099,5.113064 -0.0099,5.113063 h 1.134208 1.134209 z m 0,-5.138783 v -1.567835 l 1.026522,6.8e-4 c 1.12258,7.39e-4 1.393762,0.0339 1.748749,0.21378 0.286439,0.145149 0.520776,0.393707 0.630782,0.669061 0.07717,0.193177 0.09239,0.301409 0.0929,0.661153 5.61e-4,0.389885 -0.0096,0.452131 -0.108851,0.664797 -0.180409,0.386667 -0.482533,0.648881 -0.929701,0.806895 -0.233131,0.08238 -0.329367,0.08976 -1.355679,0.103989 l -1.104734,0.01532 z"
     id="path1"
     sodipodi:nodetypes="cccccccccccccccccccccsssscccccccccsssccsscc" />
  <path
     style="fill:#f9f9f9;stroke-width:0.147804"
     d="m 16.639689,23.453909 v -1.505567 l 1.00697,-3.25e-4 c 1.128249,-3.55e-4 1.543804,-0.03577 2.077141,-0.176995 1.186572,-0.314198 2.032932,-0.99416 2.456282,-1.973362 0.437943,-1.012956 0.357145,-2.453882 -0.189394,-3.377587 -0.338395,-0.571922 -0.985019,-1.116022 -1.615068,-1.358995 -0.834418,-0.321785 -1.20365,-0.354143 -3.872801,-0.339397 l -2.111706,0.01168 -0.0099,5.113064 -0.0099,5.113063 h 1.134208 1.134209 z m 0,-5.138783 v -1.567835 l 1.026522,6.8e-4 c 1.12258,7.39e-4 1.393762,0.0339 1.748749,0.21378 0.286439,0.145149 0.520776,0.393707 0.630782,0.669061 0.07717,0.193177 0.09239,0.301409 0.0929,0.661153 5.61e-4,0.389885 -0.0096,0.452131 -0.108851,0.664797 -0.180409,0.386667 -0.482533,0.648881 -0.929701,0.806895 -0.233131,0.08238 -0.329367,0.08976 -1.355679,0.103989 l -1.104734,0.01532 z"
     id="path1-3"
     sodipodi:nodetypes="cccssssccccccccccccccsccc" />
  <path
     style="fill:#f9f9f9;stroke-width:0.147804"
     d="m 27.797026,23.380184 v -1.505567 l 1.00697,-3.25e-4 c 1.128249,-3.55e-4 1.543804,-0.03577 2.077141,-0.176995 1.186572,-0.314198 2.032932,-0.99416 2.456282,-1.973362 0.437943,-1.012956 0.357145,-2.453882 -0.189394,-3.377587 -0.338395,-0.571922 -0.985019,-1.116022 -1.615068,-1.358995 -0.834418,-0.321785 -1.20365,-0.354143 -3.872801,-0.339397 l -2.111706,0.01168 -0.0099,5.113064 -0.0099,5.113063 h 1.134208 1.134209 z m 0,-5.138783 v -1.567835 l 1.026522,6.8e-4 c 1.12258,7.39e-4 1.393762,0.0339 1.748749,0.21378 0.286439,0.145149 0.520776,0.393707 0.630782,0.669061 0.07717,0.193177 0.09239,0.301409 0.0929,0.661153 5.61e-4,0.389885 -0.0096,0.452131 -0.108851,0.664797 -0.180409,0.386667 -0.482533,0.648881 -0.929701,0.806895 -0.233131,0.08238 -0.329367,0.08976 -1.355679,0.103989 l -1.104734,0.01532 z"
     id="path1-3-6"
     sodipodi:nodetypes="cccssssccccccccccccccsccc" />
</svg>
