<?xml version="1.0" encoding="UTF-8" standalone="no"?>
<!-- Created with Inkscape (http://www.inkscape.org/) -->

<svg
   xmlns:dc="http://purl.org/dc/elements/1.1/"
   xmlns:cc="http://creativecommons.org/ns#"
   xmlns:rdf="http://www.w3.org/1999/02/22-rdf-syntax-ns#"
   xmlns:svg="http://www.w3.org/2000/svg"
   xmlns="http://www.w3.org/2000/svg"
   xmlns:xlink="http://www.w3.org/1999/xlink"
   xmlns:sodipodi="http://sodipodi.sourceforge.net/DTD/sodipodi-0.dtd"
   xmlns:inkscape="http://www.inkscape.org/namespaces/inkscape"
   width="48"
   height="48"
   id="svg5453"
   version="1.1"
   inkscape:version="0.92pre3 r"
   sodipodi:docname="remarkable.svg"
   viewBox="0 0 48 48">
  <defs
     id="defs5455">
    <linearGradient
       id="linearGradient4159"
       inkscape:collect="always">
      <stop
         id="stop4161"
         offset="0"
         style="stop-color:#2a2c2f;stop-opacity:1" />
      <stop
         id="stop4163"
         offset="1"
         style="stop-color:#424649;stop-opacity:1" />
    </linearGradient>
    <clipPath
       id="clipPath4436"
       clipPathUnits="userSpaceOnUse">
      <rect
         style="opacity:1;fill:url(#linearGradient4440);fill-opacity:1;stroke:none"
         id="rect4438"
         width="44"
         height="44"
         x="426.29868"
         y="453.23608"
         ry="22" />
    </clipPath>
    <linearGradient
       y2="517.79797"
       x2="400.57138"
       y1="545.79797"
       x1="400.57138"
       gradientTransform="matrix(1.5714302,0,0,1.5714302,-181.17136,-360.44722)"
       gradientUnits="userSpaceOnUse"
       id="linearGradient4440"
       xlink:href="#linearGradient4159"
       inkscape:collect="always" />
  </defs>
  <sodipodi:namedview
     id="base"
     pagecolor="#616161"
     bordercolor="#ffffff"
     borderopacity="1"
     inkscape:pageopacity="0"
     inkscape:pageshadow="2"
     inkscape:zoom="8.1249999"
     inkscape:cx="49.489067"
     inkscape:cy="20.913098"
     inkscape:document-units="px"
     inkscape:current-layer="g4628"
     showgrid="false"
     fit-margin-top="0"
     fit-margin-left="0"
     fit-margin-right="0"
     fit-margin-bottom="0"
     inkscape:window-width="1366"
     inkscape:window-height="740"
     inkscape:window-x="0"
     inkscape:window-y="0"
     inkscape:window-maximized="1"
     inkscape:showpageshadow="false"
     borderlayer="true"
     showguides="false">
    <inkscape:grid
       type="xygrid"
       id="grid4063" />
    <sodipodi:guide
       position="1.1650391e-05,43.999996"
       orientation="-2.5000018e-07,1"
       id="guide4148"
       inkscape:locked="false" />
    <sodipodi:guide
       position="48.000012,43.999996"
       orientation="-4,0"
       id="guide4150"
       inkscape:locked="false" />
    <sodipodi:guide
       position="48.000012,47.999996"
       orientation="0,-48"
       id="guide4152"
       inkscape:locked="false" />
    <sodipodi:guide
       position="1.1650391e-05,4.0000264"
       orientation="4,0"
       id="guide4154"
       inkscape:locked="false" />
    <sodipodi:guide
       position="1.1650391e-05,2.6367188e-05"
       orientation="0,48"
       id="guide4156"
       inkscape:locked="false" />
    <sodipodi:guide
       position="48.000012,2.6367188e-05"
       orientation="-4,0"
       id="guide4158"
       inkscape:locked="false" />
    <sodipodi:guide
       position="48.000012,4.0000264"
       orientation="0,-48"
       id="guide4160"
       inkscape:locked="false" />
    <sodipodi:guide
       position="48.000012,48.000026"
       orientation="0,-4"
       id="guide4162"
       inkscape:locked="false" />
    <sodipodi:guide
       position="44.000012,48.000026"
       orientation="48,0"
       id="guide4164"
       inkscape:locked="false" />
    <sodipodi:guide
       position="44.000012,2.6367188e-05"
       orientation="0,4"
       id="guide4166"
       inkscape:locked="false" />
    <sodipodi:guide
       position="48.000012,2.6367188e-05"
       orientation="-48,0"
       id="guide4168"
       inkscape:locked="false" />
    <sodipodi:guide
       position="4.0000422,48.000026"
       orientation="0,-4"
       id="guide4170"
       inkscape:locked="false" />
    <sodipodi:guide
       position="4.2167969e-05,48.000026"
       orientation="48,0"
       id="guide4172"
       inkscape:locked="false" />
    <sodipodi:guide
       position="4.2167969e-05,2.6367188e-05"
       orientation="0,4"
       id="guide4174"
       inkscape:locked="false" />
    <sodipodi:guide
       position="4.0000422,2.6367188e-05"
       orientation="-48,0"
       id="guide4176"
       inkscape:locked="false" />
  </sodipodi:namedview>
  <metadata
     id="metadata5458">
    <rdf:RDF>
      <cc:Work
         rdf:about="">
        <dc:format>image/svg+xml</dc:format>
        <dc:type
           rdf:resource="http://purl.org/dc/dcmitype/StillImage" />
        <dc:title></dc:title>
      </cc:Work>
    </rdf:RDF>
  </metadata>
  <g
     inkscape:label="Capa 1"
     inkscape:groupmode="layer"
     id="layer1"
     transform="translate(-384.57143,-499.798)">
    <g
       id="g4280"
       transform="matrix(1.15,0,0,1.15,-5.0851727,-76.635204)" />
    <g
       id="g4628"
       transform="translate(82.447625,-15.992685)">
      <circle
         style="opacity:1;fill:#5691b0;fill-opacity:1;stroke:#84bd9e;stroke-width:0;stroke-linejoin:round;stroke-miterlimit:4;stroke-dasharray:none;stroke-opacity:1;paint-order:markers fill stroke"
         id="path4718"
         cx="325.94077"
         cy="539.93359"
         r="23.388861" />
      <circle
         style="opacity:1;fill:#ffffff;fill-opacity:1;stroke:#84bd9e;stroke-width:0;stroke-linejoin:round;stroke-miterlimit:4;stroke-dasharray:none;stroke-opacity:1;paint-order:markers fill stroke"
         id="path4720"
         cx="325.7894"
         cy="539.93359"
         r="20.966713" />
      <path
         style="fill:#59c4fe;stroke-width:0.15784477"
         d="m 323.63114,561.26966 c -7.83769,-0.80385 -14.77618,-6.04794 -17.60498,-13.30577 -1.1182,-2.869 -1.49758,-4.92839 -1.48691,-8.07173 0.0147,-4.3456 1.14135,-8.18649 3.40742,-11.61653 3.31772,-5.02186 8.32546,-8.33447 14.20005,-9.39327 1.95729,-0.35276 5.55171,-0.35051 7.53843,0.004 8.80905,1.57518 15.73539,8.50165 17.30154,17.3019 0.35356,1.9867 0.35352,5.57579 -8e-5,7.57038 -1.34963,7.61277 -6.8395,14.00707 -14.14457,16.4748 -2.81566,0.95118 -6.25885,1.33825 -9.2109,1.03549 z m 14.51569,-6.38487 c 0.29011,-0.29012 0.36887,-0.4923 0.29207,-0.74976 -0.32588,-1.09244 -1.3069,-1.82 -3.35815,-2.49054 -1.28905,-0.42137 -5.1741,-2.08281 -8.3444,-3.56844 -0.93243,-0.43695 -3.89015,-2.49955 -4.44473,-3.09959 -0.82285,-0.8903 -0.32321,-1.14985 3.40185,-1.76724 2.15285,-0.35681 2.64366,-0.49469 3.60494,-1.01279 0.61203,-0.32986 1.90305,-0.86307 2.86892,-1.18491 1.31794,-0.43915 2.03919,-0.78967 2.89048,-1.40472 0.62389,-0.45075 1.61909,-1.10367 2.21155,-1.45093 1.38891,-0.81408 1.90876,-1.3223 2.78013,-2.718 1.53364,-2.45645 1.65245,-3.72553 0.58703,-6.27066 -0.6291,-1.50282 -1.52577,-2.61748 -3.04463,-3.78476 -1.49449,-1.14855 -2.42603,-1.53813 -5.14446,-2.15146 -0.34726,-0.0784 -2.12301,-0.18811 -3.94611,-0.24389 -2.66907,-0.0817 -3.68371,-0.0499 -5.20889,0.16353 -1.89126,0.26458 -6.72846,1.1982 -7.85765,1.5166 -0.79147,0.22318 -3.56953,2.32871 -4.11937,3.12214 -0.81848,1.18107 -1.09041,2.70863 -0.66392,3.72938 0.31727,0.75934 0.73118,0.94284 1.44964,0.64265 0.31643,-0.13222 0.60218,-0.2404 0.63499,-0.2404 0.17517,0 0.0124,1.19946 -0.33225,2.44771 -0.21555,0.78072 -0.58598,2.94664 -0.82319,4.81316 -0.35866,2.82204 -0.43223,4.01845 -0.43681,7.10301 -0.003,2.04015 0.0529,4.05145 0.12414,4.46954 0.12157,0.71303 0.17491,0.77961 0.85969,1.07313 0.40153,0.17212 0.97601,0.29174 1.27661,0.26581 1.08705,-0.0938 1.24654,-0.95461 1.14928,-6.2031 -0.0315,-1.70124 0.0195,-2.40962 0.22183,-3.07797 0.18117,-0.59854 0.30155,-1.84852 0.38763,-4.02503 0.12765,-3.22724 0.47716,-5.75923 1.12911,-8.17968 0.29231,-1.08529 0.40159,-1.27952 0.90411,-1.607 0.31438,-0.20488 1.20257,-0.55347 1.97375,-0.77465 0.77118,-0.22118 1.9787,-0.62864 2.68336,-0.90546 1.48481,-0.58329 2.78275,-0.747 6.86082,-0.8653 2.71477,-0.0788 2.7529,-0.0752 4.41964,0.41508 1.84616,0.54302 2.8618,1.10791 3.74025,2.08025 1.05473,1.16745 1.36437,2.64714 0.78681,3.75973 -0.46793,0.90137 -2.21238,2.4586 -4.33218,3.86723 -3.5149,2.33569 -3.10032,2.19556 -13.50887,4.56585 l -2.84121,0.64701 -0.429,0.86614 c -0.23595,0.47637 -0.43129,1.00149 -0.43407,1.16692 -0.01,0.56317 0.78046,1.33251 2.63761,2.56878 1.01988,0.67892 2.19442,1.53629 2.61013,1.90524 0.41571,0.36896 0.84671,0.67084 0.95779,0.67084 0.11109,0 0.41059,0.21996 0.66557,0.4888 1.20592,1.27143 5.90956,3.87953 8.9314,4.95231 0.69162,0.24552 1.91603,0.5017 2.98227,0.62396 2.69311,0.3088 2.79377,0.30419 3.24649,-0.14852 z"
         id="path4638"
         inkscape:connector-curvature="0" />
    </g>
  </g>
</svg>
