<?xml version="1.0" encoding="UTF-8" standalone="no"?>
<!-- Generator: flash2svg, http://dissentgraphics.com/tools/flash2svg -->

<svg
   xmlns:dc="http://purl.org/dc/elements/1.1/"
   xmlns:cc="http://creativecommons.org/ns#"
   xmlns:rdf="http://www.w3.org/1999/02/22-rdf-syntax-ns#"
   xmlns:svg="http://www.w3.org/2000/svg"
   xmlns="http://www.w3.org/2000/svg"
   xmlns:xlink="http://www.w3.org/1999/xlink"
   xmlns:sodipodi="http://sodipodi.sourceforge.net/DTD/sodipodi-0.dtd"
   xmlns:inkscape="http://www.inkscape.org/namespaces/inkscape"
   id="VirtualBox"
   version="1.1"
   style="image-rendering:optimizeSpeed"
   x="0px"
   y="0px"
   width="512"
   height="512"
   viewBox="0 0 512 512"
   enable-background="new 0 0 1024 1024"
   inkscape:version="0.91 r13725"
   sodipodi:docname="virtualbox.svg">
  <metadata
     id="metadata20">
    <rdf:RDF>
      <cc:Work
         rdf:about="">
        <dc:format>image/svg+xml</dc:format>
        <dc:type
           rdf:resource="http://purl.org/dc/dcmitype/StillImage" />
        <dc:title />
      </cc:Work>
    </rdf:RDF>
  </metadata>
  <sodipodi:namedview
     pagecolor="#ffffff"
     bordercolor="#666666"
     borderopacity="1"
     objecttolerance="10"
     gridtolerance="10"
     guidetolerance="10"
     inkscape:pageopacity="0"
     inkscape:pageshadow="2"
     inkscape:window-width="1366"
     inkscape:window-height="746"
     id="namedview18"
     showgrid="false"
     inkscape:zoom="2.0881748"
     inkscape:cx="216.62431"
     inkscape:cy="83.022274"
     inkscape:window-x="0"
     inkscape:window-y="0"
     inkscape:window-maximized="1"
     inkscape:current-layer="g3367" />
  <defs
     transform="matrix(1 0 0 1 0 0) "
     id="defs3">
    <linearGradient
       inkscape:collect="always"
       id="linearGradient4209">
      <stop
         style="stop-color:#122d58;stop-opacity:1;"
         offset="0"
         id="stop4211" />
      <stop
         style="stop-color:#122d58;stop-opacity:0;"
         offset="1"
         id="stop4213" />
    </linearGradient>
    <linearGradient
       id="linearGradient4203"
       inkscape:collect="always">
      <stop
         id="stop4205"
         offset="0"
         style="stop-color:#ffffff;stop-opacity:1" />
      <stop
         id="stop4207"
         offset="1"
         style="stop-color:#ffffff;stop-opacity:0;" />
    </linearGradient>
    <radialGradient
       inkscape:collect="always"
       xlink:href="#linearGradient4019"
       id="radialGradient3409"
       gradientUnits="userSpaceOnUse"
       gradientTransform="matrix(1,0,0,0.6264368,0,17.501793)"
       cx="-53.033009"
       cy="46.850952"
       fx="-53.033009"
       fy="46.850952"
       r="15.379573" />
    <linearGradient
       inkscape:collect="always"
       id="linearGradient4019">
      <stop
         style="stop-color:#000000;stop-opacity:1;"
         offset="0"
         id="stop4021" />
      <stop
         style="stop-color:#000000;stop-opacity:0;"
         offset="1"
         id="stop4023" />
    </linearGradient>
    <radialGradient
       inkscape:collect="always"
       xlink:href="#linearGradient4019"
       id="radialGradient3411"
       gradientUnits="userSpaceOnUse"
       gradientTransform="matrix(1,0,0,0.6264368,0,17.501793)"
       cx="-53.033009"
       cy="46.850952"
       fx="-53.033009"
       fy="46.850952"
       r="15.379573" />
    <linearGradient
       id="linearGradient4224">
      <stop
         style="stop-color:#e1e6ee;stop-opacity:1"
         offset="0"
         id="stop4226" />
      <stop
         id="stop4234"
         offset="0.42245635"
         style="stop-color:#7287af;stop-opacity:1" />
      <stop
         id="stop4232"
         offset="0.70941126"
         style="stop-color:#34425b;stop-opacity:1" />
      <stop
         style="stop-color:#97a7c4;stop-opacity:1"
         offset="1"
         id="stop4228" />
    </linearGradient>
    <linearGradient
       inkscape:collect="always"
       xlink:href="#linearGradient4203"
       id="linearGradient3415"
       gradientUnits="userSpaceOnUse"
       x1="-52.594513"
       y1="51.279823"
       x2="-52.305878"
       y2="56.549919" />
    <linearGradient
       inkscape:collect="always"
       id="linearGradient3421">
      <stop
         style="stop-color:#ffffff;stop-opacity:1;"
         offset="0"
         id="stop3423" />
      <stop
         style="stop-color:#ffffff;stop-opacity:0;"
         offset="1"
         id="stop3425" />
    </linearGradient>
    <radialGradient
       inkscape:collect="always"
       xlink:href="#linearGradient3354"
       id="radialGradient3417"
       gradientUnits="userSpaceOnUse"
       gradientTransform="matrix(0.9986721,5.975142e-8,-5.6867029e-8,0.6439168,-0.07041926,16.682839)"
       cx="-53.033009"
       cy="46.850952"
       fx="-53.033009"
       fy="46.850952"
       r="16.134554" />
    <linearGradient
       id="linearGradient3354">
      <stop
         id="stop3356"
         offset="0"
         style="stop-color:#a9b9d4;stop-opacity:1" />
      <stop
         id="stop3358"
         offset="1"
         style="stop-color:#e1d9e4;stop-opacity:1" />
    </linearGradient>
    <linearGradient
       inkscape:collect="always"
       xlink:href="#linearGradient3421"
       id="linearGradient3419"
       gradientUnits="userSpaceOnUse"
       x1="-54.069595"
       y1="57.356705"
       x2="-54.164787"
       y2="44.07795" />
    <radialGradient
       inkscape:collect="always"
       xlink:href="#linearGradient4019"
       id="radialGradient3421"
       gradientUnits="userSpaceOnUse"
       gradientTransform="matrix(0.8456337,0,0,0.626437,-8.1865075,17.501786)"
       cx="-53.033009"
       cy="46.850952"
       fx="-53.033009"
       fy="46.850952"
       r="15.379573" />
    <radialGradient
       inkscape:collect="always"
       xlink:href="#linearGradient4019"
       id="radialGradient3423"
       gradientUnits="userSpaceOnUse"
       gradientTransform="matrix(-0.1414097,0.1648185,-0.1995907,-0.1652513,22.500539,21.218688)"
       cx="21.687181"
       cy="38.137299"
       fx="21.687181"
       fy="38.137299"
       r="9.5" />
    <linearGradient
       inkscape:collect="always"
       xlink:href="#linearGradient3713"
       id="linearGradient3425"
       gradientUnits="userSpaceOnUse"
       gradientTransform="matrix(0.3264791,0,0,0.3209385,32.669938,5.7878133)"
       x1="-54.91856"
       y1="-7.1191425"
       x2="-75.018066"
       y2="3.9925356" />
    <linearGradient
       inkscape:collect="always"
       id="linearGradient3713">
      <stop
         style="stop-color:#cbe6fb;stop-opacity:1"
         offset="0"
         id="stop3715" />
      <stop
         style="stop-color:#fdfdff;stop-opacity:1"
         offset="1"
         id="stop3717" />
    </linearGradient>
    <linearGradient
       inkscape:collect="always"
       xlink:href="#linearGradient3421"
       id="linearGradient3427"
       gradientUnits="userSpaceOnUse"
       gradientTransform="matrix(0.5078578,0,0,0.4988935,-0.3666745,0.7707759)"
       x1="24"
       y1="19.775402"
       x2="23.699741"
       y2="6.6504011" />
    <linearGradient
       inkscape:collect="always"
       xlink:href="#linearGradient3705"
       id="linearGradient3429"
       gradientUnits="userSpaceOnUse"
       gradientTransform="matrix(0.2648489,0.1876625,2.2955628e-4,0.3209385,32.669938,5.5953152)"
       x1="-108.77519"
       y1="66.082184"
       x2="-83.203651"
       y2="84.61161" />
    <linearGradient
       inkscape:collect="always"
       id="linearGradient3705">
      <stop
         style="stop-color:#c4c4da;stop-opacity:1;"
         offset="0"
         id="stop3707" />
      <stop
         style="stop-color:#eee6e6;stop-opacity:1"
         offset="1"
         id="stop3709" />
    </linearGradient>
    <linearGradient
       inkscape:collect="always"
       xlink:href="#linearGradient3689"
       id="linearGradient3431"
       gradientUnits="userSpaceOnUse"
       gradientTransform="matrix(0.3264791,0,0,0.3209385,32.669938,5.5953152)"
       x1="-61.145386"
       y1="16.902325"
       x2="-40.268818"
       y2="25.387608" />
    <linearGradient
       inkscape:collect="always"
       id="linearGradient3689">
      <stop
         style="stop-color:#4669a2;stop-opacity:1"
         offset="0"
         id="stop3691" />
      <stop
         style="stop-color:#b2caf1;stop-opacity:1"
         offset="1"
         id="stop3693" />
    </linearGradient>
    <linearGradient
       inkscape:collect="always"
       xlink:href="#linearGradient3328"
       id="linearGradient3435"
       gradientUnits="userSpaceOnUse"
       x1="15.777571"
       y1="28.831329"
       x2="38.612499"
       y2="29.419273" />
    <linearGradient
       id="linearGradient3328">
      <stop
         style="stop-color:#ffffff;stop-opacity:1;"
         offset="0"
         id="stop3330" />
      <stop
         id="stop3332"
         offset="0.5874964"
         style="stop-color:#bfbfbf;stop-opacity:1" />
      <stop
         style="stop-color:#949494;stop-opacity:1"
         offset="0.86405975"
         id="stop3334" />
      <stop
         style="stop-color:#484f53;stop-opacity:1"
         offset="1"
         id="stop3336" />
    </linearGradient>
    <linearGradient
       inkscape:collect="always"
       xlink:href="#linearGradient3328"
       id="linearGradient3439"
       gradientUnits="userSpaceOnUse"
       x1="23.28125"
       y1="25.977016"
       x2="39.121479"
       y2="24.09605" />
    <linearGradient
       inkscape:collect="always"
       xlink:href="#linearGradient3328"
       id="linearGradient3443"
       gradientUnits="userSpaceOnUse"
       x1="28.068245"
       y1="22.123779"
       x2="19.083117"
       y2="5.1375003" />
    <radialGradient
       inkscape:collect="always"
       xlink:href="#linearGradient3421"
       id="radialGradient3445"
       gradientUnits="userSpaceOnUse"
       gradientTransform="matrix(1,0,0,1.1315789,0,-3.140787)"
       cx="33.764347"
       cy="23.869982"
       fx="33.764347"
       fy="23.869982"
       r="3.3587573" />
    <radialGradient
       inkscape:collect="always"
       xlink:href="#linearGradient3421"
       id="radialGradient3447"
       gradientUnits="userSpaceOnUse"
       gradientTransform="matrix(1,0,0,1.1315789,0,-3.140787)"
       cx="33.764347"
       cy="23.869982"
       fx="33.764347"
       fy="23.869982"
       r="3.3587573" />
    <radialGradient
       inkscape:collect="always"
       xlink:href="#linearGradient3421"
       id="radialGradient3449"
       gradientUnits="userSpaceOnUse"
       gradientTransform="matrix(1,0,0,1.1315789,0,-3.140787)"
       cx="33.764347"
       cy="23.869982"
       fx="33.764347"
       fy="23.869982"
       r="3.3587573" />
    <linearGradient
       inkscape:collect="always"
       xlink:href="#linearGradient4209"
       id="linearGradient4215"
       x1="-52.305878"
       y1="56.549919"
       x2="-52.594513"
       y2="51.279823"
       gradientUnits="userSpaceOnUse" />
  </defs>
  <g
     id="g3382"
     transform="matrix(10.209709,0,0,10.209709,16.036592,7.1855664)">
    <g
       transform="matrix(2.0145084,0,0,2.0145084,-0.07753924,-0.4906813)"
       id="g3367">
      <path
         inkscape:connector-curvature="0"
         style="display:inline;overflow:visible;visibility:visible;fill:none;fill-opacity:1;stroke:#7d7d7d;stroke-width:0.18298271;stroke-linecap:round;stroke-linejoin:round;stroke-miterlimit:4;stroke-dashoffset:0;stroke-opacity:1;marker:none;enable-background:accumulate"
         d="m 11.84375,0.8125 -9.2086243,4.0492318 0.375,9.4687502 L 6.75,16.9375 c 0.013256,0.01929 0.023773,0.04032 0.03125,0.0625 0.038045,0.04343 0.060098,0.09856 0.0625,0.15625 -0.00416,0.033 -0.014775,0.06486 -0.03125,0.09375 -0.2309508,0.490439 -0.34375,1.007784 -0.34375,1.5625 0,2.40261 2.3681554,4.406251 5.375,4.40625 3.006845,0 5.40625,-2.005691 5.40625,-4.40625 -1e-6,-0.565101 -0.130988,-1.058017 -0.375,-1.5625 -0.02103,-0.03827 -0.03179,-0.08133 -0.03125,-0.125 -5.41e-4,-0.04367 0.01022,-0.08673 0.03125,-0.125 0.01353,-0.03555 0.03489,-0.06759 0.0625,-0.09375 l 3.625,-2.625 L 21,4.90625 11.84375,0.8125 Z"
         id="path3589"
         sodipodi:nodetypes="cccccscssscsscccc" />
      <ellipse
         ry="9.6343298"
         rx="15.379573"
         cy="46.850952"
         cx="-53.033009"
         style="display:inline;overflow:visible;visibility:visible;fill:url(#radialGradient3409);fill-opacity:1;stroke:none;stroke-width:1.6170392;marker:none;enable-background:accumulate"
         id="path3849-1-2-0"
         transform="matrix(0.4006047,0,0,0.3928366,33.067187,1.9519675)" />
      <ellipse
         ry="9.6343298"
         rx="15.379573"
         cy="46.850952"
         cx="-53.033009"
         style="display:inline;overflow:visible;visibility:visible;fill:url(#radialGradient3411);fill-opacity:1;stroke:none;stroke-width:1.6170392;marker:none;enable-background:accumulate"
         id="path3849-1-2-0-7"
         transform="matrix(0.6236319,0,0,0.914565,45.148922,-28.952987)" />
      <ellipse
         ry="9.6343298"
         rx="15.379573"
         cy="46.850952"
         cx="-53.033009"
         style="display:inline;overflow:visible;visibility:visible;fill:url(#linearGradient4215);fill-opacity:1;stroke:url(#linearGradient3415);stroke-width:0.45317325;stroke-linecap:round;stroke-linejoin:round;stroke-miterlimit:4;stroke-dasharray:none;stroke-dashoffset:0;stroke-opacity:1;marker:none;enable-background:accumulate"
         id="path3849-1-2"
         transform="matrix(0.351911,0,0,0.463296,30.484814,-3.162192)" />
      <ellipse
         ry="9.6343298"
         rx="15.379573"
         cy="46.850952"
         cx="-53.033009"
         style="display:inline;overflow:visible;visibility:visible;fill:url(#radialGradient3417);fill-opacity:1;stroke:url(#linearGradient3419);stroke-width:0.48386192;stroke-linecap:round;stroke-linejoin:round;stroke-miterlimit:4;stroke-dasharray:none;stroke-dashoffset:0;stroke-opacity:1;marker:none;enable-background:accumulate"
         id="path3849-1"
         transform="matrix(0.346162,0,0,0.4131405,30.179921,-1.4158044)" />
      <ellipse
         ry="9.6343298"
         rx="15.379573"
         cy="46.850952"
         cx="-53.033009"
         style="display:inline;overflow:visible;visibility:visible;fill:url(#radialGradient3421);fill-opacity:1;stroke:none;stroke-width:1.59625924;marker:none;enable-background:accumulate"
         id="path3849-1-0"
         transform="matrix(0.3592478,0,0,0.4214815,30.873901,-1.9025095)" />
      <path
         inkscape:connector-curvature="0"
         style="opacity:0.3;fill:url(#radialGradient3423);fill-opacity:1;stroke:none"
         d="m 6.9972628,17.296624 4.9227582,4.240595 4.72654,-4.178233 -9.6492982,-0.06236 z"
         id="path4206"
         sodipodi:nodetypes="cccc" />
      <path
         inkscape:connector-curvature="0"
         style="display:inline;overflow:visible;visibility:visible;fill:url(#linearGradient3425);fill-opacity:1;stroke:url(#linearGradient3427);stroke-width:0.18298268;stroke-linecap:round;stroke-linejoin:round;stroke-miterlimit:4;stroke-dasharray:none;stroke-opacity:1;marker:none;enable-background:accumulate"
         d="M 20.810863,5.0334341 11.923838,10.524545 2.8329616,4.9296134 11.827044,1.0202226 20.810863,5.0334341 Z"
         id="rect2868-0-3"
         sodipodi:nodetypes="ccccc" />
      <path
         inkscape:connector-curvature="0"
         style="display:inline;overflow:visible;visibility:visible;fill:url(#linearGradient3429);fill-opacity:1;stroke:none;stroke-width:0.99999982;stroke-linecap:round;stroke-linejoin:round;stroke-miterlimit:4;stroke-dasharray:none;stroke-opacity:1;marker:none;enable-background:accumulate"
         d="m 2.8329691,5.0187498 8.9225379,5.4105832 0.0072,10.093091 -8.5494206,-6.190008 -0.3803361,-9.3136662 -2.2e-6,0 z"
         id="rect2868"
         sodipodi:nodetypes="ccccc" />
      <path
         inkscape:connector-curvature="0"
         style="display:inline;overflow:visible;visibility:visible;fill:url(#linearGradient3431);fill-opacity:1;stroke:none;stroke-width:1;stroke-linecap:round;stroke-linejoin:round;stroke-miterlimit:4;stroke-dasharray:none;stroke-opacity:1;marker:none;enable-background:accumulate"
         d="m 20.810861,5.0187498 -8.922538,5.4105832 -0.0072,10.093091 8.549421,-6.190008 0.380337,-9.3136662 5e-6,0 z"
         id="rect2868-0"
         sodipodi:nodetypes="ccccc" />
      <path
         sodipodi:type="inkscape:offset"
         inkscape:radius="-3.5998561"
         inkscape:original="M 41.9375 9.96875 L 22.625 21.875 L 22.59375 44.15625 L 41.125 30.5 L 41.9375 9.96875 z "
         style="display:inline;overflow:visible;visibility:visible;fill:#173761;fill-opacity:1;stroke:url(#linearGradient3435);stroke-width:0.36352563;stroke-linecap:round;stroke-linejoin:round;stroke-miterlimit:4;stroke-dasharray:none;stroke-opacity:1;marker:none;enable-background:accumulate;opacity:1"
         id="path3759"
         d="m 38.072266,16.580078 -11.84961,7.306641 -0.01953,13.136719 11.392578,-8.394532 0.476563,-12.048828 z"
         transform="matrix(0.5078578,0,0,0.4988935,-0.04926342,-0.6011813)" />
      <path
         sodipodi:type="inkscape:offset"
         inkscape:radius="-3.5544806"
         inkscape:original="M 41.9375 9.96875 L 22.625 21.875 L 22.59375 44.15625 L 41.125 30.5 L 41.9375 9.96875 z "
         style="display:inline;overflow:visible;visibility:visible;fill:#173761;fill-opacity:1;stroke:url(#linearGradient3439);stroke-width:0.36352563;stroke-linecap:round;stroke-linejoin:round;stroke-miterlimit:4;stroke-dasharray:none;stroke-opacity:1;marker:none;enable-background:accumulate;opacity:1"
         id="path3759-4"
         d="m 38.123047,16.496094 -11.947266,7.365234 -0.01758,13.251953 11.482422,-8.460937 0.482422,-12.15625 z"
         transform="matrix(-0.5078578,0,0,0.4988935,23.470899,-0.6011813)" />
      <path
         sodipodi:type="inkscape:offset"
         inkscape:radius="-3.2752702"
         inkscape:original="M 22.5 1.15625 L 3 9.75 L 22.6875 22.09375 L 41.9375 10 L 22.5 1.15625 z "
         style="display:inline;overflow:visible;visibility:visible;fill:#173761;fill-opacity:1;stroke:url(#linearGradient3443);stroke-width:0.36352563;stroke-linecap:round;stroke-linejoin:round;stroke-miterlimit:4;stroke-dasharray:none;stroke-opacity:1;marker:none;enable-background:accumulate;opacity:1"
         id="path3845"
         d="M 22.480469,4.7441406 9.9746094,10.255859 22.685547,18.226562 35.044922,10.460938 22.480469,4.7441406 Z"
         transform="matrix(0.5078578,0,0,0.4988935,0.649041,-0.2270111)" />
      <ellipse
         ry="3.800699"
         rx="3.3587573"
         cy="23.869982"
         cx="33.764347"
         style="display:inline;overflow:visible;visibility:visible;opacity:0.2;fill:url(#radialGradient3445);fill-opacity:1;fill-rule:nonzero;stroke:none;stroke-width:0.30000001;marker:none;enable-background:accumulate"
         id="path4139-8"
         transform="matrix(-0.5078578,0,0.1817955,0.4988935,19.908737,0.5943902)" />
      <ellipse
         ry="3.800699"
         rx="3.3587573"
         cy="23.869982"
         cx="33.764347"
         style="display:inline;overflow:visible;visibility:visible;opacity:0.2;fill:url(#radialGradient3447);fill-opacity:1;fill-rule:nonzero;stroke:none;stroke-width:0.30000001;stroke-linecap:round;stroke-linejoin:round;stroke-miterlimit:4;stroke-dasharray:none;stroke-dashoffset:0;stroke-opacity:1;marker:none;enable-background:accumulate"
         id="path4139"
         transform="matrix(0.5078578,0,-0.1817955,0.4988935,3.4341165,0.5943904)" />
      <path
         inkscape:connector-curvature="0"
         style="fill:none;stroke:#fdfefe;stroke-width:0.18298271px;stroke-linecap:round;stroke-linejoin:miter;stroke-opacity:1"
         d="M 3.1248476,5.1969509 11.838719,10.428841 20.772905,5.1360943"
         id="path3732"
         sodipodi:nodetypes="ccc" />
      <path
         inkscape:connector-curvature="0"
         style="fill:none;stroke:#ffffff;stroke-width:0.18298271px;stroke-linecap:round;stroke-linejoin:miter;stroke-opacity:1"
         d="m 11.885394,10.620954 0,9.609639"
         id="path3734"
         sodipodi:nodetypes="cc" />
      <path
         inkscape:connector-curvature="0"
         sodipodi:nodetypes="ccc"
         id="path3334"
         d="m 3.018751,14.423667 8.819968,6.370863 8.748631,-6.393861"
         style="fill:none;stroke:#646464;stroke-width:0.18298271px;stroke-linecap:round;stroke-linejoin:round;stroke-opacity:1" />
      <path
         inkscape:connector-curvature="0"
         style="display:inline;overflow:visible;visibility:visible;fill:none;fill-opacity:1;stroke:#f2f5f8;stroke-width:0.18298271;stroke-linecap:round;stroke-linejoin:round;stroke-miterlimit:4;stroke-dasharray:none;stroke-opacity:1;marker:none;enable-background:accumulate"
         d="m 11.821912,1.0202226 -8.9827344,3.9131962 8.9192524,5.5034192 0.126964,0.07795 0,10.009052 8.538358,-6.189398 0.380894,-9.3074826 -0.01587,0 -8.966863,-4.0067388 z M 11.75843,10.436838 2.8391776,5.0113709 3.220071,14.334444 l 8.538359,6.189398 0,-10.087004 z"
         id="path3487" />
      <ellipse
         ry="3.800699"
         rx="3.3587573"
         cy="23.869982"
         cx="33.764347"
         style="display:inline;overflow:visible;visibility:visible;opacity:0.2;fill:url(#radialGradient3449);fill-opacity:1;fill-rule:nonzero;stroke:none;stroke-width:0.30000001;stroke-linecap:round;stroke-linejoin:round;stroke-miterlimit:4;stroke-dasharray:none;stroke-dashoffset:0;stroke-opacity:1;marker:none;enable-background:accumulate"
         id="path3906"
         transform="matrix(0,0.4975703,-0.6117564,-0.178113,26.277871,-7.3119673)" />
    </g>
    <path
       inkscape:connector-curvature="0"
       style="fill:#ffffff;fill-opacity:1;stroke:#ffffff;stroke-width:0.08351994;stroke-miterlimit:4;stroke-dasharray:none;stroke-opacity:1"
       d="m 9.0169573,21.827945 c -0.2530022,-0.43853 -0.240152,-0.872875 0.027983,-0.945422 0.1563585,-0.04231 0.3274328,0.01568 0.6975298,0.236451 0.8680639,0.517821 1.2381149,0.97792 1.2381149,1.539404 0,0.527464 -0.23506,0.516471 -1.0829592,-0.05064 C 9.2709589,22.188585 9.1770575,22.105441 9.016968,21.827956 l -1.02e-5,-6e-6 z m 1.5515337,0.816418 c 0.198417,-0.06571 0.201641,-0.10556 0.03653,-0.45172 -0.10837,-0.227213 -0.205199,-0.320419 -0.6235372,-0.600224 -0.6223813,-0.416284 -0.8140659,-0.447743 -0.8140659,-0.13361 0,0.313152 0.1754022,0.524984 0.7623469,0.920667 0.3662432,0.246901 0.5113312,0.30707 0.6387212,0.264887 l 0,0 z m 0.528135,0.08539 0.0076,-0.674882 0.6062,0.381071 c 0.727723,0.457461 1.000909,0.769468 1.000909,1.143149 0,0.240815 -0.180876,0.377504 -0.349919,0.264439 -0.04999,-0.03343 -0.0038,0.09018 0.102671,0.27471 l 0.193563,0.335506 -0.22017,-0.14726 c -0.201281,-0.13464 -0.879952,-1.091707 -0.879952,-1.240941 0,-0.03095 0.125584,0.04239 0.279072,0.162965 0.339898,0.267024 0.63971,0.325076 0.574406,0.111214 -0.03417,-0.111916 -0.179165,-0.242202 -0.532632,-0.47862 l -0.48568,-0.32485 0,0.535704 c 0,0.465423 -0.01992,0.522375 -0.151794,0.434174 -0.135795,-0.09082 -0.150998,-0.172663 -0.144228,-0.776398 l -4e-5,1.9e-5 z m 1.690341,1.666296 c 0.308582,-0.339927 0.812059,-0.672484 0.914441,-0.604005 0.06738,0.04506 0.318928,0.510014 0.558998,1.033214 0.415998,0.906615 0.427732,0.946765 0.24994,0.855185 -0.102609,-0.05285 -0.200125,-0.145896 -0.216714,-0.206763 -0.0166,-0.06086 -0.181775,-0.212076 -0.367073,-0.336013 -0.185305,-0.123942 -0.398441,-0.32218 -0.473642,-0.440537 -0.123146,-0.193812 -0.14769,-0.202041 -0.247057,-0.08283 -0.06999,0.08396 -0.181652,0.08466 -0.305346,0.002 -0.161817,-0.108235 -0.181144,-0.14571 -0.113547,-0.220174 l 0,-8e-6 z m 1.111786,0.187316 c -0.162243,-0.356126 -0.246964,-0.423754 -0.360395,-0.287676 -0.126087,0.151266 -0.112245,0.177593 0.205041,0.389807 l 0.290355,0.194207 -0.135001,-0.296338 z m 0.831604,1.058077 c -0.264948,-0.442159 -0.268361,-0.805589 -0.0088,-0.933753 0.178018,-0.08789 0.25918,-0.05897 0.836677,0.298131 0.575168,0.355658 0.634128,0.405937 0.585811,0.499531 -0.02955,0.05724 -0.05373,0.119581 -0.05373,0.138538 0,0.01897 -0.206416,-0.103601 -0.458704,-0.272339 -0.555883,-0.371804 -0.777533,-0.415184 -0.777533,-0.152172 0,0.339484 0.203669,0.5925 0.795704,0.988485 0.392571,0.262572 0.527538,0.38051 0.502622,0.439199 -0.02198,0.05176 -0.243817,-0.05147 -0.62512,-0.290877 -0.537211,-0.337305 -0.609814,-0.402418 -0.796963,-0.714742 l -4.8e-5,-10e-7 z m 1.559399,1.130495 c -0.02348,-0.07685 -0.03159,-0.387863 -0.01802,-0.691131 0.02012,-0.450137 0.05114,-0.538726 0.16888,-0.482424 0.126357,0.06042 0.144227,0.141196 0.144227,0.651922 l 0,0.582955 0.628211,0.42018 c 0.549063,0.367245 0.615284,0.427109 0.525611,0.475182 -0.139107,0.07458 -1.385261,-0.748237 -1.448912,-0.956686 l -3e-6,2e-6 z m 1.635442,1.019636 c -0.323092,-0.564705 -0.251602,-1.05617 0.14488,-0.996009 0.134365,0.02038 0.456229,0.18243 0.741945,0.373532 0.436125,0.291704 0.500901,0.354609 0.477156,0.463376 -0.02197,0.100714 -0.128794,0.06295 -0.534768,-0.189098 -0.31788,-0.197353 -0.544438,-0.295037 -0.606778,-0.26162 -0.08549,0.04582 -0.016,0.109176 0.49356,0.449992 0.520301,0.348006 0.589684,0.412103 0.565641,0.52256 -0.02205,0.101279 -0.140063,0.05861 -0.603557,-0.218257 -0.512029,-0.30585 -0.556118,-0.319287 -0.396136,-0.120729 0.09901,0.122883 0.409517,0.376927 0.69002,0.564543 0.443994,0.296967 0.496726,0.348241 0.407407,0.396119 -0.07253,0.03888 -0.264524,-0.05331 -0.655053,-0.314511 -0.467046,-0.312385 -0.579021,-0.415948 -0.724317,-0.669898 l 0,0 z m 1.558254,0.132 c -0.105561,-0.197808 0.01146,-0.342625 0.141564,-0.175188 0.109697,0.141172 0.120879,0.347195 0.01855,0.341995 -0.0402,-0.0021 -0.112245,-0.0771 -0.160118,-0.166807 l -3e-6,0 z"
       id="path4111" />
    <path
       inkscape:connector-curvature="0"
       style="fill:#ffffff;fill-opacity:1;stroke:#ffffff;stroke-width:0.12450588;stroke-miterlimit:4;stroke-dasharray:none;stroke-opacity:1"
       d="m 29.00926,25.575852 c -0.169696,0.112572 -0.267069,0.458446 -0.183383,0.648276 0.08466,0.192052 0.343319,-0.129741 0.362079,-0.449041 0.01217,-0.20822 -0.05215,-0.283176 -0.178692,-0.199208 z m 4.865626,-3.164681 c -0.02723,0.02667 -0.03689,0.05385 -0.03982,0.08092 -0.03727,0.342347 -0.166188,3.049048 -0.147761,3.112411 0.01307,0.04482 0.05463,0.08296 0.09018,0.08535 0.08711,0.0061 0.151905,-0.03818 0.250277,-0.165944 0.105262,-0.136792 0.113374,-0.265073 0.02161,-0.368454 l -0.06059,-0.07785 c -0.0015,-0.02648 -0.0047,-0.05531 -0.0041,-0.09694 -4.1e-5,-0.0035 5.1e-4,-0.0059 5.88e-4,-0.0097 l 0.08748,-1.320166 0.09364,-1.424092 -0.161063,0.09781 c -0.05764,0.03236 -0.103102,0.05977 -0.13036,0.08642 l 4.5e-5,-2.8e-5 z m -6.505038,4.461216 0.0085,0.193926 c 0.03201,0.93309 0.148769,2.609657 0.18826,2.680653 0.01666,0.02992 0.103074,-0.0048 0.220302,-0.08262 0.117523,-0.07804 0.20679,-0.159838 0.228075,-0.21486 0.06885,-0.17802 0.501212,-2.817774 0.523562,-3.198328 0.0096,-0.161891 0.0081,-0.166755 -0.152743,-0.04392 l -0.162743,0.126072 -0.07258,0.638306 c -0.102768,0.884788 -0.243497,1.771164 -0.287583,1.825107 -0.03846,0.04712 -0.06269,-0.416778 -0.08945,-1.547703 l -0.01432,-0.607805 -0.197053,0.112423 -0.192368,0.118527 1.1e-5,-8e-6 z m 7.205177,-4.780551 -0.09156,1.558867 c -0.0504,0.857136 -0.0831,1.56973 -0.07294,1.582809 0.03096,0.03988 0.53115,-0.312631 0.663791,-0.467654 0.201002,-0.23498 0.396378,-0.788534 0.421005,-1.196346 0.0091,-0.15165 -0.06005,-0.441725 -0.120342,-0.51033 -0.05293,-0.0604 -0.05081,-0.0645 0.02254,-0.296325 0.0951,-0.300924 0.130051,-0.801566 0.06641,-0.96116 -0.0767,-0.192502 -0.17655,-0.182472 -0.549972,0.06526 l -0.338899,0.224792 1.7e-5,8e-6 z m -3.903665,2.653545 c -0.01275,0.0095 -0.0225,0.02664 -0.03763,0.04302 -0.06361,0.06927 -0.08781,0.138003 -0.134681,0.416212 -0.04389,0.260528 -0.07898,0.369993 -0.136344,0.444558 -0.09656,0.125483 -0.113287,0.386919 -0.03026,0.42859 0.05307,0.02642 0.04948,0.09583 0.0085,0.793365 -0.04815,0.818737 -0.02577,1.018852 0.09968,1.032478 0.07061,0.0077 0.295771,-0.169467 0.341657,-0.272085 0.0234,-0.0523 0.02857,-0.117709 0.02507,-0.17101 -0.0017,-0.02492 -0.0045,-0.0457 -0.01113,-0.06515 -0.01355,-0.04027 -0.03131,-0.06638 -0.06168,-0.05884 -0.109352,0.02671 -0.124531,-0.190892 -0.05113,-0.919371 0.06009,-0.597168 0.06532,-0.621667 0.141452,-0.702176 0.05676,-0.06009 0.08627,-0.133795 0.09975,-0.247749 0.01623,-0.136399 0.0072,-0.158108 -0.07232,-0.133615 -0.08943,0.02746 -0.09164,0.02448 -0.07504,-0.258947 0.01717,-0.292339 -0.01691,-0.396764 -0.105927,-0.329236 l 4e-5,-4.8e-5 z m 4.298776,-2.470803 c 0.161243,-0.146328 0.230173,0.248799 0.104923,0.602276 -0.06158,0.173854 -0.203809,0.305826 -0.222297,0.201983 -0.0065,-0.03618 0.0029,-0.218082 0.01855,-0.40282 0.02533,-0.295622 0.03833,-0.346607 0.09873,-0.40145 l 3.6e-5,3e-5 z m 1.337227,-0.587598 c -0.382526,0.253834 -0.599147,0.875379 -0.620803,1.782891 -0.01237,0.51733 0.04004,0.726418 0.195288,0.769296 0.09575,0.02643 0.158048,0.0075 0.291622,-0.102679 0.20244,-0.167017 0.306424,-0.35435 0.430305,-0.757638 0.07976,-0.259717 0.09631,-0.363143 0.123714,-0.826594 0.02557,-0.432161 0.02374,-0.567339 -0.0182,-0.714332 -0.06823,-0.23887 -0.199129,-0.285557 -0.401988,-0.15094 l 4e-6,1e-6 z m -7.367388,4.89718 c -0.150691,0.0999 -0.164812,0.161675 -0.230985,1.288199 -0.03385,0.576429 -0.05379,1.087432 -0.04631,1.129337 0.0094,0.05298 0.05397,0.04598 0.146191,-0.0152 0.09229,-0.06115 0.139507,-0.114935 0.156191,-0.185346 0.01321,-0.05559 0.05474,-0.590673 0.08962,-1.185351 0.06921,-1.178244 0.07159,-1.155157 -0.11477,-1.031544 l 1.9e-5,2.3e-5 z m 8.201004,-5.441195 c -0.205378,0.136278 -0.217801,0.20036 -0.114272,0.665991 0.05035,0.226592 0.08942,0.454133 0.08605,0.496751 -0.0035,0.04254 -0.08011,0.353088 -0.171075,0.694583 -0.09095,0.341505 -0.160543,0.63666 -0.153761,0.655871 0.0067,0.01938 0.08025,-0.017 0.159963,-0.07882 l 0.141882,-0.112268 0.07621,-0.359255 c 0.04319,-0.206417 0.09222,-0.363411 0.111592,-0.364593 0.01871,-0.0016 0.05492,0.111749 0.08019,0.255503 l 0.04481,0.26082 0.150084,-0.08148 c 0.08177,-0.04514 0.162315,-0.108853 0.178931,-0.145944 0.01743,-0.03899 -0.01673,-0.271082 -0.07806,-0.547443 -0.05839,-0.263047 -0.105125,-0.513443 -0.102488,-0.558503 0.0026,-0.04507 0.06862,-0.308071 0.144112,-0.576822 0.162236,-0.57754 0.159634,-0.677924 -0.01206,-0.564104 -0.131072,0.08684 -0.171196,0.166075 -0.23207,0.453601 -0.04757,0.224672 -0.08347,0.23892 -0.108389,0.05368 -0.02907,-0.215798 -0.06425,-0.238874 -0.201765,-0.147696 l 2e-6,1.14e-4 z m -7.549855,5.018246 c -0.05325,0.0527 -0.06138,0.14808 -0.12971,1.184672 -0.04077,0.617703 -0.07106,1.15155 -0.06472,1.186975 0.0076,0.04327 0.05871,0.02665 0.147865,-0.04366 l 0.131447,-0.10537 0.05834,-0.73784 c 0.06466,-0.81966 0.119912,-1.05038 0.281685,-1.212871 0.07193,-0.07224 0.09212,-0.128942 0.119256,-0.324264 0.01794,-0.129032 0.02425,-0.251622 0.01612,-0.273954 -0.02808,-0.07699 -0.153725,0.04936 -0.234395,0.23722 -0.09745,0.226876 -0.135498,0.259592 -0.126795,0.111319 0.0069,-0.116733 -0.09284,-0.127588 -0.199115,-0.02228 l -2.9e-5,-2.2e-5 z m 1.767426,-1.172646 c -0.140433,0.09416 -0.15312,0.236355 -0.189166,1.087933 -0.03911,0.924209 -0.01865,1.160052 0.102582,1.239389 0.08823,0.05778 0.159523,0.0038 0.330126,-0.246262 0.132402,-0.194005 0.142657,-0.197823 0.173176,-0.132995 0.02249,0.04781 0.06729,0.04021 0.14154,-0.02135 l 0.105415,-0.088 0.06883,-1.171505 0.06936,-1.180966 -0.113561,0.05727 c -0.203063,0.105264 -0.218241,0.160702 -0.248399,1.07276 -0.01136,0.345179 -0.01842,0.543019 -0.02958,0.67328 -4.04e-4,0.0045 -7.24e-4,0.01432 -0.0011,0.01897 -0.0031,0.02578 -0.0065,0.05634 -0.0096,0.07902 -0.0033,0.02216 -0.0052,0.0522 -0.0092,0.06963 -6.17e-4,0.0037 -0.0051,0.0094 -0.006,0.01298 -0.0078,0.02989 -0.01884,0.05855 -0.02994,0.08343 -0.06807,0.152333 -0.195309,0.244331 -0.225272,0.167747 -0.01148,-0.02953 -3.51e-4,-0.452404 0.02012,-0.939453 l 0.03709,-0.887144 -0.118794,0.06062 c -0.02572,0.0133 -0.04771,0.0315 -0.0678,0.04494 l 1.36e-4,1.08e-4 z m 1.60579,-1.065378 c -0.104761,0.07129 -0.215576,0.170367 -0.296957,0.278742 -0.112155,0.1494 -0.129237,0.192246 -0.128572,0.31229 8.32e-4,0.137329 0.004,0.142963 0.195552,-0.0026 0.226779,-0.172274 0.308831,-0.139575 0.293392,0.123116 -0.0098,0.166421 -0.01616,0.177093 -0.269895,0.415139 -0.251191,0.235719 -0.431368,0.787829 -0.390829,1.194491 0.01904,0.191308 0.07639,0.290914 0.163241,0.291174 0.09143,2.18e-4 0.196555,-0.09532 0.323025,-0.296043 0.122434,-0.194278 0.1318,-0.202441 0.163288,-0.135562 0.03374,0.07171 0.17857,0.0048 0.210987,-0.09457 6.36e-4,-0.002 0.0012,-0.0327 0.0024,-0.03762 0.01209,-0.07435 0.04135,-0.447725 0.07361,-0.9114 0.06987,-1.005066 0.0578,-1.193618 -0.08279,-1.234324 -0.05461,-0.01575 -0.151504,0.02601 -0.256243,0.09737 l 9e-6,-1.4e-5 z m 3.284559,-1.752497 c 0.05289,-0.04357 0.103013,-0.03482 0.128339,0.03288 0.05778,0.154469 0.02232,0.990225 -0.0535,1.252144 -0.08437,0.291648 -0.227899,0.390088 -0.282067,0.196245 -0.04659,-0.166484 -5.99e-4,-0.994588 0.06742,-1.23422 0.03281,-0.115407 0.08687,-0.203629 0.139779,-0.247076 l 4.1e-5,2.8e-5 z m -1.333373,1.374951 c 0.140739,-0.121092 0.224448,0.01755 0.2058,0.335594 -0.0083,0.142669 -0.03904,0.33196 -0.06967,0.418495 -0.04149,0.117067 -0.08714,0.175866 -0.179267,0.236962 l -0.125113,0.08305 0.03921,-0.498216 0.03922,-0.49822 0.08973,-0.07777 6.7e-5,6.9e-5 z m -2.003919,1.70182 c 0.01187,-0.0069 0.01999,-0.01162 0.03067,-0.01148 0.07484,0.0026 0.04429,0.468158 -0.0402,0.598624 -0.144544,0.223362 -0.230256,0.164526 -0.197099,-0.141572 0.01997,-0.184679 0.123551,-0.397104 0.206558,-0.445754 l 2.2e-5,4.1e-5 z"
       id="path4119"
       inkscape:transform-center-x="0.52196382"
       inkscape:transform-center-y="3.5290392" />
    <path
       sodipodi:type="inkscape:offset"
       inkscape:radius="-2.549402"
       inkscape:original="M 22.5 4.75 L 9.96875 10.25 L 22.6875 18.21875 L 35.0625 10.4375 L 22.5 4.75 z "
       style="display:inline;overflow:visible;visibility:visible;fill:none;fill-opacity:1;stroke:#ffffff;stroke-width:0.36862019;stroke-linecap:round;stroke-linejoin:miter;stroke-miterlimit:4;stroke-dasharray:none;stroke-opacity:1;marker:none;enable-background:accumulate"
       id="path3483"
       d="m 22.484375,7.5410156 -7.078125,3.1074224 7.279297,4.560546 7.005859,-4.40625 -7.207031,-3.2617184 z"
       transform="translate(1.6868738,-1.1543656)" />
    <path
       inkscape:connector-curvature="0"
       style="fill:none;fill-rule:evenodd;stroke:#ffffff;stroke-width:0.36862019;stroke-linecap:butt;stroke-linejoin:miter;stroke-miterlimit:4;stroke-dasharray:none;stroke-opacity:1"
       d="m 21.822597,7.6215227 1.1875,0.875 -1.914752,1.6799173 3.81748,-1.7120872 -0.979092,1.7259512 2.725951,-0.8585337 -1.841529,2.2727467 1.492418,1.179918"
       id="path3485"
       sodipodi:nodetypes="cccccccc" />
  </g>
</svg>
