<?xml version="1.0" encoding="UTF-8" standalone="no"?>
<!-- Created with Inkscape (http://www.inkscape.org/) -->

<svg
   width="64"
   height="64"
   viewBox="0 0 16.933333 16.933334"
   version="1.1"
   id="svg5"
   inkscape:version="1.1.1 (3bf5ae0d25, 2021-09-20)"
   sodipodi:docname="yandex-browser-beta.svg"
   xmlns:inkscape="http://www.inkscape.org/namespaces/inkscape"
   xmlns:sodipodi="http://sodipodi.sourceforge.net/DTD/sodipodi-0.dtd"
   xmlns="http://www.w3.org/2000/svg"
   xmlns:svg="http://www.w3.org/2000/svg">
  <sodipodi:namedview
     id="namedview7"
     pagecolor="#ffffff"
     bordercolor="#666666"
     borderopacity="1.0"
     inkscape:pageshadow="2"
     inkscape:pageopacity="0.0"
     inkscape:pagecheckerboard="0"
     inkscape:document-units="mm"
     showgrid="false"
     units="px"
     inkscape:zoom="10.985947"
     inkscape:cx="56.20817"
     inkscape:cy="41.234496"
     inkscape:window-width="1920"
     inkscape:window-height="1054"
     inkscape:window-x="0"
     inkscape:window-y="0"
     inkscape:window-maximized="1"
     inkscape:current-layer="layer1" />
  <defs
     id="defs2" />
  <g
     inkscape:label="Layer 1"
     inkscape:groupmode="layer"
     id="layer1">
    <ellipse
       style="fill:#ffffff;fill-opacity:1;stroke:#000000;stroke-width:0"
       id="path5896"
       cx="8.3909464"
       cy="7.926271"
       rx="6.6050744"
       ry="6.6681252" />
    <path
       style="fill:#e50102;fill-opacity:1;stroke-width:0.0642287"
       d="M 7.7111015,15.190896 C 7.2861448,15.107582 6.7498951,14.816469 6.4204833,14.490261 5.8360703,13.911532 5.3062398,12.616362 5.1461535,11.375167 5.0304985,10.478464 4.9348305,9.1673841 4.9756652,9.0387244 5.0063018,8.942198 4.8772834,8.7812664 4.3949575,8.314377 3.4018361,7.3530407 2.7971741,6.5611422 2.3917975,5.6909237 2.2102915,5.3012885 2.1613377,5.1081046 2.1356924,4.6802768 2.1068665,4.1993848 2.1199036,4.1188101 2.2792153,3.7931872 2.6215441,3.0934929 3.3848171,2.4828929 3.9184002,2.4818792 4.2199605,2.4812965 4.2771996,2.5307512 4.3245709,2.8327432 4.4431287,3.5885454 4.7390086,4.0976608 5.5377157,4.9201788 5.9122689,5.3058984 6.5347893,5.88361 6.5758718,5.88361 c 0.014177,0 0.165005,-0.1372873 0.3351753,-0.3050864 C 7.3683513,5.1275978 8.3404899,4.2925103 8.6713279,4.0664094 8.8302939,3.9577688 8.9748087,3.8523107 8.9924715,3.832058 9.1030767,3.7052354 9.9446268,3.2035327 10.503222,2.9314014 c 1.412236,-0.6879997 2.686753,-0.637064 3.438359,0.1374128 0.341956,0.3523637 0.446107,0.6116517 0.446107,1.1106048 0,0.5863 -0.04529,0.6488603 -0.530884,0.7334237 -0.487905,0.084967 -1.372709,0.4002436 -1.759664,0.627015 C 11.412134,5.9412981 10.040631,7.078153 9.0406432,8.0734239 L 8.4786417,8.6327736 V 9.498722 c 0,1.006299 0.1990723,2.6384 0.3924927,3.217869 0.1604402,0.48066 0.4871462,1.078072 0.8195024,1.498532 0.2842534,0.359609 0.278219,0.382806 -0.1843353,0.708648 -0.4456369,0.313928 -1.0771572,0.407898 -1.7952,0.267125 z M 10.066957,14.214892 C 9.4100279,13.394103 9.1287001,12.838276 9.0028888,12.112584 8.9008742,11.52415 8.7355566,9.7346379 8.7355566,9.2187922 V 8.7851116 L 9.1049811,8.4101921 C 10.073463,7.4273066 11.364784,6.3343344 12.171795,5.8144444 c 0.141303,-0.091028 0.415881,-0.219831 0.610174,-0.2862243 0.194292,-0.066393 0.382429,-0.141419 0.418082,-0.1667237 0.0738,-0.052377 1.188737,-0.2696806 1.218744,-0.2375375 0.09661,0.103491 0.370562,0.9213619 0.491106,1.4661681 0.193245,0.8733694 0.193531,1.7041645 9.71e-4,2.683802 -0.141664,0.7205434 -0.50129,1.677639 -0.774578,2.061436 -0.07366,0.103449 -0.133932,0.206999 -0.133932,0.230111 0,0.07602 -0.405262,0.57266 -0.832572,1.020299 -0.673885,0.705944 -1.341923,1.162796 -2.280574,1.559624 -0.598432,0.252996 -0.670471,0.259084 -0.822213,0.06949 z M 5.3624699,13.934188 C 4.1567087,13.323333 3.03626,12.216551 2.4144397,11.022117 2.0931319,10.404929 1.814476,9.4875892 1.7315028,8.7738794 1.6178782,7.7965165 1.7182095,6.6231076 1.9724937,5.955441 L 2.0796763,5.6740159 2.2122362,5.9555235 C 2.5551321,6.6837088 3.2459698,7.5765568 4.1681427,8.483368 l 0.5210025,0.5123209 v 0.4953159 c 0,0.2724237 0.060123,0.9667712 0.1336054,1.5429972 0.1419168,1.112856 0.4246375,2.147131 0.7422706,2.715435 0.091577,0.163852 0.1554825,0.308934 0.1420098,0.322407 -0.013473,0.01347 -0.1685246,-0.04847 -0.3445611,-0.137656 z M 6.0131401,4.9766167 C 5.4229524,4.4244312 4.9218808,3.8113697 4.7766384,3.4637558 4.7275142,3.3461858 4.662676,3.069776 4.6325526,2.8495117 4.5699899,2.3920419 4.5487174,2.4226614 5.1780385,2.0643468 5.6329798,1.805319 6.3533763,1.5326321 6.9050372,1.4106383 c 0.6242153,-0.1380384 1.692071,-0.1795867 2.3568379,-0.0917 0.6542829,0.0865 1.7178289,0.4220019 2.2359699,0.7053493 l 0.32988,0.1803957 -0.263272,0.042099 c -0.303844,0.048586 -1.335133,0.4601669 -1.48515,0.5927127 -0.05577,0.049275 -0.1320904,0.089592 -0.1695998,0.089592 -0.1028271,0 -1.2097398,0.7374755 -1.7200909,1.1460023 C 7.9423316,4.2730324 7.4756519,4.6730451 7.1525464,4.9640032 L 6.5650821,5.4930183 Z"
       id="path1034"
       sodipodi:nodetypes="sssssssscsssssssssssscsssssssscssssssssssssssssscsscsssssssssssscssssscs" />
    <rect
       x="7.9967723"
       y="10.922894"
       width="7.3061094"
       height="3.6530547"
       rx="0.84292203"
       ry="0.78276849"
       fill="#50e6ff"
       id="rect10"
       style="stroke-width:0.1;fill:#ececec;fill-opacity:1;stroke:#000000;stroke-opacity:1;stroke-miterlimit:4;stroke-dasharray:none" />
    <g
       opacity="0.85"
       stroke-width="0.27435"
       aria-label="BETA"
       id="g20"
       transform="matrix(0.20294748,0,0,0.20294748,3.3289803,2.6020475)">
      <path
         d="m 29.241,49.097 q 0.48761,0 0.73945,-0.21433 0.25184,-0.21433 0.25184,-0.63228 0,-0.41259 -0.25184,-0.62693 -0.25184,-0.21969 -0.73945,-0.21969 h -1.1413 v 1.6932 z m 0.06966,3.499 q 0.62157,0 0.93235,-0.26256 0.31614,-0.26256 0.31614,-0.79304 0,-0.51976 -0.31078,-0.77696 -0.31078,-0.26256 -0.93771,-0.26256 h -1.211 v 2.0951 z m 1.9183,-2.8774 q 0.66444,0.1929 1.0288,0.71266 0.36437,0.51976 0.36437,1.2753 0,1.1574 -0.78232,1.7254 -0.78232,0.568 -2.3791,0.56798 h -3.424 v -8 h 3.0971 q 1.6664,0 2.4113,0.50368 0.75017,0.50368 0.75017,1.6129 0,0.58406 -0.27328,0.99665 -0.27328,0.40723 -0.79304,0.60549 z"
         id="path12" />
      <path
         d="m 34.401,46 h 5.5673 v 1.5593 h -3.5044 v 1.4896 h 3.2954 v 1.5593 h -3.2954 v 1.8326 h 3.6222 v 1.5593 h -5.6852 z"
         id="path14" />
      <path
         d="m 40.944,46 h 7.3731 v 1.5593 H 45.6647 V 54 h -2.063 V 47.5593 H 40.944 Z"
         id="path16" />
      <path
         d="m 53.386,52.543 h -3.2257 l -0.50904,1.4575 h -2.0737 l 2.9632,-8 h 2.4595 l 2.9632,8 h -2.0737 z m -2.7113,-1.4843 h 2.1916 l -1.0931,-3.1829 z"
         id="path18" />
    </g>
  </g>
</svg>
