<?xml version="1.0" encoding="UTF-8" standalone="no"?>
<svg
   xmlns:dc="http://purl.org/dc/elements/1.1/"
   xmlns:cc="http://creativecommons.org/ns#"
   xmlns:rdf="http://www.w3.org/1999/02/22-rdf-syntax-ns#"
   xmlns:svg="http://www.w3.org/2000/svg"
   xmlns="http://www.w3.org/2000/svg"
   xmlns:sodipodi="http://sodipodi.sourceforge.net/DTD/sodipodi-0.dtd"
   xmlns:inkscape="http://www.inkscape.org/namespaces/inkscape"
   inkscape:version="1.0beta2 (unknown)"
   sodipodi:docname="black-default-folder-download.svg"
   id="svg81"
   viewBox="0 0 16.933 16.933"
   version="1.1"
   height="64"
   width="64">
  <sodipodi:namedview
     inkscape:current-layer="g19"
     inkscape:window-maximized="1"
     inkscape:window-y="0"
     inkscape:window-x="0"
     inkscape:cy="28.371696"
     inkscape:cx="42.768558"
     inkscape:zoom="8.9272231"
     showgrid="false"
     id="namedview83"
     inkscape:window-height="1049"
     inkscape:window-width="1920"
     inkscape:pageshadow="2"
     inkscape:pageopacity="0"
     guidetolerance="10"
     gridtolerance="10"
     objecttolerance="10"
     borderopacity="1"
     inkscape:document-rotation="0"
     bordercolor="#666666"
     pagecolor="#ffffff" />
  <defs
     id="defs19">
    <style
       id="style2"
       type="text/css" />
    <linearGradient
       gradientUnits="userSpaceOnUse"
       gradientTransform="matrix(1 0 0 1.1 16.669 62.435)"
       y2="-54.196"
       y1="-43.254"
       x2="-.30109"
       x1="-15.961"
       id="linearGradient1064">
      <stop
         id="stop4"
         offset="0"
         stop-color="#3c3c3c" />
      <stop
         id="stop6"
         offset="1"
         stop-color="#646464" />
    </linearGradient>
    <linearGradient
       gradientUnits="userSpaceOnUse"
       gradientTransform="matrix(1,0,0,1.1,16.669,62.435)"
       y2="14.872"
       y1="2.7784"
       x2="16.217"
       x1=".52939"
       id="linearGradient1006">
      <stop
         id="stop9"
         offset="0"
         stop-color="#3c3c3c" />
      <stop
         id="stop11"
         offset="1"
         stop-color="#646464" />
    </linearGradient>
    <linearGradient
       gradientUnits="userSpaceOnUse"
       gradientTransform="matrix(1,0,0,1.1,16.669,62.435)"
       y2="-44.835"
       y1="-55.616"
       x2="-1.0699"
       x1="-16.14"
       id="linearGradient968">
      <stop
         id="stop14"
         offset="0"
         stop-color="#3c3c3c" />
      <stop
         id="stop16"
         offset="1"
         stop-color="#646464" />
    </linearGradient>
  </defs>
  <metadata
     id="metadata21">
    <rdf:RDF>
      <cc:Work
         rdf:about="">
        <dc:format>image/svg+xml</dc:format>
        <dc:type
           rdf:resource="http://purl.org/dc/dcmitype/StillImage" />
        <dc:title />
      </cc:Work>
    </rdf:RDF>
  </metadata>
  <g
     id="g57"
     stroke-width=".26458"
     fill="#5e4aa6">
    <circle
       id="circle23"
       r="0"
       cy="-328.38"
       cx="-330.35" />
    <circle
       id="circle25"
       r="0"
       cy="-326.25"
       cx="-312.11" />
    <circle
       id="circle27"
       r="0"
       cy="-333.07"
       cx="-306.02" />
    <circle
       id="circle29"
       r="0"
       cy="-326.01"
       cx="-308.84" />
    <circle
       id="circle31"
       r="0"
       cy="-330.45"
       cx="-328.8" />
    <g
       id="g43"
       transform="translate(-21.76 -10.352)">
      <circle
         id="circle33"
         r="0"
         cy="-328.38"
         cx="-330.35" />
      <circle
         id="circle35"
         r="0"
         cy="-326.25"
         cx="-312.11" />
      <circle
         id="circle37"
         r="0"
         cy="-333.07"
         cx="-306.02" />
      <circle
         id="circle39"
         r="0"
         cy="-326.01"
         cx="-308.84" />
      <circle
         id="circle41"
         r="0"
         cy="-330.45"
         cx="-328.8" />
    </g>
    <g
       id="g55"
       transform="translate(.000295 -.00033978)">
      <circle
         id="circle45"
         r="0"
         cy="-328.38"
         cx="-330.35" />
      <circle
         id="circle47"
         r="0"
         cy="-326.25"
         cx="-312.11" />
      <circle
         id="circle49"
         r="0"
         cy="-333.07"
         cx="-306.02" />
      <circle
         id="circle51"
         r="0"
         cy="-326.01"
         cx="-308.84" />
      <circle
         id="circle53"
         r="0"
         cy="-330.45"
         cx="-328.8" />
    </g>
  </g>
  <g
     id="g67"
     transform="translate(.000295 -.00033978)">
    <g
       id="g61"
       stroke-width=".66145"
       fill="url(#linearGradient968)"
       transform="matrix(1,0,0,1.1,16.669,63.956)">
      <path
         id="path59"
         fill="url(#linearGradient968)"
         d="m-8.2026-51.317h-7.9373v-3.6379c0-0.36531 0.29614-0.66144 0.66144-0.66144h5.6223l1.6536 1.3229z" />
    </g>
    <rect
       id="rect63"
       fill="url(#linearGradient1006)"
       ry=".79373"
       height="10.848"
       width="15.874"
       y="4.2333"
       x=".52939" />
    <rect
       id="rect65"
       fill="#fffffc"
       ry=".29919"
       height="9.9217"
       width="14.987"
       y="4.6963"
       x=".97311" />
  </g>
  <path
     id="path69"
     stroke-width=".69373"
     fill="url(#linearGradient1064)"
     d="m15.742 4.2329h-7.2759l-1.6536 1.4552h-5.6223c-0.36531 0-0.66144 0.32575-0.66144 0.72759v7.9373c0 0.40184 0.29614 0.72759 0.66144 0.72759h14.552c0.36531 0 0.66145-0.32575 0.66145-0.72759v-9.3926c0-0.40184-0.29614-0.72759-0.66145-0.72759z" />
  <g
     transform="matrix(0.01734071,0,0,0.01768317,-0.36681941,-1.4998895)"
     id="g19">
    <polygon
       style="fill:#ffffff"
       points="52,722.2 52,734.5 132.7,935.6 137.7,935.6 "
       id="polygon9" />
    <path
       style="fill:#ffffff"
       inkscape:connector-curvature="0"
       d="m 52,647.9 v 37.2 c 3.9,-5.2 6.2,-11.6 6.2,-18.6 0,-7 -2.3,-13.4 -6.2,-18.6 z"
       id="path11" />
    <path
       sodipodi:nodetypes="ccsccccccsccccsccccsccccccccccccccsccccccccccccccccccccccsccccsccccsccccccsccccccsccccccccccscccsccccsccccccccccsccccccccsccccccccccccsccccccsccccccccccccccccccccccccccccccccccccccscccccccccccscccccsccsccccccccccscccccsccccccccccscccccccccccscccscccccssccccsccscccscccccscccccscccccccccccccscccscccccsccccccccscccccccscccscccccscscccccccscccc"
       style="fill:#ffffff"
       inkscape:connector-curvature="0"
       d="m 972,444.8 -3.7,12.4 c -1.5,-0.3 -3.1,-0.5 -4.8,-0.5 -3.3,0 -6.5,0.7 -9.3,1.9 L 884.3,327 h -5.2 l 71,133.8 c -2.9,1.9 -5.3,4.4 -7.2,7.4 L 809.2,400.9 c 1.5,-3.7 2.4,-7.7 2.4,-11.9 0,-15.5 -11.3,-28.3 -26.1,-30.6 l 2.6,-31.3 h -4.6 l -2.6,30.9 h -0.3 c -9.7,0 -18.3,4.4 -24,11.4 L 696.4,327 h -8 l 65.5,46 c -2.8,4.7 -4.4,10.1 -4.4,15.9 0,0.6 0.1,1.2 0.1,1.8 l -117.9,15.8 56,-79.6 h -5.6 l -56.5,80.4 -68.4,9.2 -3.5,-89.6 h -4.6 l 3.5,90.2 -84.2,11.3 c -1.8,-8.4 -7,-15.6 -14,-20 l 59.94244,-81.60844 h -5.2 L 450.3,406.3 c -3.8,-1.6 -7.9,-2.5 -12.3,-2.5 -7,0 -13.5,2.4 -18.7,6.3 l -54.39553,-15.21294 h -6.1 L 415.9,413.1 c -0.8,0.8 -1.5,1.6 -2.2,2.5 l -120.50392,-38.76734 0.3,-3.9 h -4.6 l -0.1,1 -1.4,-1 -10.76794,14.56436 11.76794,-8.36436 L 272.6,478 230.3,489.6 181.96489,377.43193 h -4.8 L 225.9,490.9 162.6,508.3 C 158.9,497.8 149.7,490 138.4,488.1 l 12.76489,-110.66807 h -4.6 L 133.9,487.8 h -0.4 c -6.4,0 -12.3,1.9 -17.2,5.2 L 52.394321,440.09781 v 7.5 L 112.7,495.8 c -6.3,5.7 -10.3,13.9 -10.3,23 0,9.5 4.3,18.1 11.1,23.8 L 52,628.1 v 7.9 l 65.2,-90.7 c 4.7,2.9 10.2,4.6 16.2,4.6 h 0.9 L 159,787.1 c -5.1,0.9 -9.7,3 -13.6,6.1 L 52,690.4 v 6.8 l 90,99.1 c -5.3,5.6 -8.5,13.1 -8.5,21.3 0,16.8 13.3,30.4 29.9,31 v 87 h 2.3 v -87 c 9.9,-0.4 18.6,-5.3 24,-12.9 l 126.6,77.6 c -1.5,3 -2.3,6.4 -2.3,10 0,2.8 0.5,5.5 1.5,8 l -8.4,4.2 h 10.4 0.1 v 0 h 38.9 c 1.1,-1.7 2,-3.6 2.6,-5.7 l 29.6,5.7 H 413 l -53.3,-10.2 c 0.1,-0.7 0.1,-1.3 0.1,-2 0,-8.5 -4.6,-15.8 -11.4,-19.8 l 81.8,-179.3 66.7,42.3 c -1.7,3.3 -2.6,7 -2.6,10.9 0,11.5 8.1,21.1 18.9,23.5 l -27.5,134.6 h 4.7 l 27.4,-134.1 h 0.7 c 3.1,0 6.1,-0.6 8.8,-1.7 l 68.6,135.7 h 5.2 L 531.4,797.6 c 4.1,-2.6 7.3,-6.3 9.2,-10.7 l 153.2,50 -53.9,98.5 h 5.2 l 53.1,-97.1 91.7,29.9 c -0.1,1.2 -0.2,2.5 -0.2,3.8 0,6.4 1.8,12.3 4.8,17.4 l -94.4,46 h 10.5 l 86.5,-42.2 c 3.5,4.4 8.1,7.9 13.3,10.1 L 796,935.6 h 5 L 814.8,905 c 2.8,0.8 5.7,1.2 8.8,1.2 10.1,0 19.2,-4.5 25.4,-11.5 l 6.9,5.5 -29.3,35.4 h 6 l 26.9,-32.6 40.7,32.6 h 7.4 L 862.5,899.5 972,767 v -7.2 l -113.1,136.8 -7,-5.6 c 3.6,-5.4 5.7,-11.8 5.7,-18.8 0,-5.7 -1.4,-11.1 -3.9,-15.8 L 972,757.8 v -43 c -2.1,2.2 -3.8,4.7 -5.2,7.5 l -76.4,-25.2 67.3,-192.4 c 1.9,0.5 3.8,0.7 5.8,0.7 h 0.6 l 7.8,64.3 v -38 l -3.3,-26.8 c 1.1,-0.2 2.2,-0.6 3.3,-1 v -59.1 z m -26.7,52.4 -147.5,157.4 c -1.8,-1.2 -3.9,-2 -6.2,-2.3 l -5.2,-157.6 153.1,-9.8 c 0.7,4.7 2.8,8.9 5.8,12.3 z m -138.2,-92.3 133.7,67.4 c -1,2.5 -1.6,5.2 -1.6,8.1 l -153,9.8 -2.3,-70.3 c 9.9,-1.2 18.3,-6.9 23.2,-15 z M 787,652.4 c -3,0.6 -5.6,2.1 -7.6,4.2 L 579.1,518.4 c 1.8,-3.2 2.8,-6.8 3,-10.7 L 781.8,495 Z M 628.1,411.7 750.2,395.3 c 2.9,13.7 14.7,24 29.1,24.6 l 2.3,70.5 -199.9,12.7 c -0.9,-5.7 -3.8,-10.6 -8,-14.2 z m -6.2,0.8 -51.9,73.7 c -3.1,-1.8 -6.6,-2.8 -10.3,-3 l -2.4,-62 z m -64.7,118.1 c 0.4,0 0.8,0.1 1.2,0.1 7.3,0 13.8,-3.3 18.2,-8.4 l 200.3,138.1 c -0.6,1.3 -1,2.7 -1.2,4.2 l -238.9,5.3 z M 532,669.9 481.5,671 c -0.8,-8.9 -5.5,-16.7 -12.2,-21.8 L 547.5,528 c 1.6,0.8 3.3,1.5 5.2,1.9 z m -62.9,-235 c 0,-0.6 -0.1,-1.2 -0.1,-1.8 l 83.8,-11.2 2.4,61.6 c -6.5,0.9 -12.1,4.4 -15.9,9.4 l -73.5,-44 c 2.1,-4.3 3.3,-9 3.3,-14 z m -5.7,17.9 73.5,44 c -1.5,3.1 -2.3,6.5 -2.3,10.2 0,7.5 3.5,14.3 9,18.6 l -78.1,121.2 c -4.2,-2.3 -9,-3.6 -14.2,-3.7 L 442,465.7 c 8.8,-1.2 16.5,-6 21.4,-12.9 z m -44.8,6.3 c 5.2,4.1 11.6,6.6 18.7,6.8 l 9.4,177.3 c -11.3,1.4 -20.8,9 -24.9,19.2 L 299.3,623.6 c 0.5,-2.3 0.7,-4.7 0.7,-7.2 0,-8.3 -2.8,-15.8 -7.5,-21.9 z M 295.7,633.6 c 1,-1.7 1.7,-3.6 2.4,-5.5 l 122.4,38.7 c -0.5,2.3 -0.9,4.7 -0.9,7.1 0,4.1 0.8,8 2.2,11.6 L 397,697.7 Z m 96.4,66.5 -92.3,45.2 -21.2,-96.1 c 5.9,-2.5 10.9,-6.6 14.6,-11.7 z M 292.79608,382.13266 411.1,419.5 c -2.6,4.5 -4.1,9.8 -4.1,15.4 0,2.1 0.2,4.1 0.6,6 L 277.4,476.8 Z M 277,481.6 408.9,445.3 c 1.4,4 3.6,7.6 6.5,10.6 L 289.5,591.2 c -5.3,-5.3 -12.3,-8.8 -20.1,-9.9 z m -4.7,1.3 -7.4,97.9 h -0.4 c -2.6,0 -5.2,0.3 -7.6,0.8 L 231.7,494 Z m -107.8,35.9 c 0,-2.1 -0.2,-4.1 -0.6,-6 l 63.3,-17.4 25.2,87.6 c -5.9,2.1 -11.1,5.7 -15.1,10.4 l -77.8,-58 c 3.2,-4.8 5,-10.5 5,-16.6 z m 0,267.8 h -0.9 L 139,549.3 c 7.1,-1.3 13.4,-5 17.9,-10.2 l 77.8,58 c -3.6,5.6 -5.8,12.2 -5.8,19.4 0,13.3 7.3,24.8 18,30.9 l -69.2,142.1 c -4,-1.8 -8.5,-2.9 -13.2,-2.9 z m 25,12.8 c -2.2,-3 -4.8,-5.5 -7.9,-7.6 L 251,649.5 c 4.2,1.7 8.7,2.7 13.5,2.7 3.4,0 6.7,-0.5 9.8,-1.4 l 21.4,96.7 z M 318.6,909.5 192,831.9 c 2.2,-4.3 3.5,-9.1 3.5,-14.2 0,-5.2 -1.3,-10 -3.5,-14.3 l 104.7,-51.4 33,149.5 c -4.5,1.5 -8.3,4.3 -11.1,8 z m 25.7,-7.9 c -2.3,-0.8 -4.8,-1.2 -7.4,-1.2 -0.9,0 -1.8,0.1 -2.7,0.2 L 300.9,750 l 95.8,-47 29.6,18.8 z m 84,-184.1 -26.7,-16.9 22.4,-11 c 2.8,4.8 6.9,8.8 11.8,11.5 z m 71.1,45.1 -67.2,-42.6 7.7,-17 c 3.4,1.2 7,1.9 10.7,1.9 5.5,0 10.6,-1.4 15,-3.9 l 37.7,57.5 c -1.4,1.3 -2.7,2.6 -3.9,4.1 z m 19.1,-9.3 c -4.1,0 -7.9,1 -11.2,2.8 l -37.7,-57.5 c 7,-5.4 11.6,-13.6 12.1,-23 l 49.7,-1.1 -11.6,78.8 z m 21.4,12.9 c -3.2,-6 -8.8,-10.5 -15.6,-12.2 l 11.7,-79.6 239.6,-5.3 c 0,0.2 0.1,0.4 0.1,0.6 z m 156.2,66.8 -154,-50.3 c 0.4,-1.7 0.6,-3.5 0.6,-5.3 0,-2.4 -0.4,-4.8 -1,-7 L 777.5,674 c 0.9,1.5 2.1,2.8 3.4,3.8 z M 790.8,863.9 700.5,834.4 785,680 c 1.5,0.5 3.1,0.8 4.8,0.8 h 0.1 l 26.3,158.3 c -12.5,2.9 -22.3,12.5 -25.4,24.8 z m 32.9,-25.6 c -1,0 -2,0.1 -3,0.2 L 794.4,680.1 c 3.6,-1.2 6.5,-3.8 8.2,-7.2 l 81.9,27 -49.2,140.5 c -3.6,-1.3 -7.5,-2.1 -11.6,-2.1 z M 965,726.5 c -1,3 -1.5,6.2 -1.5,9.5 0,6.7 2.2,12.9 5.8,18 l -118.2,98.4 c -3,-4.2 -7,-7.7 -11.6,-10.2 l 49.3,-140.9 z m -79,-30.9 -82,-27 c 0.1,-0.7 0.2,-1.4 0.2,-2.1 0,-3.3 -1.1,-6.3 -3,-8.8 L 948.7,500.3 c 1.4,1.1 3,2.1 4.7,2.9 z"
       id="path15" />
  </g>
  <g
     transform="matrix(0.01596212,0,0,0.0152431,0.97344233,0.78304144)"
     id="g20">
    <path
       style="fill:#ffffff"
       inkscape:connector-curvature="0"
       id="path22"
       d="m 972.2,511.3 c -4.6,2.6 -8.8,5.6 -12.6,9.6 -0.6,0.6 -1.2,1.2 -1.8,2 L 772.2,708.3 V 327.1 h -113 v 381.2 l -187.4,-187.4 -0.2,-0.2 c -22,-22 -57.8,-22 -80,0 -22,22 -22,57.8 0,80 v 0 l 244.2,244.2 v 0 l 23.4,23.4 v 0 0 l 43.8,43.8 0.6,0.6 c 3.2,3 7.4,4.8 12,4.8 4.6,0 8.8,-1.8 12,-4.8 l 0.6,-0.6 43.8,-43.8 v 0 0 l 200,-200 v -157 z" />
  </g>
</svg>
