<?xml version="1.0" encoding="UTF-8" standalone="no"?>
<svg
   inkscape:version="1.3 (0e150ed6c4, 2023-07-21)"
   sodipodi:docname="folder-github.svg"
   id="svg81"
   viewBox="0 0 16.933 16.933"
   version="1.1"
   height="64"
   width="64"
   xmlns:inkscape="http://www.inkscape.org/namespaces/inkscape"
   xmlns:sodipodi="http://sodipodi.sourceforge.net/DTD/sodipodi-0.dtd"
   xmlns:xlink="http://www.w3.org/1999/xlink"
   xmlns="http://www.w3.org/2000/svg"
   xmlns:svg="http://www.w3.org/2000/svg"
   xmlns:rdf="http://www.w3.org/1999/02/22-rdf-syntax-ns#"
   xmlns:cc="http://creativecommons.org/ns#"
   xmlns:dc="http://purl.org/dc/elements/1.1/">
  <sodipodi:namedview
     inkscape:current-layer="g13"
     inkscape:window-maximized="1"
     inkscape:window-y="0"
     inkscape:window-x="0"
     inkscape:cy="50.127569"
     inkscape:cx="20.499095"
     inkscape:zoom="8.9272233"
     showgrid="false"
     id="namedview83"
     inkscape:window-height="1047"
     inkscape:window-width="1920"
     inkscape:pageshadow="2"
     inkscape:pageopacity="0"
     guidetolerance="10"
     gridtolerance="10"
     objecttolerance="10"
     borderopacity="1"
     inkscape:document-rotation="0"
     bordercolor="#666666"
     pagecolor="#ffffff"
     inkscape:showpageshadow="2"
     inkscape:pagecheckerboard="0"
     inkscape:deskcolor="#d1d1d1" />
  <defs
     id="defs19">
    <linearGradient
       gradientUnits="userSpaceOnUse"
       gradientTransform="matrix(1,0,0,1.1,16.669,62.435)"
       y2="-44.834999"
       y1="-55.616001"
       x2="-1.0699"
       x1="-16.139999"
       id="linearGradient20"
       spreadMethod="pad">
      <stop
         id="stop19"
         offset="0"
         stop-color="#3c3c3c" />
      <stop
         id="stop20"
         offset="1"
         stop-color="#646464"
         style="stop-color:#636363;stop-opacity:1;" />
    </linearGradient>
    <linearGradient
       gradientUnits="userSpaceOnUse"
       gradientTransform="matrix(1,0,0,1.1,16.669,62.435)"
       y2="-44.834999"
       y1="-55.616001"
       x2="-1.0699"
       x1="-16.139999"
       id="linearGradient18"
       spreadMethod="pad">
      <stop
         id="stop17"
         offset="0"
         stop-color="#3c3c3c" />
      <stop
         id="stop18"
         offset="1"
         stop-color="#646464"
         style="stop-color:#787878;stop-opacity:1;" />
    </linearGradient>
    <linearGradient
       gradientUnits="userSpaceOnUse"
       gradientTransform="matrix(1,0,0,1.1,16.669,62.435)"
       y2="-44.834999"
       y1="-55.616001"
       x2="-1.0699"
       x1="-16.139999"
       id="linearGradient15"
       spreadMethod="pad">
      <stop
         id="stop13"
         offset="0"
         stop-color="#3c3c3c" />
      <stop
         id="stop15"
         offset="1"
         stop-color="#646464"
         style="stop-color:#c80000;stop-opacity:1;" />
    </linearGradient>
    <linearGradient
       gradientUnits="userSpaceOnUse"
       gradientTransform="matrix(1,0,0,1.1,16.669,62.435)"
       y2="-44.834999"
       y1="-55.616001"
       x2="-1.0699"
       x1="-16.139999"
       id="linearGradient12"
       spreadMethod="pad">
      <stop
         id="stop10"
         offset="0"
         stop-color="#3c3c3c" />
      <stop
         id="stop12"
         offset="1"
         stop-color="#646464"
         style="stop-color:#636363;stop-opacity:1;" />
    </linearGradient>
    <linearGradient
       gradientUnits="userSpaceOnUse"
       gradientTransform="matrix(1,0,0,1.1,16.669,62.435)"
       y2="-44.834999"
       y1="-55.616001"
       x2="-1.0699"
       x1="-16.139999"
       id="linearGradient7"
       spreadMethod="pad">
      <stop
         id="stop5"
         offset="0"
         stop-color="#3c3c3c" />
      <stop
         id="stop7"
         offset="1"
         stop-color="#646464"
         style="stop-color:#3d3d3d;stop-opacity:1;" />
    </linearGradient>
    <linearGradient
       gradientUnits="userSpaceOnUse"
       gradientTransform="matrix(1,0,0,1.1,16.669,62.435)"
       y2="-44.835"
       y1="-55.616"
       x2="-1.0699"
       x1="-16.14"
       id="linearGradient2">
      <stop
         id="stop1"
         offset="0"
         stop-color="#3c3c3c" />
      <stop
         id="stop2"
         offset="1"
         stop-color="#646464"
         style="stop-color:#008fc8;stop-opacity:1;" />
    </linearGradient>
    <style
       id="style2"
       type="text/css" />
    <linearGradient
       gradientUnits="userSpaceOnUse"
       gradientTransform="matrix(1 0 0 1.1 16.669 62.435)"
       y2="-46.115597"
       y1="-43.254"
       x2="-9.0913591"
       x1="-15.961"
       id="linearGradient1064">
      <stop
         id="stop4"
         offset="0"
         stop-color="#3c3c3c"
         style="stop-color:#873f97;stop-opacity:1;" />
      <stop
         id="stop6"
         offset="1"
         stop-color="#646464"
         style="stop-color:#4f2a79;stop-opacity:1;" />
    </linearGradient>
    <linearGradient
       gradientUnits="userSpaceOnUse"
       gradientTransform="matrix(1,0,0,1.1,16.669,62.435)"
       y2="14.872"
       y1="2.7784"
       x2="16.217"
       x1=".52939"
       id="linearGradient1006">
      <stop
         id="stop9"
         offset="0"
         stop-color="#3c3c3c" />
      <stop
         id="stop11"
         offset="1"
         stop-color="#646464" />
    </linearGradient>
    <linearGradient
       gradientUnits="userSpaceOnUse"
       gradientTransform="matrix(1,0,0,1.1,16.669,62.435)"
       y2="-44.835"
       y1="-55.616"
       x2="-1.0699"
       x1="-16.14"
       id="linearGradient968"
       xlink:href="#linearGradient20">
      <stop
         id="stop14"
         offset="0"
         stop-color="#3c3c3c" />
      <stop
         id="stop16"
         offset="1"
         stop-color="#646464" />
    </linearGradient>
    <linearGradient
       id="b"
       x1="30.268"
       x2="30.268"
       y1="18.174"
       y2="41.457001"
       gradientUnits="userSpaceOnUse">
      <stop
         offset="0"
         stop-color="#a9d2f9"
         id="stop3" />
      <stop
         offset="1"
         stop-color="#a2d1f6"
         id="stop4-3" />
    </linearGradient>
    <clipPath
       id="clipPath4157"
       clipPathUnits="userSpaceOnUse">
      <path
         style="fill:#f9f8f2;fill-opacity:1;stroke-width:1.00658"
         inkscape:connector-curvature="0"
         id="path4159-9"
         d="M 27.642964,3.2951379 40.728548,16.380722 H 29.65613 c -0.977824,0 -2.013166,-1.035372 -2.013166,-2.013167 z" />
    </clipPath>
    <clipPath
       id="clipPath4157-6"
       clipPathUnits="userSpaceOnUse">
      <path
         style="fill:#f9f8f2;fill-opacity:1;stroke-width:1.00658"
         inkscape:connector-curvature="0"
         id="path4159-7"
         d="M 27.642964,3.2951379 40.728548,16.380722 H 29.65613 c -0.977824,0 -2.013166,-1.035372 -2.013166,-2.013167 z" />
    </clipPath>
    <clipPath
       id="clipPath4157-9"
       clipPathUnits="userSpaceOnUse">
      <path
         style="fill:#f9f8f2;fill-opacity:1;stroke-width:1.00658"
         inkscape:connector-curvature="0"
         id="path4159-19"
         d="M 27.642964,3.2951379 40.728548,16.380722 H 29.65613 c -0.977824,0 -2.013166,-1.035372 -2.013166,-2.013167 z" />
    </clipPath>
    <clipPath
       id="clipPath4157-8"
       clipPathUnits="userSpaceOnUse">
      <path
         style="fill:#f9f8f2;fill-opacity:1;stroke-width:1.00658"
         inkscape:connector-curvature="0"
         id="path4159-1"
         d="M 27.642964,3.2951379 40.728548,16.380722 H 29.65613 c -0.977824,0 -2.013166,-1.035372 -2.013166,-2.013167 z" />
    </clipPath>
    <clipPath
       id="clipPath4157-5"
       clipPathUnits="userSpaceOnUse">
      <path
         style="fill:#f9f8f2;fill-opacity:1;stroke-width:1.00658"
         inkscape:connector-curvature="0"
         id="path4159-6"
         d="M 27.642964,3.2951379 40.728548,16.380722 H 29.65613 c -0.977824,0 -2.013166,-1.035372 -2.013166,-2.013167 z" />
    </clipPath>
    <linearGradient
       gradientTransform="matrix(5.8742863,0,0,5.8742863,-4052.2827,-1511.0569)"
       id="path11_1_"
       gradientUnits="userSpaceOnUse"
       x1="138.66251"
       y1="263.83749"
       x2="885.33752"
       y2="1010.5125">
      <stop
         offset="0"
         style="stop-color:#883F98"
         id="stop6-3" />
      <stop
         offset="1"
         style="stop-color:#4E2979"
         id="stop8-6" />
    </linearGradient>
    <linearGradient
       gradientTransform="matrix(0.06375498,0,0,0.06375498,-43.440108,3.1123413)"
       id="path11_2_"
       gradientUnits="userSpaceOnUse"
       x1="138.66251"
       y1="1010.5125"
       x2="885.33752"
       y2="263.83749">
      <stop
         offset="0"
         style="stop-color:#00BBF2"
         id="stop4-36" />
      <stop
         offset="1"
         style="stop-color:#00577A"
         id="stop6-6" />
    </linearGradient>
    <linearGradient
       gradientTransform="matrix(0.06887023,0,0,0.06887023,-33.75902,-5.587562)"
       id="path11_1_-3"
       gradientUnits="userSpaceOnUse"
       x1="138.66251"
       y1="263.83749"
       x2="885.33752"
       y2="1010.5125">
      <stop
         offset="0"
         style="stop-color:#883F98"
         id="stop6-3-6" />
      <stop
         offset="1"
         style="stop-color:#4E2979"
         id="stop8-6-7" />
    </linearGradient>
  </defs>
  <metadata
     id="metadata21">
    <rdf:RDF>
      <cc:Work
         rdf:about="">
        <dc:format>image/svg+xml</dc:format>
        <dc:type
           rdf:resource="http://purl.org/dc/dcmitype/StillImage" />
      </cc:Work>
    </rdf:RDF>
  </metadata>
  <g
     id="g57"
     stroke-width=".26458"
     fill="#5e4aa6">
    <circle
       id="circle23"
       r="0"
       cy="-328.38"
       cx="-330.35" />
    <circle
       id="circle25"
       r="0"
       cy="-326.25"
       cx="-312.11" />
    <circle
       id="circle27"
       r="0"
       cy="-333.07"
       cx="-306.02" />
    <circle
       id="circle29"
       r="0"
       cy="-326.01"
       cx="-308.84" />
    <circle
       id="circle31"
       r="0"
       cy="-330.45"
       cx="-328.8" />
    <g
       id="g43"
       transform="translate(-21.76 -10.352)">
      <circle
         id="circle33"
         r="0"
         cy="-328.38"
         cx="-330.35" />
      <circle
         id="circle35"
         r="0"
         cy="-326.25"
         cx="-312.11" />
      <circle
         id="circle37"
         r="0"
         cy="-333.07"
         cx="-306.02" />
      <circle
         id="circle39"
         r="0"
         cy="-326.01"
         cx="-308.84" />
      <circle
         id="circle41"
         r="0"
         cy="-330.45"
         cx="-328.8" />
    </g>
    <g
       id="g55"
       transform="translate(.000295 -.00033978)">
      <circle
         id="circle45"
         r="0"
         cy="-328.38"
         cx="-330.35" />
      <circle
         id="circle47"
         r="0"
         cy="-326.25"
         cx="-312.11" />
      <circle
         id="circle49"
         r="0"
         cy="-333.07"
         cx="-306.02" />
      <circle
         id="circle51"
         r="0"
         cy="-326.01"
         cx="-308.84" />
      <circle
         id="circle53"
         r="0"
         cy="-330.45"
         cx="-328.8" />
    </g>
  </g>
  <g
     id="g67"
     transform="translate(.000295 -.00033978)">
    <g
       id="g61"
       stroke-width=".66145"
       fill="url(#linearGradient968)"
       transform="matrix(1,0,0,1.1,16.669,63.956)">
      <path
         id="path59"
         fill="url(#linearGradient968)"
         d="m-8.2026-51.317h-7.9373v-3.6379c0-0.36531 0.29614-0.66144 0.66144-0.66144h5.6223l1.6536 1.3229z" />
    </g>
    <rect
       id="rect63"
       fill="url(#linearGradient1006)"
       ry=".79373"
       height="10.848"
       width="15.874"
       y="4.2333"
       x=".52939" />
    <rect
       id="rect65"
       fill="#fffffc"
       ry=".29919"
       height="9.9217"
       width="14.987"
       y="4.6963"
       x=".97311" />
  </g>
  <path
     id="path69"
     stroke-width=".69373"
     fill="url(#linearGradient1064)"
     d="m15.742 4.2329h-7.2759l-1.6536 1.4552h-5.6223c-0.36531 0-0.66144 0.32575-0.66144 0.72759v7.9373c0 0.40184 0.29614 0.72759 0.66144 0.72759h14.552c0.36531 0 0.66145-0.32575 0.66145-0.72759v-9.3926c0-0.40184-0.29614-0.72759-0.66145-0.72759z"
     style="fill:url(#linearGradient1064)" />
  <g
     transform="matrix(0.01839565,0,0,0.01839565,-1.0371821,-1.914547)"
     id="g13">
    <g
       id="g1"
       transform="matrix(1.1511708,0,0,1.1511708,-55.614032,-72.188077)">
      <path
         style="fill:#ffffff"
         inkscape:connector-curvature="0"
         id="path15"
         d="m 615.4,864.8 c 12.2,2.2 16.6,-5.2 16.6,-11.6 0,-5.8 -0.2,-24.8 -0.4,-45 -67.4,14.6 -81.6,-28.6 -81.6,-28.6 -11,-28 -26.8,-35.4 -26.8,-35.4 -22,-15 1.6,-14.8 1.6,-14.8 24.4,1.8 37.2,25 37.2,25 21.6,37 56.6,26.4 70.4,20.2 2.2,-15.6 8.4,-26.4 15.4,-32.4 C 594,736 537.4,715.4 537.4,622.4 c 0,-26.4 9.4,-48 25,-65 -2.6,-6.2 -10.8,-30.8 2.4,-64.2 0,0 20.4,-6.6 66.6,24.8 19.4,-5.4 40,-8 60.6,-8.2 20.6,0 41.4,2.8 60.6,8.2 46.2,-31.4 66.6,-24.8 66.6,-24.8 13.2,33.4 4.8,58 2.4,64.2 15.6,17 25,38.6 25,65 0,93 -56.6,113.6 -110.6,119.6 8.6,7.6 16.4,22.2 16.4,44.8 0,32.4 -0.2,58.4 -0.2,66.4 0,6.4 4.4,14 16.6,11.6 z"
         sodipodi:nodetypes="cscccccccscccccccscsscc" />
      <path
         style="fill:#333333"
         inkscape:connector-curvature="0"
         id="path17"
         d="m 541.6,740.6 c -0.6,1.2 -2.4,1.6 -4.2,0.8 -1.8,-0.8 -2.8,-2.4 -2.2,-3.6 0.6,-1.2 2.4,-1.6 4.2,-0.8 1.8,0.8 2.8,2.4 2.2,3.6 z" />
      <path
         style="fill:#333333"
         inkscape:connector-curvature="0"
         id="path19"
         d="m 551.4,751.6 c -1.2,1 -3.4,0.6 -5,-1.2 -1.6,-1.6 -1.8,-4 -0.8,-5 1.2,-1 3.4,-0.6 5,1.2 1.8,1.6 2,4 0.8,5 z" />
      <path
         style="fill:#333333"
         inkscape:connector-curvature="0"
         id="path21"
         d="m 561,765.6 c -1.4,1 -4,0 -5.4,-2 -1.4,-2.2 -1.4,-4.8 0,-5.8 1.6,-1 3.8,-0.2 5.4,2 1.4,2.2 1.4,4.6 0,5.8 z" />
      <path
         style="fill:#333333"
         inkscape:connector-curvature="0"
         id="path23"
         d="m 574,779 c -1.4,1.4 -4.2,1 -6.2,-1 -2.2,-2 -2.8,-4.8 -1.4,-6.2 1.4,-1.4 4.2,-1 6.2,1 2.2,2 2.8,4.8 1.4,6.2 z" />
      <path
         style="fill:#333333"
         inkscape:connector-curvature="0"
         id="path25"
         d="m 592.2,786.8 c -0.6,1.8 -3.4,2.8 -6,2 -2.8,-0.8 -4.6,-3 -4,-5 0.6,-2 3.4,-2.8 6,-2 2.6,1 4.4,3.2 4,5 z" />
      <path
         style="fill:#333333"
         inkscape:connector-curvature="0"
         id="path27"
         d="m 612,788.2 c 0,2 -2.2,3.6 -5.2,3.6 -2.8,0 -5.2,-1.6 -5.2,-3.6 0,-2 2.2,-3.6 5.2,-3.8 2.8,0.4 5.2,2 5.2,3.8 z" />
      <path
         style="fill:#333333"
         inkscape:connector-curvature="0"
         id="path29"
         d="m 630.4,785.2 c 0.4,2 -1.6,4 -4.6,4.4 -2.8,0.6 -5.4,-0.6 -5.8,-2.6 -0.4,-2 1.6,-4 4.4,-4.6 3,-0.4 5.6,0.8 6,2.8 z" />
    </g>
  </g>
  <path
     style="fill:#a8ee53;fill-opacity:1;stroke:#ffffff;stroke-width:0.382306;stroke-linecap:round;stroke-linejoin:miter;stroke-miterlimit:4;stroke-dasharray:none;stroke-opacity:1"
     d="M 3.6162072,14.040921 V 11.026335"
     id="path1268-2-7"
     inkscape:connector-curvature="0"
     sodipodi:nodetypes="cc" />
  <path
     style="fill:none;stroke:#1f4a87;stroke-width:0.382306;stroke-linecap:round;stroke-linejoin:miter;stroke-miterlimit:4;stroke-dasharray:none;stroke-opacity:1"
     d="M 1.7095835,14.369012 2.1639497,13.981405"
     id="path1304"
     inkscape:connector-curvature="0" />
  <path
     style="fill:#a8ee53;fill-opacity:1;stroke:#559c0e;stroke-width:0.409052;stroke-linecap:butt;stroke-linejoin:miter;stroke-miterlimit:4;stroke-dasharray:none;stroke-opacity:1"
     d="M 1.5127084,15.055125 V 6.102585"
     id="path1268"
     inkscape:connector-curvature="0"
     sodipodi:nodetypes="cc" />
  <path
     style="fill:none;stroke:#559c0e;stroke-width:0.382306;stroke-linecap:butt;stroke-linejoin:miter;stroke-miterlimit:4;stroke-dasharray:none;stroke-opacity:1"
     d="m 2.2495692,11.79796 1.366638,-0.4002"
     id="path1401"
     inkscape:connector-curvature="0" />
  <path
     style="fill:#a8ee53;fill-opacity:1;stroke:#1f4a87;stroke-width:0.382306;stroke-linecap:butt;stroke-linejoin:miter;stroke-miterlimit:4;stroke-dasharray:none;stroke-opacity:1"
     d="M 2.1665756,13.982535 V 7.3162511"
     id="path1268-2"
     inkscape:connector-curvature="0"
     sodipodi:nodetypes="cc" />
  <path
     style="fill:none;stroke:#bb9909;stroke-width:0.382306;stroke-linecap:round;stroke-linejoin:miter;stroke-miterlimit:4;stroke-dasharray:none;stroke-opacity:1"
     d="M 2.4223015,8.0433186 2.8783802,8.4166172"
     id="path1397"
     inkscape:connector-curvature="0" />
  <path
     style="fill:#ffffff;stroke:#ffffff;stroke-width:0.382311;stroke-linecap:round;stroke-linejoin:miter;stroke-miterlimit:4;stroke-dasharray:none;stroke-opacity:1"
     d="M 3.6138095,11.031886 2.1840701,10.594995"
     id="path1418"
     inkscape:connector-curvature="0"
     sodipodi:nodetypes="cc" />
  <path
     style="fill:#a8ee53;fill-opacity:1;stroke:#bb9909;stroke-width:0.382306;stroke-linecap:round;stroke-linejoin:miter;stroke-miterlimit:4;stroke-dasharray:none;stroke-opacity:1"
     d="M 2.8909214,14.03828 V 8.4181787"
     id="path1268-2-3"
     inkscape:connector-curvature="0"
     sodipodi:nodetypes="cc" />
  <circle
     style="fill:#fbfffc;fill-opacity:1;fill-rule:evenodd;stroke:#000000;stroke-width:0.0659829;stroke-miterlimit:4;stroke-dasharray:none;stroke-opacity:1"
     id="path1102-27"
     cx="2.1425059"
     cy="7.9875855"
     r="0.18620525" />
  <path
     style="fill:none;stroke:#bb9909;stroke-width:0.382306;stroke-linecap:square;stroke-linejoin:miter;stroke-miterlimit:4;stroke-dasharray:none;stroke-opacity:1"
     d="m 2.7864021,14.123882 -0.4236629,0.331633 -6.499e-4,0.433626"
     id="path1399"
     inkscape:connector-curvature="0"
     sodipodi:nodetypes="ccc" />
  <path
     style="fill:none;stroke:#ffffff;stroke-width:0.382306;stroke-linecap:butt;stroke-linejoin:miter;stroke-miterlimit:4;stroke-dasharray:none;stroke-opacity:1"
     d="M 3.1695343,15.068753 3.1589955,14.477194 3.6256132,14.01057 v 0"
     id="path1420"
     inkscape:connector-curvature="0"
     sodipodi:nodetypes="cccc" />
  <rect
     style="fill:#a8ee53;fill-opacity:1;fill-rule:evenodd;stroke:#000000;stroke-width:0.0786771;stroke-linecap:square;stroke-linejoin:round;stroke-miterlimit:4;stroke-dasharray:none;stroke-opacity:1;paint-order:markers fill stroke"
     id="rect1437"
     width="3.1028976"
     height="0.88300443"
     x="2.1125014"
     y="5.7125487"
     ry="0.14068088" />
  <path
     inkscape:connector-curvature="0"
     d="m 2.3240966,5.9500927 v 0.067686 h 0.00176 c 0.034515,-0.052255 0.084136,-0.078401 0.1489934,-0.078401 0.028543,0 0.054451,0.00597 0.077637,0.017837 0.023186,0.011874 0.03952,0.032056 0.049094,0.060563 0.015457,-0.024924 0.035833,-0.044237 0.061125,-0.057911 0.025294,-0.013674 0.053045,-0.020498 0.083345,-0.020498 0.023186,0 0.044176,0.00254 0.062882,0.00755 0.018706,0.0051 0.034779,0.012919 0.048127,0.023633 0.01335,0.010671 0.0238,0.024503 0.031178,0.041409 0.00703,0.016915 0.011153,0.037264 0.011153,0.061002 V 6.4105605 H 2.8235078 V 6.1086492 c 0,-0.014272 -8.782e-4,-0.02762 -0.00351,-0.040118 -0.00263,-0.012454 -0.00703,-0.0233 -0.013349,-0.032495 -0.00614,-0.00921 -0.015633,-0.016493 -0.027226,-0.021833 -0.011593,-0.00536 -0.026611,-0.008 -0.045054,-0.008 -0.037501,0 -0.066834,0.010679 -0.088272,0.032056 -0.021429,0.021411 -0.032056,0.049892 -0.032056,0.085532 v 0.286817 h -0.075882 v -0.301959 c 0,-0.014851 -0.00176,-0.028507 -0.0044,-0.040987 -0.00263,-0.012497 -0.00703,-0.023317 -0.013788,-0.032521 -0.00614,-0.00921 -0.015282,-0.016335 -0.026259,-0.021385 -0.010978,-0.0051 -0.025118,-0.00755 -0.042331,-0.00755 -0.021956,0 -0.040838,0.00448 -0.056647,0.013367 -0.01572,0.0089 -0.028543,0.019612 -0.038291,0.032056 -0.00984,0.012497 -0.01695,0.025417 -0.021429,0.038756 -0.0044,0.013341 -0.00703,0.024503 -0.00703,0.033408 V 6.4106083 H 2.2521161 V 5.9500839 Z"
     id="path62"
     style="stroke-width:0.0222734" />
  <path
     inkscape:connector-curvature="0"
     d="m 3.3876979,6.4120592 c -0.019673,0 -0.035393,-0.00553 -0.047073,-0.016484 -0.01168,-0.010969 -0.017477,-0.028955 -0.017477,-0.053906 -0.020814,0.024951 -0.044965,0.042946 -0.07263,0.053906 -0.027577,0.010969 -0.057525,0.016484 -0.089563,0.016484 -0.020814,0 -0.040399,-0.00228 -0.058842,-0.00667 -0.018443,-0.00448 -0.034603,-0.011865 -0.048567,-0.022255 -0.013964,-0.010398 -0.024942,-0.023747 -0.032934,-0.040118 -0.0079,-0.016309 -0.012032,-0.03606 -0.012032,-0.059202 0,-0.026154 0.00439,-0.047513 0.01335,-0.06412 0.00896,-0.016625 0.020638,-0.030159 0.035217,-0.04054 0.014579,-0.010372 0.031177,-0.018215 0.049972,-0.023589 0.018706,-0.00536 0.037852,-0.00978 0.057525,-0.013367 0.020814,-0.00421 0.040574,-0.00728 0.059282,-0.00935 0.018706,-0.00202 0.035217,-0.0051 0.049445,-0.0089 0.014228,-0.00387 0.025557,-0.0095 0.033901,-0.016933 0.0079,-0.00747 0.012471,-0.018258 0.012471,-0.032495 0,-0.016625 -0.00351,-0.030001 -0.00931,-0.040091 -0.00614,-0.010082 -0.014228,-0.017819 -0.024064,-0.023168 -0.00984,-0.00536 -0.020814,-0.00888 -0.032934,-0.01067 -0.012207,-0.00176 -0.024151,-0.00273 -0.036007,-0.00273 -0.032056,0 -0.058755,0.00606 -0.080096,0.018198 -0.021341,0.012146 -0.032934,0.035059 -0.034691,0.068801 h -0.07588 c 8.782e-4,-0.028446 0.00703,-0.052457 0.017828,-0.072016 0.010715,-0.01955 0.024942,-0.03541 0.04277,-0.047574 0.017828,-0.012146 0.038379,-0.020902 0.061565,-0.026242 0.023186,-0.00536 0.047513,-0.008 0.07307,-0.008 0.020814,0 0.041453,0.00158 0.062004,0.00448 0.020463,0.00298 0.039082,0.00903 0.05568,0.018241 0.016687,0.00921 0.030035,0.022097 0.040136,0.038704 0.010102,0.016625 0.015193,0.038291 0.015193,0.06499 v 0.2367875 c 0,0.017819 8.781e-4,0.03087 0.00351,0.039179 0.00176,0.00834 0.00904,0.01248 0.020902,0.01248 0.00614,0 0.014228,-0.00158 0.023186,-0.00448 v 0.058956 c -0.013085,0.00773 -0.031177,0.011636 -0.054363,0.011636 z M 3.2814923,6.17977 c -0.015457,0.00325 -0.031704,0.00597 -0.048654,0.008 -0.01695,0.00202 -0.034076,0.00448 -0.051377,0.00711 -0.017301,0.00263 -0.032758,0.00694 -0.046459,0.012918 -0.013701,0.00588 -0.024854,0.014385 -0.033461,0.02539 -0.00878,0.010996 -0.01291,0.025996 -0.01291,0.044992 0,0.012471 0.00263,0.02301 0.0079,0.031626 0.00527,0.00861 0.011593,0.015606 0.019673,0.020946 0.0079,0.00536 0.017565,0.00923 0.028543,0.011593 0.010978,0.00237 0.022219,0.0036 0.033461,0.0036 0.02503,0 0.046459,-0.00343 0.064287,-0.010232 0.017828,-0.00685 0.032495,-0.015422 0.043736,-0.025811 0.011329,-0.010398 0.019673,-0.021692 0.02503,-0.033882 0.00527,-0.012181 0.0079,-0.023607 0.0079,-0.034304 V 6.164202 c -0.00957,0.00711 -0.022044,0.012321 -0.037501,0.015606 z"
     id="path38"
     style="stroke-width:0.0222734" />
  <path
     inkscape:connector-curvature="0"
     d="m 3.5899653,6.3011216 c 0.00703,0.011593 0.016423,0.020814 0.028016,0.02762 0.011505,0.00677 0.024591,0.011724 0.039082,0.014693 0.014491,0.00298 0.029508,0.00439 0.044878,0.00439 0.011856,0 0.02424,-8.782e-4 0.037325,-0.00263 0.012998,-0.00176 0.02503,-0.00501 0.036007,-0.0098 0.010978,-0.00474 0.020024,-0.011724 0.027137,-0.020902 0.00703,-0.00923 0.010626,-0.02092 0.010626,-0.035192 0,-0.019567 -0.00703,-0.034409 -0.022219,-0.0445 -0.014842,-0.010082 -0.033374,-0.018215 -0.055593,-0.024477 -0.022219,-0.00624 -0.046371,-0.011847 -0.072454,-0.016915 -0.026084,-0.00501 -0.050235,-0.012181 -0.072455,-0.021385 -0.022219,-0.00921 -0.04075,-0.022123 -0.055593,-0.03873 -0.014842,-0.016625 -0.022219,-0.039757 -0.022219,-0.069425 0,-0.023142 0.00527,-0.043033 0.015545,-0.059641 0.010363,-0.016625 0.023713,-0.030115 0.040047,-0.040496 0.016335,-0.010372 0.034691,-0.018083 0.055153,-0.023142 0.020463,-0.00501 0.040838,-0.00755 0.06095,-0.00755 0.026084,0 0.050148,0.0022 0.072103,0.00667 0.021956,0.00448 0.041365,0.012173 0.058315,0.023124 0.01695,0.010969 0.030388,0.025794 0.040487,0.044457 0.010102,0.01868 0.016072,0.041962 0.017828,0.069829 h -0.07588 c -8.783e-4,-0.014781 -0.00527,-0.027085 -0.011593,-0.036842 -0.00614,-0.00975 -0.014842,-0.017618 -0.024942,-0.023537 -0.010102,-0.00588 -0.021254,-0.010222 -0.033374,-0.012875 -0.012207,-0.00264 -0.024503,-0.00404 -0.036974,-0.00404 -0.011242,0 -0.022659,8.782e-4 -0.034251,0.00263 -0.011593,0.00176 -0.022132,0.00491 -0.031617,0.00935 -0.00948,0.00448 -0.017214,0.010398 -0.023098,0.017819 -0.00614,0.00747 -0.00887,0.017064 -0.00887,0.028929 0,0.013104 0.00439,0.023923 0.013788,0.032521 0.00922,0.00861 0.020902,0.015739 0.03513,0.021385 0.014228,0.00562 0.030212,0.010398 0.04804,0.014254 0.017828,0.00387 0.035569,0.0079 0.053397,0.012032 0.01897,0.00413 0.037501,0.00918 0.055593,0.01514 0.018092,0.00588 0.034076,0.013788 0.04804,0.023607 0.013964,0.00981 0.025205,0.022114 0.033812,0.036948 0.00878,0.014825 0.01291,0.033233 0.01291,0.055215 0,0.027929 -0.00614,0.051069 -0.017389,0.069468 -0.011593,0.018416 -0.026699,0.033277 -0.045405,0.044544 -0.018706,0.011303 -0.039784,0.019128 -0.063146,0.023607 -0.023449,0.00448 -0.046722,0.00667 -0.069821,0.00667 -0.025469,0 -0.049797,-0.00263 -0.072981,-0.008 -0.023098,-0.00536 -0.04356,-0.014122 -0.061389,-0.026304 -0.017828,-0.012207 -0.032056,-0.028288 -0.042682,-0.048197 -0.010626,-0.019944 -0.016598,-0.04414 -0.017828,-0.072701 h 0.07588 c 6.499e-4,0.016598 0.0044,0.030712 0.011593,0.042269 z"
     id="path76"
     style="stroke-width:0.0222734" />
  <path
     inkscape:connector-curvature="0"
     d="m 4.1829442,5.9553165 v 0.066816 h -0.091882 v 0.2861467 c 0,0.0089 6.587e-4,0.016046 0.00263,0.021385 0.00176,0.00536 0.0044,0.00953 0.00878,0.012497 0.0044,0.00299 0.00992,0.00491 0.017389,0.0058 0.00703,8.783e-4 0.017125,0.00131 0.028982,0.00131 h 0.034778 v 0.066825 H 4.125662 c -0.019585,0 -0.036447,-0.00131 -0.050411,-0.00404 -0.013964,-0.00273 -0.025294,-0.00755 -0.0339,-0.014693 -0.00878,-0.00711 -0.015018,-0.01724 -0.019146,-0.030317 -0.00439,-0.013077 -0.00614,-0.030291 -0.00614,-0.051676 L 4.015938,6.0221242 H 3.9375117 V 5.955308 H 4.015938 V 5.8174785 h 0.07588 v 0.1378292 h 0.091899 z"
     id="path78"
     style="stroke-width:0.0222734" />
  <path
     inkscape:connector-curvature="0"
     d="m 4.6117799,6.3769533 c -0.034428,0.026154 -0.077812,0.039205 -0.13012,0.039205 -0.036798,0 -0.068767,-0.00597 -0.095825,-0.017819 -0.02705,-0.011874 -0.049796,-0.02849 -0.068151,-0.049875 -0.018443,-0.021368 -0.032231,-0.046881 -0.041453,-0.0766 -0.00922,-0.029667 -0.014403,-0.062031 -0.015633,-0.097065 0,-0.035042 0.00527,-0.067115 0.016072,-0.0962 0.010715,-0.029087 0.025732,-0.054302 0.044965,-0.075687 0.019322,-0.021368 0.042244,-0.038002 0.068678,-0.049875 0.026435,-0.011874 0.055417,-0.017819 0.086946,-0.017819 0.041014,0 0.075002,0.00852 0.1020777,0.025417 0.02705,0.016932 0.048743,0.038466 0.065078,0.064594 0.016336,0.026154 0.027664,0.054679 0.033901,0.085575 0.00614,0.030896 0.00878,0.060291 0.0079,0.088224 H 4.3409834 c -6.499e-4,0.02012 0.00176,0.039249 0.00703,0.057305 0.00527,0.018065 0.013964,0.034041 0.025821,0.047952 0.011944,0.013921 0.02705,0.025057 0.045492,0.033321 0.018443,0.00834 0.040136,0.012454 0.065078,0.012454 0.032144,0 0.058403,-0.00738 0.078953,-0.022228 0.020551,-0.01478 0.034075,-0.037334 0.040574,-0.067554 h 0.074826 c -0.010011,0.051632 -0.03232,0.09052 -0.066746,0.1166697 z M 4.5937759,6.0813421 c -0.00703,-0.016072 -0.016071,-0.029869 -0.027664,-0.041452 -0.011593,-0.011593 -0.025294,-0.020814 -0.041101,-0.02762 -0.015808,-0.00685 -0.033197,-0.010258 -0.052255,-0.010258 -0.019673,0 -0.037325,0.00343 -0.053134,0.010258 -0.015809,0.00685 -0.029334,0.016203 -0.040663,0.02806 -0.011329,0.0119 -0.020287,0.025706 -0.026786,0.041452 -0.00614,0.015739 -0.010451,0.032539 -0.011593,0.050385 h 0.2651845 c -8.782e-4,-0.017837 -0.00527,-0.034769 -0.012032,-0.050823 z"
     id="path46"
     style="stroke-width:0.0222734" />
  <path
     inkscape:connector-curvature="0"
     d="m 4.859707,5.9530067 v 0.097088 h 0.00176 c 0.018268,-0.037422 0.040838,-0.065042 0.067537,-0.082853 0.026699,-0.017819 0.060598,-0.026128 0.1015601,-0.024942 v 0.080051 c -0.030299,0 -0.05612,0.00421 -0.077461,0.012497 -0.021429,0.00834 -0.038642,0.020498 -0.05164,0.036526 -0.013085,0.016046 -0.022571,0.035507 -0.028543,0.058359 -0.00614,0.022878 -0.00887,0.049155 -0.00887,0.078875 v 0.204934 H 4.7881656 V 5.9530181 Z"
     id="path74"
     style="stroke-width:0.0222734" />
  <rect
     style="fill:#3875d7;fill-opacity:1;fill-rule:evenodd;stroke:#000000;stroke-width:0.0780872;stroke-linecap:square;stroke-linejoin:round;stroke-miterlimit:4;stroke-dasharray:none;stroke-opacity:1;paint-order:markers fill stroke"
     id="rect1437-3"
     width="3.0796409"
     height="0.87638605"
     x="2.7207069"
     y="7.0851736"
     ry="0.13962646" />
  <path
     inkscape:connector-curvature="0"
     d="m 2.9307145,7.3209365 v 0.067185 h 0.00176 c 0.034251,-0.05186 0.08352,-0.077812 0.1478693,-0.077812 0.028367,0 0.054012,0.00588 0.077021,0.017705 0.02301,0.011786 0.039257,0.03181 0.048742,0.060107 0.015282,-0.02474 0.03548,-0.043903 0.060599,-0.057481 0.025118,-0.013569 0.052694,-0.020349 0.08273,-0.020349 0.02301,0 0.043824,0.00254 0.062443,0.00755 0.018619,0.00501 0.034515,0.012822 0.047776,0.023458 0.013261,0.010574 0.023625,0.024318 0.031002,0.041101 0.00703,0.016783 0.011066,0.036983 0.011066,0.060546 V 7.7780153 H 3.4264572 V 7.4783608 c 0,-0.014166 -8.783e-4,-0.02741 -0.00351,-0.03981 -0.00264,-0.012366 -0.00703,-0.023124 -0.013261,-0.032249 -0.00614,-0.00913 -0.015457,-0.016361 -0.026962,-0.021667 -0.011505,-0.00527 -0.026435,-0.0079 -0.044703,-0.0079 -0.03715,0 -0.066395,0.010601 -0.087649,0.03181 -0.021254,0.021244 -0.03188,0.049515 -0.03188,0.084891 v 0.2846717 h -0.07527 V 7.4784031 c 0,-0.014737 -0.00176,-0.028297 -0.00439,-0.040671 -0.00263,-0.012401 -0.00703,-0.023142 -0.013701,-0.032276 -0.00614,-0.00913 -0.015193,-0.016213 -0.026084,-0.021227 -0.01089,-0.00501 -0.024942,-0.00755 -0.042068,-0.00755 -0.021781,0 -0.040574,0.00439 -0.056207,0.013261 -0.015633,0.00884 -0.02828,0.01947 -0.038028,0.03181 -0.00975,0.01241 -0.016862,0.025223 -0.021254,0.038466 -0.0044,0.013244 -0.00703,0.024318 -0.00703,0.033162 V 7.7780444 H 2.8591994 V 7.3209698 Z"
     id="path62-6"
     style="stroke-width:0.0221064" />
  <path
     inkscape:connector-curvature="0"
     d="m 3.9863413,7.7794401 c -0.019585,0 -0.035129,-0.00544 -0.046722,-0.01637 -0.011593,-0.010872 -0.017389,-0.028736 -0.017389,-0.053502 -0.020638,0.024757 -0.044703,0.042621 -0.072103,0.053502 -0.027401,0.010882 -0.057085,0.01637 -0.088895,0.01637 -0.020638,0 -0.040136,-0.0022 -0.058403,-0.00658 -0.018268,-0.0044 -0.034339,-0.01176 -0.048216,-0.022088 -0.013876,-0.010319 -0.024767,-0.023563 -0.032758,-0.03981 -0.0079,-0.016186 -0.011944,-0.035789 -0.011944,-0.058763 0,-0.025952 0.00439,-0.047153 0.013261,-0.063646 0.00887,-0.016503 0.020463,-0.029931 0.034953,-0.040233 0.014491,-0.010293 0.031002,-0.018083 0.049533,-0.023414 0.018531,-0.00527 0.037588,-0.0097 0.057085,-0.013261 0.020639,-0.00413 0.040223,-0.0072 0.058842,-0.00929 0.018531,-0.00193 0.034953,-0.00501 0.049094,-0.00884 0.014139,-0.00387 0.025381,-0.00943 0.033637,-0.01681 0.0079,-0.00738 0.012383,-0.018127 0.012383,-0.032258 0,-0.016493 -0.00351,-0.029781 -0.00931,-0.039793 -0.00614,-0.010001 -0.014139,-0.017688 -0.023889,-0.022992 -0.00975,-0.00527 -0.020639,-0.00882 -0.032671,-0.010574 -0.01212,-0.00176 -0.023976,-0.00263 -0.035744,-0.00263 -0.031793,0 -0.058315,0.00597 -0.07948,0.018056 -0.021165,0.012058 -0.032671,0.034796 -0.034428,0.068283 h -0.075353 c 8.783e-4,-0.028227 0.00703,-0.052062 0.017652,-0.071472 0.010626,-0.0194 0.024767,-0.035147 0.042419,-0.047223 0.017741,-0.012058 0.038028,-0.020744 0.061038,-0.026039 0.02301,-0.00527 0.047162,-0.0079 0.072543,-0.0079 0.020638,0 0.041101,0.00158 0.061477,0.00439 0.020375,0.00299 0.03873,0.00897 0.055329,0.018101 0.016511,0.00913 0.029772,0.021929 0.039784,0.038423 0.010011,0.016503 0.015018,0.038002 0.015018,0.064507 v 0.2350126 c 0,0.017688 8.782e-4,0.030642 0.00351,0.038889 0.00176,0.00825 0.00896,0.012391 0.020814,0.012391 0.00614,0 0.014139,-0.00158 0.02301,-0.00439 v 0.058508 c -0.01291,0.00773 -0.030914,0.011549 -0.053924,0.011549 z M 3.8809438,7.5488916 c -0.015369,0.00325 -0.031441,0.00588 -0.048303,0.008 -0.016863,0.00193 -0.033812,0.0044 -0.050938,0.00711 -0.017125,0.00263 -0.032494,0.00694 -0.046108,0.012822 -0.013613,0.00588 -0.024678,0.01428 -0.033197,0.025205 -0.00878,0.010908 -0.012822,0.025794 -0.012822,0.044658 0,0.012383 0.00263,0.022835 0.0079,0.031389 0.00527,0.00852 0.011505,0.015483 0.019497,0.020788 0.0079,0.00527 0.017477,0.00916 0.028367,0.011505 0.01089,0.00237 0.022044,0.00351 0.033197,0.00351 0.024767,0 0.04602,-0.00343 0.06376,-0.010163 0.017741,-0.00677 0.032231,-0.01529 0.043473,-0.025618 0.011242,-0.010319 0.019497,-0.021534 0.024854,-0.033628 0.00527,-0.012093 0.0079,-0.023432 0.0079,-0.034041 v -0.076968 c -0.00948,0.00711 -0.021868,0.012234 -0.037237,0.015483 z"
     id="path38-7"
     style="stroke-width:0.0221064" />
  <path
     inkscape:connector-curvature="0"
     d="m 4.1870981,7.6693342 c 0.00703,0.011505 0.016336,0.020657 0.027753,0.02741 0.011417,0.00677 0.024415,0.011636 0.038818,0.014579 0.014403,0.00298 0.029245,0.00439 0.044527,0.00439 0.011769,0 0.024064,-8.781e-4 0.037062,-0.00263 0.01291,-0.00176 0.024854,-0.00501 0.035744,-0.00973 0.01089,-0.00474 0.019849,-0.011637 0.026875,-0.020744 0.00703,-0.00916 0.010539,-0.02077 0.010539,-0.034928 0,-0.019427 -0.00703,-0.034155 -0.022044,-0.044167 -0.014755,-0.010001 -0.03311,-0.018083 -0.055153,-0.024293 -0.022044,-0.00624 -0.046019,-0.01176 -0.071927,-0.016783 -0.025908,-0.00501 -0.049884,-0.012093 -0.071927,-0.021227 -0.022044,-0.00913 -0.040487,-0.021948 -0.055153,-0.038441 -0.014755,-0.016494 -0.022044,-0.039459 -0.022044,-0.068907 0,-0.022966 0.00527,-0.042709 0.015457,-0.059202 0.010275,-0.016493 0.023537,-0.029886 0.039784,-0.040188 0.01616,-0.010293 0.034428,-0.017951 0.054802,-0.022966 0.020287,-0.00501 0.040487,-0.00755 0.060511,-0.00755 0.025908,0 0.049796,0.0022 0.071576,0.00667 0.021781,0.00439 0.041101,0.012084 0.057876,0.022949 0.016774,0.010872 0.030212,0.025601 0.040223,0.044123 0.010011,0.018539 0.015896,0.041646 0.017652,0.069302 h -0.075265 c -8.783e-4,-0.014676 -0.00527,-0.026883 -0.011505,-0.036561 -0.00614,-0.00967 -0.014755,-0.017485 -0.024679,-0.02337 -0.010011,-0.00588 -0.021078,-0.010143 -0.03311,-0.012778 -0.01212,-0.00264 -0.024327,-0.00395 -0.036623,-0.00395 -0.011153,0 -0.022483,8.783e-4 -0.033988,0.00263 -0.011505,0.00176 -0.021956,0.00483 -0.031353,0.00928 -0.0094,0.0044 -0.017038,0.010319 -0.02301,0.017688 -0.00614,0.00738 -0.00878,0.016941 -0.00878,0.028718 0,0.012998 0.0044,0.023739 0.013701,0.032276 0.00914,0.00852 0.020727,0.015597 0.034866,0.021227 0.014139,0.00562 0.030035,0.010319 0.047689,0.014148 0.017652,0.00387 0.035305,0.00781 0.052958,0.011944 0.018795,0.00413 0.037237,0.00911 0.055153,0.015027 0.017916,0.00588 0.033812,0.013682 0.047689,0.023432 0.013876,0.00975 0.02503,0.021948 0.033549,0.036675 0.00878,0.014719 0.012822,0.032978 0.012822,0.054802 0,0.027717 -0.00614,0.050692 -0.017214,0.068951 -0.011505,0.018276 -0.026523,0.033031 -0.045054,0.04421 -0.018531,0.011215 -0.039433,0.018979 -0.062706,0.023432 -0.023273,0.00448 -0.046371,0.00667 -0.069293,0.00667 -0.025294,0 -0.049445,-0.00263 -0.072367,-0.008 -0.022922,-0.00527 -0.043297,-0.014008 -0.06095,-0.02611 -0.017652,-0.01212 -0.031792,-0.028077 -0.042331,-0.047837 -0.010539,-0.019796 -0.016511,-0.043816 -0.017652,-0.072156 h 0.075265 c 6.586e-4,0.016476 0.00439,0.030484 0.011593,0.041962 z"
     id="path76-5"
     style="stroke-width:0.0221064" />
  <path
     inkscape:connector-curvature="0"
     d="M 4.7756331,7.326119 V 7.392435 H 4.684445 v 0.2840025 c 0,0.00884 6.499e-4,0.015923 0.00263,0.021227 0.00176,0.00527 0.00439,0.00946 0.00878,0.01241 0.00439,0.00299 0.00984,0.00491 0.017214,0.00571 0.00703,8.782e-4 0.01695,0.00131 0.028807,0.00131 h 0.034515 v 0.066316 H 4.718866 c -0.019497,0 -0.036184,-0.00131 -0.050059,-0.00395 C 4.654931,7.7767305 4.643689,7.7719105 4.63517,7.7648725 4.62639,7.7577625 4.62024,7.7477555 4.616113,7.7347845 4.611723,7.7218035 4.609973,7.7047225 4.609973,7.6834955 l -1.164e-4,-0.291051 h -0.077812 v -0.066316 h 0.077812 V 7.189334 h 0.075353 v 0.1367947 h 0.091206 z"
     id="path78-3"
     style="stroke-width:0.0221064" />
  <path
     inkscape:connector-curvature="0"
     d="m 5.2012545,7.7445985 c -0.034164,0.025952 -0.077197,0.038906 -0.1291452,0.038906 -0.036534,0 -0.068239,-0.00588 -0.095105,-0.017688 -0.026875,-0.011786 -0.049357,-0.02828 -0.067624,-0.049498 -0.018268,-0.021201 -0.032056,-0.046529 -0.041101,-0.07602 -0.00914,-0.029448 -0.014315,-0.061565 -0.015457,-0.096341 0,-0.034769 0.00527,-0.066606 0.015896,-0.095478 0.010626,-0.028868 0.025469,-0.053898 0.044703,-0.075116 0.019146,-0.021201 0.041892,-0.037711 0.068151,-0.049498 0.026259,-0.011786 0.054978,-0.017688 0.086331,-0.017688 0.040663,0 0.074475,0.00843 0.1013139,0.025223 0.026875,0.016801 0.048391,0.038178 0.064551,0.064111 0.016247,0.025952 0.027402,0.054266 0.033637,0.084934 0.00614,0.030659 0.00878,0.059843 0.0079,0.08756 H 4.9326624 c -6.587e-4,0.019997 0.00176,0.03895 0.00703,0.056884 0.00527,0.017925 0.013876,0.033777 0.025645,0.0476 0.011856,0.013815 0.026874,0.024871 0.045141,0.033074 0.018268,0.00825 0.039872,0.012357 0.064638,0.012357 0.03188,0 0.057964,-0.00738 0.078339,-0.022061 0.020375,-0.014675 0.033812,-0.037053 0.040311,-0.067045 h 0.074299 c -0.00992,0.051246 -0.032056,0.08984 -0.066307,0.1157942 z m -0.017828,-0.293398 c -0.00703,-0.015949 -0.015984,-0.029641 -0.027489,-0.041137 -0.011505,-0.011505 -0.025118,-0.020656 -0.04075,-0.02741 -0.015633,-0.00677 -0.032934,-0.010179 -0.051816,-0.010179 -0.019497,0 -0.037061,0.00343 -0.052694,0.010179 -0.015633,0.00677 -0.02907,0.016081 -0.040311,0.027857 -0.011242,0.011813 -0.020111,0.025513 -0.02661,0.041137 -0.00614,0.015616 -0.010363,0.032293 -0.011505,0.050007 h 0.2631993 c -8.783e-4,-0.017705 -0.00527,-0.034506 -0.011944,-0.050446 z"
     id="path46-5"
     style="stroke-width:0.0221064" />
  <path
     inkscape:connector-curvature="0"
     d="m 5.4473198,7.3238277 v 0.096362 h 0.00176 c 0.018179,-0.037141 0.040487,-0.064551 0.06701,-0.082238 0.026523,-0.017688 0.06016,-0.025935 0.1008042,-0.024757 v 0.079455 c -0.030035,0 -0.05568,0.00413 -0.076934,0.01241 -0.021254,0.00825 -0.038291,0.020349 -0.051289,0.036254 -0.012998,0.015923 -0.022395,0.035235 -0.02828,0.057919 -0.00614,0.022703 -0.00887,0.048787 -0.00887,0.078278 V 7.7809129 H 5.3762526 V 7.3238391 Z"
     id="path74-6"
     style="stroke-width:0.0221064" />
  <circle
     style="fill:#fbfffc;fill-opacity:1;fill-rule:evenodd;stroke:#000000;stroke-width:0.107668;stroke-miterlimit:4;stroke-dasharray:none;stroke-opacity:1"
     id="path1102-0-3"
     cx="1.4971398"
     cy="6.0293055"
     r="0.30384395" />
  <rect
     style="fill:#b0defe;fill-opacity:1;fill-rule:evenodd;stroke:#000000;stroke-width:0.0807056;stroke-linecap:square;stroke-linejoin:round;stroke-miterlimit:4;stroke-dasharray:none;stroke-opacity:1;paint-order:markers fill stroke"
     id="rect1437-3-6"
     width="3.1828916"
     height="0.90576875"
     x="4.1395049"
     y="10.917871"
     ry="0.14430772" />
  <path
     inkscape:connector-curvature="0"
     d="m 4.3565546,11.161537 v 0.06944 h 0.00176 c 0.035393,-0.05359 0.086331,-0.08042 0.1528313,-0.08042 0.029245,0 0.055856,0.0061 0.079569,0.0183 0.0238,0.01218 0.040574,0.03288 0.050323,0.06212 0.015809,-0.02557 0.03671,-0.04537 0.062618,-0.0594 0.025908,-0.01403 0.054451,-0.02103 0.085541,-0.02103 0.0238,0 0.045317,0.0025 0.064463,0.0078 0.019233,0.0052 0.035656,0.01326 0.049445,0.02424 0.013701,0.01094 0.024327,0.02514 0.031968,0.04248 0.0079,0.01735 0.011417,0.03822 0.011417,0.06258 v 0.346277 h -0.077812 v -0.3097 c 0,-0.01464 -8.783e-4,-0.02833 -0.00351,-0.04114 -0.00263,-0.01278 -0.00703,-0.0239 -0.013701,-0.03333 -0.00703,-0.0095 -0.015984,-0.01692 -0.027928,-0.02239 -0.011944,-0.0055 -0.027313,-0.0081 -0.046195,-0.0081 -0.038466,0 -0.06859,0.01096 -0.090546,0.03287 -0.021956,0.02196 -0.032934,0.05117 -0.032934,0.08774 v 0.29421 h -0.077812 v -0.309747 c 0,-0.01523 -0.00176,-0.02925 -0.0044,-0.04204 -0.00263,-0.01282 -0.0079,-0.02393 -0.014139,-0.03336 -0.00703,-0.0095 -0.01572,-0.01676 -0.026962,-0.02193 -0.011242,-0.0052 -0.025732,-0.0078 -0.043473,-0.0078 -0.022571,0 -0.041892,0.0046 -0.058052,0.01371 -0.01616,0.0092 -0.029245,0.02012 -0.039345,0.03288 -0.010102,0.01282 -0.017389,0.02607 -0.021956,0.03976 -0.0044,0.01368 -0.00703,0.02514 -0.00703,0.03426 v 0.294211 H 4.2828829 V 11.16163 Z"
     id="path62-6-0"
     style="stroke-width:0.0228476" />
  <path
     inkscape:connector-curvature="0"
     d="m 5.4475744,11.635412 c -0.0202,0 -0.036271,-0.0056 -0.048216,-0.01692 -0.011944,-0.01122 -0.017916,-0.02971 -0.017916,-0.05529 -0.021341,0.0256 -0.046195,0.04405 -0.074475,0.05529 -0.028367,0.01125 -0.05893,0.01692 -0.091873,0.01692 -0.021341,0 -0.041453,-0.0022 -0.060335,-0.0068 -0.018882,-0.0046 -0.035481,-0.01216 -0.049796,-0.02283 -0.014315,-0.01067 -0.025557,-0.02435 -0.033812,-0.04114 -0.0079,-0.01674 -0.012383,-0.03699 -0.012383,-0.06073 0,-0.02682 0.00439,-0.04873 0.013701,-0.06578 0.00914,-0.01705 0.021165,-0.03094 0.036096,-0.04158 0.01493,-0.01064 0.032056,-0.01869 0.051202,-0.02419 0.019233,-0.0055 0.038906,-0.01007 0.059018,-0.0137 0.021341,-0.0043 0.041628,-0.0074 0.060774,-0.0096 0.019233,-0.002 0.036096,-0.0052 0.050762,-0.0092 0.014579,-0.004 0.026172,-0.0098 0.034778,-0.01738 0.00878,-0.0076 0.012822,-0.01873 0.012822,-0.03334 0,-0.01704 -0.00351,-0.03078 -0.00957,-0.04113 -0.00614,-0.01035 -0.014579,-0.01827 -0.024678,-0.02377 -0.010102,-0.0055 -0.021341,-0.0092 -0.033812,-0.01094 -0.012471,-0.0018 -0.024767,-0.0027 -0.036974,-0.0027 -0.032847,0 -0.060247,0.0062 -0.082115,0.01866 -0.021956,0.01246 -0.033812,0.03596 -0.035656,0.07057 h -0.077814 c 8.782e-4,-0.02918 0.00703,-0.05381 0.018268,-0.07387 0.010978,-0.02005 0.025645,-0.03633 0.043912,-0.0488 0.018268,-0.01246 0.039345,-0.02144 0.063057,-0.02691 0.0238,-0.0055 0.048743,-0.0081 0.075002,-0.0081 0.021341,0 0.042506,0.0016 0.063584,0.0046 0.02099,0.0031 0.040047,0.0093 0.057174,0.01871 0.017038,0.0095 0.030826,0.02267 0.041101,0.03971 0.010363,0.01704 0.015545,0.03927 0.015545,0.06667 v 0.242892 c 0,0.01828 8.782e-4,0.03167 0.00351,0.04019 0.00176,0.0085 0.00931,0.0128 0.021517,0.0128 0.00703,0 0.014579,-0.0016 0.0238,-0.0046 v 0.06047 c -0.013349,0.008 -0.031967,0.01194 -0.055769,0.01194 z M 5.3386375,11.397134 c -0.015896,0.0034 -0.032495,0.0061 -0.049884,0.0082 -0.017389,0.002 -0.034953,0.0046 -0.052694,0.0073 -0.017741,0.0027 -0.033549,0.0071 -0.0476,0.01326 -0.014052,0.0061 -0.025469,0.01475 -0.034339,0.02604 -0.00887,0.01127 -0.013261,0.02666 -0.013261,0.04615 0,0.0128 0.00263,0.0236 0.0079,0.03244 0.00527,0.0089 0.011944,0.016 0.020112,0.02148 0.0079,0.0055 0.018004,0.0095 0.029334,0.01189 0.011242,0.0024 0.022746,0.0037 0.034339,0.0037 0.025645,0 0.0476,-0.0036 0.065956,-0.0105 0.018355,-0.007 0.033285,-0.0158 0.044878,-0.02648 0.011593,-0.01067 0.020112,-0.02225 0.025645,-0.03475 0.00527,-0.01249 0.0079,-0.02422 0.0079,-0.03518 v -0.07955 c -0.00984,0.0073 -0.022659,0.01264 -0.038466,0.016 z"
     id="path38-7-6"
     style="stroke-width:0.0228476" />
  <path
     inkscape:connector-curvature="0"
     d="m 5.6550674,11.521613 c 0.00703,0.01189 0.016862,0.02135 0.028718,0.02833 0.011856,0.007 0.025205,0.01204 0.040136,0.01507 0.014842,0.0031 0.030212,0.0046 0.046019,0.0046 0.01212,0 0.024942,-8.78e-4 0.038291,-0.0027 0.013349,-0.0018 0.025645,-0.0052 0.036887,-0.01007 0.011242,-0.0048 0.020463,-0.01203 0.02784,-0.02144 0.00703,-0.0095 0.010978,-0.02147 0.010978,-0.03611 0,-0.02007 -0.0079,-0.03529 -0.022834,-0.04565 -0.015193,-0.01035 -0.034251,-0.01869 -0.057086,-0.02511 -0.022834,-0.0064 -0.0476,-0.01216 -0.074387,-0.01735 -0.026786,-0.0052 -0.051553,-0.01249 -0.074386,-0.02193 -0.022835,-0.0095 -0.041804,-0.02269 -0.056998,-0.03973 -0.015193,-0.01705 -0.022835,-0.04079 -0.022835,-0.07122 0,-0.02374 0.00527,-0.04414 0.015984,-0.06118 0.010626,-0.01706 0.024327,-0.0309 0.041101,-0.04154 0.016774,-0.01064 0.035656,-0.01855 0.056647,-0.02374 0.02099,-0.0052 0.041892,-0.0078 0.062531,-0.0078 0.026786,0 0.051465,0.0022 0.073948,0.0068 0.022483,0.0046 0.042419,0.01248 0.059809,0.02373 0.017389,0.01122 0.031177,0.02645 0.041541,0.04561 0.010363,0.01917 0.016423,0.04305 0.018268,0.07163 h -0.077812 c -8.782e-4,-0.01517 -0.00527,-0.02777 -0.011856,-0.0378 -0.00703,-0.01 -0.015193,-0.01808 -0.025557,-0.02415 -0.010363,-0.0061 -0.021781,-0.01048 -0.034251,-0.01321 -0.012471,-0.0027 -0.025118,-0.0042 -0.037852,-0.0042 -0.011593,0 -0.023273,8.78e-4 -0.03513,0.0027 -0.011856,0.0018 -0.022659,0.005 -0.032407,0.0096 -0.00975,0.0046 -0.017652,0.01067 -0.023713,0.01827 -0.00614,0.0076 -0.00914,0.01751 -0.00914,0.02968 0,0.01344 0.0044,0.02454 0.014139,0.03336 0.0094,0.0089 0.021429,0.01611 0.036096,0.02193 0.014579,0.0058 0.031002,0.01067 0.049269,0.01461 0.018268,0.004 0.036535,0.008 0.054715,0.01235 0.019497,0.0042 0.038466,0.0095 0.056998,0.01553 0.018531,0.0061 0.034953,0.01414 0.049269,0.02422 0.014315,0.01007 0.025821,0.02269 0.03469,0.03791 0.00878,0.01521 0.013261,0.03408 0.013261,0.05664 0,0.02865 -0.00614,0.05238 -0.017828,0.07125 -0.011856,0.01889 -0.027402,0.03414 -0.046546,0.0457 -0.019146,0.0116 -0.04075,0.01961 -0.064814,0.02421 -0.023976,0.0046 -0.047864,0.0068 -0.071576,0.0068 -0.026172,0 -0.051113,-0.0027 -0.074826,-0.0082 -0.023713,-0.0055 -0.044703,-0.01448 -0.06297,-0.02698 -0.018268,-0.01252 -0.032847,-0.02902 -0.043824,-0.04944 -0.010978,-0.02046 -0.017038,-0.04528 -0.018268,-0.07457 h 0.077812 c 6.499e-4,0.01703 0.00439,0.03151 0.011944,0.04337 z"
     id="path76-5-2"
     style="stroke-width:0.0228476" />
  <path
     inkscape:connector-curvature="0"
     d="m 6.2633275,11.166892 v 0.06855 h -0.094244 v 0.293524 c 0,0.0092 6.499e-4,0.01646 0.00263,0.02193 0.00176,0.0055 0.00439,0.0098 0.00878,0.01282 0.00439,0.0031 0.010188,0.005 0.017828,0.006 0.0079,8.78e-4 0.017565,0.0014 0.029772,0.0014 h 0.035656 v 0.06855 h -0.059457 c -0.020111,0 -0.037413,-0.0014 -0.051729,-0.0042 -0.014315,-0.0028 -0.025908,-0.0078 -0.034778,-0.01507 -0.00887,-0.0073 -0.015369,-0.01769 -0.019673,-0.0311 -0.0044,-0.01341 -0.00614,-0.03107 -0.00614,-0.05301 l -1.23e-4,-0.30081 h -0.080447 v -0.06855 h 0.080447 v -0.141381 h 0.077812 v 0.141381 h 0.094271 z"
     id="path78-3-6"
     style="stroke-width:0.0228476" />
  <path
     inkscape:connector-curvature="0"
     d="m 6.7032204,11.599403 c -0.035393,0.02682 -0.079832,0.04022 -0.133475,0.04022 -0.037764,0 -0.070522,-0.0061 -0.098292,-0.01827 -0.027753,-0.01218 -0.051026,-0.02922 -0.069908,-0.05115 -0.018882,-0.02191 -0.03311,-0.04809 -0.042506,-0.07858 -0.00948,-0.03043 -0.014755,-0.06363 -0.015984,-0.09957 0,-0.03593 0.00527,-0.06883 0.016423,-0.09868 0.010978,-0.02984 0.026347,-0.0557 0.046195,-0.07763 0.01976,-0.02191 0.043297,-0.03898 0.070435,-0.05115 0.027138,-0.01218 0.056823,-0.01827 0.089177,-0.01827 0.042068,0 0.076934,0.0086 0.1047126,0.02606 0.027753,0.01738 0.049972,0.03946 0.066746,0.06626 0.016774,0.02682 0.028367,0.05609 0.034779,0.08778 0.00614,0.03169 0.00896,0.06186 0.0079,0.09049 H 6.4252925 c -6.586e-4,0.02066 0.00176,0.04026 0.00703,0.05879 0.00527,0.01853 0.014315,0.03491 0.026523,0.04919 0.012207,0.01428 0.027753,0.02571 0.046635,0.03418 0.018882,0.0085 0.04119,0.01278 0.066746,0.01278 0.032934,0 0.059896,-0.0075 0.080974,-0.02281 0.021078,-0.01517 0.034866,-0.03829 0.041628,-0.06929 h 0.076758 c -0.010275,0.05295 -0.033197,0.09285 -0.068503,0.119677 z m -0.018443,-0.303235 c -0.00703,-0.01648 -0.016511,-0.03064 -0.028367,-0.04251 -0.011944,-0.01189 -0.025996,-0.02135 -0.042155,-0.02833 -0.01616,-0.007 -0.034075,-0.01052 -0.053572,-0.01052 -0.020112,0 -0.038291,0.0036 -0.054451,0.01052 -0.01616,0.007 -0.030036,0.01661 -0.041717,0.02879 -0.011593,0.01221 -0.020814,0.02637 -0.027489,0.04252 -0.00703,0.01614 -0.010715,0.03338 -0.011944,0.05168 h 0.272026 c -8.782e-4,-0.0183 -0.00527,-0.03567 -0.012383,-0.05214 z"
     id="path46-5-1"
     style="stroke-width:0.0228476" />
  <path
     inkscape:connector-curvature="0"
     d="m 6.9575323,11.164524 v 0.09959 h 0.00176 c 0.018795,-0.03838 0.041892,-0.06671 0.069293,-0.085 0.027402,-0.01827 0.062179,-0.02681 0.1041856,-0.02559 v 0.08211 c -0.03109,0 -0.057612,0.0043 -0.07948,0.01282 -0.021956,0.0085 -0.039609,0.02103 -0.053046,0.03747 -0.013437,0.01646 -0.023186,0.03642 -0.029245,0.05986 -0.00614,0.02347 -0.00914,0.05043 -0.00914,0.0809 V 11.63691 H 6.884052 v -0.472398 z"
     id="path74-6-8"
     style="stroke-width:0.0228476" />
  <rect
     style="fill:#3875d7;fill-opacity:1;fill-rule:evenodd;stroke:#000000;stroke-width:0.0744174;stroke-linecap:square;stroke-linejoin:round;stroke-miterlimit:4;stroke-dasharray:none;stroke-opacity:1;paint-order:markers fill stroke"
     id="rect1437-3-7"
     width="2.9348876"
     height="0.83519322"
     x="3.4602344"
     y="8.736949"
     ry="0.13306358" />
  <path
     inkscape:connector-curvature="0"
     d="m 3.6603739,8.9616318 v 0.064024 h 0.00176 c 0.032671,-0.049428 0.079569,-0.074158 0.1409223,-0.074158 0.026962,0 0.051465,0.00562 0.073421,0.016871 0.021956,0.011242 0.037414,0.030316 0.046459,0.057278 0.014579,-0.02358 0.033812,-0.041839 0.057788,-0.054776 0.023888,-0.012937 0.050235,-0.019392 0.078866,-0.019392 0.021956,0 0.041804,0.00237 0.059457,0.0072 0.017741,0.00474 0.032934,0.012225 0.045581,0.022351 0.012647,0.010082 0.022483,0.023176 0.029509,0.039169 0.00703,0.015993 0.010539,0.035243 0.010539,0.057701 V 9.3972212 H 4.1329196 V 9.1116518 c 0,-0.013498 -8.783e-4,-0.026119 -0.00351,-0.037939 -0.00263,-0.011777 -0.00614,-0.022035 -0.012647,-0.030739 -0.00614,-0.0087 -0.014755,-0.015597 -0.025732,-0.020647 -0.010978,-0.00501 -0.025118,-0.00755 -0.042595,-0.00755 -0.035393,0 -0.063233,0.010113 -0.08352,0.030316 -0.0202,0.020253 -0.030387,0.047188 -0.030387,0.080904 V 9.3972783 H 3.862773 V 9.1116659 c 0,-0.014043 -8.782e-4,-0.026962 -0.00351,-0.038766 -0.00264,-0.011821 -0.00703,-0.022052 -0.013086,-0.030756 -0.00614,-0.0087 -0.014491,-0.015449 -0.024854,-0.020226 -0.010363,-0.00474 -0.0238,-0.0072 -0.040047,-0.0072 -0.020814,0 -0.038642,0.00421 -0.053572,0.012638 -0.01493,0.00843 -0.026962,0.018557 -0.036271,0.030316 -0.00931,0.01183 -0.016072,0.024037 -0.020287,0.036658 -0.00439,0.01262 -0.00614,0.023176 -0.00614,0.031599 V 9.3972151 H 3.5932411 V 8.961623 Z"
     id="path62-6-9"
     style="stroke-width:0.0210673" />
  <path
     inkscape:connector-curvature="0"
     d="m 4.66638,9.3985833 c -0.018619,0 -0.033461,-0.00518 -0.044527,-0.015597 -0.010978,-0.010363 -0.016511,-0.027392 -0.016511,-0.050982 -0.019673,0.023599 -0.042595,0.040618 -0.068678,0.050982 -0.026084,0.010372 -0.054363,0.015597 -0.08475,0.015597 -0.019673,0 -0.038204,-0.00211 -0.055593,-0.00633 -0.017389,-0.00421 -0.032758,-0.011215 -0.045932,-0.021043 -0.013174,-0.00983 -0.023625,-0.022456 -0.031177,-0.03794 -0.0079,-0.01543 -0.011417,-0.034111 -0.011417,-0.055997 0,-0.024731 0.00439,-0.04494 0.012647,-0.060651 0.00878,-0.01572 0.019497,-0.028525 0.033285,-0.038344 0.013788,-0.00981 0.029509,-0.017231 0.047249,-0.022308 0.017652,-0.00501 0.035832,-0.00924 0.054363,-0.012638 0.019673,-0.00395 0.038379,-0.00694 0.05612,-0.00884 0.017741,-0.00184 0.033285,-0.00474 0.04681,-0.00843 0.013437,-0.00369 0.024151,-0.00899 0.032056,-0.01601 0.0079,-0.00703 0.011856,-0.017275 0.011856,-0.030739 0,-0.01572 -0.00264,-0.028376 -0.00887,-0.037922 -0.00614,-0.00953 -0.013437,-0.016854 -0.022746,-0.021912 -0.00922,-0.0051 -0.019673,-0.00843 -0.031177,-0.010082 -0.011505,-0.00167 -0.022835,-0.00254 -0.034076,-0.00254 -0.030299,0 -0.055505,0.00571 -0.075792,0.017214 -0.0202,0.011496 -0.031177,0.033162 -0.032846,0.065078 H 4.324922 c 8.782e-4,-0.0269 0.00703,-0.049612 0.016862,-0.068107 0.010102,-0.018486 0.023625,-0.033496 0.040487,-0.045001 0.016862,-0.011487 0.036271,-0.019769 0.058228,-0.024819 0.021956,-0.00501 0.044965,-0.00755 0.069117,-0.00755 0.019673,0 0.039169,0.0015 0.058579,0.00421 0.019409,0.00281 0.036974,0.00852 0.052694,0.017248 0.01572,0.0087 0.028367,0.020902 0.037939,0.036614 0.00957,0.01572 0.014315,0.036219 0.014315,0.061477 v 0.2239669 c 0,0.016854 8.782e-4,0.029201 0.00264,0.037062 0.00176,0.0079 0.00878,0.011803 0.019848,0.011803 0.00614,0 0.013437,-0.0015 0.021868,-0.00421 v 0.05576 c -0.012383,0.00738 -0.029508,0.011013 -0.051377,0.011013 z M 4.565936,9.1788723 c -0.014666,0.00307 -0.029948,0.00562 -0.046019,0.00755 -0.016072,0.00184 -0.032231,0.00421 -0.048567,0.00677 -0.016336,0.00254 -0.031002,0.00658 -0.043912,0.012226 -0.01291,0.00562 -0.023537,0.013604 -0.031704,0.02402 -0.0079,0.010398 -0.012207,0.024582 -0.012207,0.042559 0,0.011803 0.00263,0.021762 0.00703,0.029912 0.00439,0.00817 0.010978,0.014755 0.018619,0.019813 0.0079,0.0051 0.016598,0.0087 0.02705,0.01096 0.010363,0.00228 0.02099,0.00334 0.031704,0.00334 0.023625,0 0.043912,-0.00325 0.060774,-0.00969 0.016862,-0.0065 0.03065,-0.01457 0.041365,-0.024416 0.010715,-0.00983 0.018531,-0.020524 0.023625,-0.032038 0.00527,-0.011531 0.0079,-0.022333 0.0079,-0.032443 v -0.073351 c -0.00904,0.00677 -0.020902,0.011663 -0.035481,0.014755 z"
     id="path38-7-2"
     style="stroke-width:0.0210673" />
  <path
     inkscape:connector-curvature="0"
     d="m 4.8577047,9.293653 c 0.00703,0.01096 0.015545,0.019682 0.026435,0.026119 0.01089,0.00641 0.023273,0.011083 0.036974,0.013902 0.013701,0.00281 0.02784,0.00421 0.042419,0.00421 0.011242,0 0.02301,-8.781e-4 0.035306,-0.00254 0.012295,-0.00167 0.023625,-0.00474 0.033988,-0.00927 0.010363,-0.00448 0.018882,-0.011083 0.025645,-0.019769 0.00703,-0.0087 0.010102,-0.019787 0.010102,-0.033285 0,-0.018513 -0.00703,-0.032547 -0.021078,-0.042094 C 5.0334437,9.221386 5.0159667,9.213695 4.9948887,9.207776 4.9738107,9.201896 4.9509767,9.196561 4.9262987,9.191783 4.9016207,9.187043 4.8787857,9.180251 4.8577087,9.171557 4.8367187,9.162857 4.8191537,9.150637 4.8051017,9.134926 4.7910497,9.119206 4.7840237,9.09732 4.7840237,9.06926 c 0,-0.021885 0.00527,-0.040697 0.014755,-0.056418 0.00984,-0.01572 0.022483,-0.028481 0.037852,-0.0383 0.015457,-0.00981 0.032846,-0.017108 0.052167,-0.021885 0.019409,-0.00474 0.038555,-0.0072 0.057701,-0.0072 0.024678,0 0.047425,0.00211 0.068151,0.00633 0.020814,0.00421 0.039169,0.011505 0.055153,0.021868 0.015984,0.010363 0.028718,0.024397 0.038291,0.042051 0.00957,0.017671 0.015193,0.039687 0.016863,0.066044 h -0.071752 c -8.782e-4,-0.013982 -0.0044,-0.025618 -0.010978,-0.034839 -0.00614,-0.00923 -0.014052,-0.01666 -0.023537,-0.022272 -0.00957,-0.00562 -0.020024,-0.00966 -0.031529,-0.012181 -0.011505,-0.00254 -0.023186,-0.00377 -0.034953,-0.00377 -0.010626,0 -0.021429,8.781e-4 -0.032407,0.00254 -0.010978,0.00167 -0.020902,0.00466 -0.029861,0.00884 -0.00896,0.00421 -0.016247,0.00984 -0.021868,0.016854 -0.00527,0.00703 -0.00878,0.016143 -0.00878,0.027366 0,0.012383 0.00439,0.022632 0.012998,0.030756 0.00878,0.00817 0.01976,0.01486 0.033285,0.020226 0.013437,0.00536 0.028631,0.00984 0.045405,0.013481 0.016862,0.00369 0.033637,0.00747 0.050499,0.011382 0.017916,0.00395 0.035482,0.0087 0.052607,0.014315 0.017125,0.00562 0.032231,0.013042 0.045405,0.022333 0.013174,0.00929 0.023888,0.02092 0.031967,0.034954 0.0079,0.014025 0.012207,0.031432 0.012207,0.052229 0,0.026418 -0.00527,0.048303 -0.016423,0.06571 -0.010978,0.017424 -0.025205,0.031476 -0.042946,0.042138 -0.017652,0.010688 -0.037589,0.018092 -0.05972,0.022333 -0.022132,0.00421 -0.044176,0.00633 -0.066044,0.00633 -0.024151,0 -0.047162,-0.00254 -0.06903,-0.00755 C 4.8676337,9.387915 4.8483117,9.379567 4.8314497,9.368044 4.8145877,9.356495 4.8011507,9.341292 4.7910507,9.322455 4.7809487,9.30359 4.7753307,9.280704 4.7741887,9.253689 h 0.071753 c 6.586e-4,0.015703 0.00439,0.029052 0.010978,0.039986 z"
     id="path76-5-0"
     style="stroke-width:0.0210673" />
  <path
     inkscape:connector-curvature="0"
     d="m 5.4185749,8.9665701 v 0.063207 h -0.086946 v 0.2706534 c 0,0.00843 6.499e-4,0.015176 0.00176,0.020226 0.00176,0.00501 0.00439,0.00901 0.0079,0.01183 0.00351,0.00281 0.0094,0.00466 0.016423,0.00544 0.00703,8.783e-4 0.01616,0.00131 0.027402,0.00131 h 0.032934 v 0.063207 h -0.054802 c -0.018531,0 -0.034428,-0.00123 -0.047689,-0.00377 -0.013174,-0.00254 -0.023888,-0.0072 -0.032056,-0.013894 -0.0079,-0.00677 -0.014228,-0.016309 -0.018092,-0.028674 -0.00351,-0.012357 -0.00614,-0.028648 -0.00614,-0.048874 L 5.2591393,9.029864 H 5.1850163 V 8.966665 h 0.074123 V 8.8363008 h 0.071752 v 0.130365 h 0.086946 z"
     id="path78-3-2"
     style="stroke-width:0.0210673" />
  <path
     inkscape:connector-curvature="0"
     d="m 5.82419,9.3653797 c -0.032583,0.024731 -0.073596,0.03708 -0.1230765,0.03708 -0.034866,0 -0.065078,-0.00562 -0.090635,-0.016854 -0.025557,-0.011242 -0.047073,-0.026945 -0.064463,-0.04717 -0.017389,-0.020208 -0.030475,-0.044343 -0.039169,-0.072454 -0.00878,-0.02806 -0.013613,-0.058675 -0.014755,-0.091811 0,-0.033137 0.00527,-0.063479 0.015193,-0.090991 0.010102,-0.027515 0.024327,-0.051359 0.042595,-0.071586 0.018268,-0.020208 0.03996,-0.035946 0.06499,-0.04717 0.02503,-0.011242 0.052431,-0.016854 0.082203,-0.016854 0.038818,0 0.070962,0.008 0.096554,0.024037 0.025557,0.016019 0.046108,0.036386 0.061565,0.061091 0.015457,0.024731 0.026172,0.05172 0.032056,0.080938 0.00614,0.02922 0.0079,0.057033 0.00703,0.08345 H 5.5677264 c -6.499e-4,0.019058 0.00176,0.037124 0.00703,0.054205 0.00527,0.017081 0.013174,0.032187 0.024503,0.045361 0.011242,0.013165 0.025557,0.023703 0.043033,0.031511 0.017389,0.0079 0.037939,0.011777 0.061565,0.011777 0.030388,0 0.055242,-0.00703 0.074651,-0.021025 0.019409,-0.013982 0.032231,-0.035305 0.038379,-0.0639 h 0.070786 c -0.00948,0.04883 -0.030563,0.085619 -0.063146,0.1103517 z M 5.8071522,9.0857736 c -0.00614,-0.015202 -0.015193,-0.028253 -0.026172,-0.039205 -0.010978,-0.01096 -0.023889,-0.019682 -0.038818,-0.026128 -0.01493,-0.0065 -0.031353,-0.00972 -0.049445,-0.00972 -0.018531,0 -0.035305,0.00325 -0.050235,0.00972 -0.01493,0.0065 -0.027753,0.015325 -0.038466,0.026549 -0.010715,0.01125 -0.019146,0.02431 -0.025381,0.039205 -0.00614,0.014886 -0.00984,0.030782 -0.010978,0.047653 h 0.2508253 c -8.783e-4,-0.016871 -0.00527,-0.032881 -0.011417,-0.048074 z"
     id="path46-5-3"
     style="stroke-width:0.0210673" />
  <path
     inkscape:connector-curvature="0"
     d="m 6.0586889,8.9643859 v 0.091834 h 0.00176 c 0.017301,-0.035393 0.038555,-0.061521 0.063849,-0.078375 0.025294,-0.016854 0.057261,-0.024714 0.09607,-0.023599 v 0.075722 c -0.028631,0 -0.053134,0.00395 -0.073333,0.01183 -0.0202,0.0079 -0.036534,0.019392 -0.048918,0.03455 -0.012383,0.015176 -0.021341,0.033584 -0.026962,0.055197 -0.00527,0.02164 -0.00878,0.046494 -0.00878,0.074598 V 9.3999851 H 5.9906166 V 8.9643973 Z"
     id="path74-6-7"
     style="stroke-width:0.0210673" />
  <circle
     style="fill:#fbfffc;fill-opacity:1;fill-rule:evenodd;stroke:#000000;stroke-width:0.107668;stroke-miterlimit:4;stroke-dasharray:none;stroke-opacity:1"
     id="path1102-0-3-3"
     cx="2.1581514"
     cy="7.9044967"
     r="0.30384395" />
  <circle
     style="fill:#fbfffc;fill-opacity:1;fill-rule:evenodd;stroke:#000000;stroke-width:0.107668;stroke-miterlimit:4;stroke-dasharray:none;stroke-opacity:1"
     id="path1102-0-3-6"
     cx="2.9032869"
     cy="9.1001701"
     r="0.30384395" />
  <circle
     style="fill:#fbfffc;fill-opacity:1;fill-rule:evenodd;stroke:#000000;stroke-width:0.107668;stroke-miterlimit:4;stroke-dasharray:none;stroke-opacity:1"
     id="path1102-0-3-7"
     cx="2.1261568"
     cy="9.6887598"
     r="0.30384395" />
  <circle
     style="fill:#fbfffc;fill-opacity:1;fill-rule:evenodd;stroke:#000000;stroke-width:0.107668;stroke-miterlimit:4;stroke-dasharray:none;stroke-opacity:1"
     id="path1102-0-3-5"
     cx="2.1560876"
     cy="10.54726"
     r="0.30384395" />
  <circle
     style="fill:#fbfffc;fill-opacity:1;fill-rule:evenodd;stroke:#000000;stroke-width:0.107668;stroke-miterlimit:4;stroke-dasharray:none;stroke-opacity:1"
     id="path1102-0-3-35"
     cx="3.6031749"
     cy="11.408683"
     r="0.30384395" />
  <circle
     style="fill:#fbfffc;fill-opacity:1;fill-rule:evenodd;stroke:#000000;stroke-width:0.107668;stroke-miterlimit:4;stroke-dasharray:none;stroke-opacity:1"
     id="path1102-0-3-62"
     cx="3.5911343"
     cy="12.564699"
     r="0.30384395" />
  <circle
     style="fill:#fbfffc;fill-opacity:1;fill-rule:evenodd;stroke:#000000;stroke-width:0.107668;stroke-miterlimit:4;stroke-dasharray:none;stroke-opacity:1"
     id="path1102-0-3-9"
     cx="2.1702056"
     cy="12.745326"
     r="0.30384395" />
  <circle
     style="fill:#fbfffc;fill-opacity:1;fill-rule:evenodd;stroke:#000000;stroke-width:0.107668;stroke-miterlimit:4;stroke-dasharray:none;stroke-opacity:1"
     id="path1102-0-3-2"
     cx="1.5008317"
     cy="14.41076"
     r="0.30384395" />
</svg>
