<?xml version="1.0" encoding="UTF-8" standalone="no"?>
<!-- Created with Inkscape (http://www.inkscape.org/) -->

<svg
   xmlns:dc="http://purl.org/dc/elements/1.1/"
   xmlns:cc="http://creativecommons.org/ns#"
   xmlns:rdf="http://www.w3.org/1999/02/22-rdf-syntax-ns#"
   xmlns:svg="http://www.w3.org/2000/svg"
   xmlns="http://www.w3.org/2000/svg"
   xmlns:xlink="http://www.w3.org/1999/xlink"
   xmlns:sodipodi="http://sodipodi.sourceforge.net/DTD/sodipodi-0.dtd"
   xmlns:inkscape="http://www.inkscape.org/namespaces/inkscape"
   width="1024"
   height="1024"
   viewBox="0 0 270.93333 270.93333"
   version="1.1"
   id="svg8"
   inkscape:version="0.92.2 (5c3e80d, 2017-08-06)"
   sodipodi:docname="folder-www.svg">
  <sodipodi:namedview
     id="base"
     pagecolor="#ffffff"
     bordercolor="#666666"
     borderopacity="1.0"
     inkscape:pageopacity="0.0"
     inkscape:pageshadow="2"
     inkscape:zoom="0.49497475"
     inkscape:cx="807.23708"
     inkscape:cy="465.18176"
     inkscape:document-units="px"
     inkscape:current-layer="g980"
     showgrid="false"
     inkscape:snap-global="false"
     units="px"
     inkscape:window-width="1366"
     inkscape:window-height="744"
     inkscape:window-x="0"
     inkscape:window-y="0"
     inkscape:window-maximized="1"
     showguides="true"
     inkscape:guide-bbox="true" />
  <defs
     id="defs2">
    <linearGradient
       id="path84_1_"
       gradientUnits="userSpaceOnUse"
       x1="26"
       y1="661"
       x2="220.39999"
       y2="661"
       gradientTransform="matrix(2,0,0,-2,0,2048)">
      <stop
         offset="0"
         style="stop-color:#010101;stop-opacity:0"
         id="stop25" />
      <stop
         offset="0.1132"
         style="stop-color:#040404;stop-opacity:0.2264"
         id="stop27" />
      <stop
         offset="0.1813"
         style="stop-color:#0D0D0D;stop-opacity:0.3626"
         id="stop29" />
      <stop
         offset="0.2375"
         style="stop-color:#191919;stop-opacity:0.475"
         id="stop31" />
      <stop
         offset="0.2872"
         style="stop-color:#2E2E2E;stop-opacity:0.5744"
         id="stop33" />
      <stop
         offset="0.3326"
         style="stop-color:#494949;stop-opacity:0.6652"
         id="stop35" />
      <stop
         offset="0.3749"
         style="stop-color:#686969;stop-opacity:0.7498"
         id="stop37" />
      <stop
         offset="0.4148"
         style="stop-color:#908F8F;stop-opacity:0.8297"
         id="stop39" />
      <stop
         offset="0.4528"
         style="stop-color:#BCBCBB;stop-opacity:0.9057"
         id="stop41" />
      <stop
         offset="0.4881"
         style="stop-color:#EDEDED;stop-opacity:0.9761"
         id="stop43" />
      <stop
         offset="0.5"
         style="stop-color:#FFFFFF"
         id="stop45" />
      <stop
         offset="0.5119"
         style="stop-color:#EDEDED;stop-opacity:0.9761"
         id="stop47" />
      <stop
         offset="0.5472"
         style="stop-color:#BCBCBB;stop-opacity:0.9057"
         id="stop49" />
      <stop
         offset="0.5852"
         style="stop-color:#908F8F;stop-opacity:0.8297"
         id="stop51" />
      <stop
         offset="0.6251"
         style="stop-color:#686969;stop-opacity:0.7498"
         id="stop53" />
      <stop
         offset="0.6674"
         style="stop-color:#494949;stop-opacity:0.6652"
         id="stop55" />
      <stop
         offset="0.7128"
         style="stop-color:#2E2E2E;stop-opacity:0.5744"
         id="stop57" />
      <stop
         offset="0.7625"
         style="stop-color:#191919;stop-opacity:0.475"
         id="stop59" />
      <stop
         offset="0.8187"
         style="stop-color:#0D0D0D;stop-opacity:0.3626"
         id="stop61" />
      <stop
         offset="0.8868"
         style="stop-color:#040404;stop-opacity:0.2264"
         id="stop63" />
      <stop
         offset="1"
         style="stop-color:#010101;stop-opacity:0"
         id="stop65" />
    </linearGradient>
    <linearGradient
       id="path97_1_"
       gradientUnits="userSpaceOnUse"
       x1="-0.85619998"
       y1="737.54382"
       x2="198.39371"
       y2="538.29382"
       gradientTransform="matrix(2,0,0,-2,0,2048)">
      <stop
         offset="0"
         style="stop-color:#010101;stop-opacity:0"
         id="stop69" />
      <stop
         offset="0.3254"
         style="stop-color:#040404;stop-opacity:0.6509"
         id="stop71" />
      <stop
         offset="0.5"
         style="stop-color:#2A2A2A"
         id="stop73" />
      <stop
         offset="0.6705"
         style="stop-color:#040404;stop-opacity:0.6589"
         id="stop75" />
      <stop
         offset="1"
         style="stop-color:#010101;stop-opacity:0"
         id="stop77" />
    </linearGradient>
    <linearGradient
       id="polygon29_1_"
       gradientUnits="userSpaceOnUse"
       x1="358.5618"
       y1="849.65387"
       x2="378.6123"
       y2="776.14038"
       gradientTransform="matrix(2,0,0,-2,0,2048)">
      <stop
         offset="0"
         style="stop-color:#FFFFFF"
         id="stop14" />
      <stop
         offset="1"
         style="stop-color:#9E9E9E"
         id="stop16" />
    </linearGradient>
    <radialGradient
       id="path16_1_"
       cx="84"
       cy="609.35449"
       r="343.04639"
       gradientTransform="matrix(0.54573743,0,0,-0.53356748,-245.30899,505.33263)"
       gradientUnits="userSpaceOnUse">
      <stop
         offset="0"
         style="stop-color:#F15823"
         id="stop6" />
      <stop
         offset="1"
         style="stop-color:#4C2D8A"
         id="stop8" />
    </radialGradient>
    <linearGradient
       gradientTransform="matrix(0.27090192,0,0,0.27090192,-243.43897,-45.117843)"
       id="path11_2_"
       gradientUnits="userSpaceOnUse"
       x1="138.66251"
       y1="1010.5125"
       x2="885.33752"
       y2="263.83749">
      <stop
         offset="0"
         style="stop-color:#00BBF2"
         id="stop4" />
      <stop
         offset="1"
         style="stop-color:#00577A"
         id="stop6-6" />
    </linearGradient>
    <linearGradient
       gradientTransform="matrix(3.7146997,0,0,3.7146997,-151.89472,36.966658)"
       inkscape:collect="always"
       xlink:href="#linearGradient4524"
       id="linearGradient4530"
       x1="24"
       y1="46"
       x2="24"
       y2="2"
       gradientUnits="userSpaceOnUse" />
    <linearGradient
       id="linearGradient4524">
      <stop
         style="stop-color:#1b96d4;stop-opacity:1;"
         offset="0"
         id="stop4526" />
      <stop
         style="stop-color:#27b7ff;stop-opacity:1;"
         offset="1"
         id="stop4528" />
    </linearGradient>
  </defs>
  <metadata
     id="metadata5">
    <rdf:RDF>
      <cc:Work
         rdf:about="">
        <dc:format>image/svg+xml</dc:format>
        <dc:type
           rdf:resource="http://purl.org/dc/dcmitype/StillImage" />
        <dc:title />
      </cc:Work>
    </rdf:RDF>
  </metadata>
  <g
     id="layer1"
     inkscape:groupmode="layer"
     inkscape:label="Capa 1"
     transform="translate(0,-26.066725)">
    <g
       id="g980"
       transform="translate(243.41666,46.869048)">
      <path
         style="fill:#eeefef;fill-opacity:1;stroke-width:0.26458332"
         d="m -231.91176,50.710521 c 0.17529,-18.001279 0.15314,-25.518937 0.55936,-26.930807 1.73342,-6.024701 5.99538,-10.10198 12.18662,-11.65856 1.69211,-0.42542 4.17108,-0.47493 28.7004,-0.57314 28.44751,-0.1139 32.53158,0.002 35.51548,1.00342 3.96066,1.329909 6.7513,3.824669 11.09811,9.921419 3.80284,5.33378 5.35788,6.84204 8.25842,8.01 1.00867,0.40615 6.72262,0.45123 73.060915,0.57633 l 71.9666675,0.13572 2.0674395,0.58539 c 2.83691,0.80326 5.01671,2.020895 7.05643,3.941725 3.4262,3.226486 4.202927,6.852929 4.622647,13.060821 l -1.260349,4.743057 z"
         id="path992-3"
         inkscape:connector-curvature="0"
         sodipodi:nodetypes="cccscscscssccc" />
      <path
         style="fill:#cccccc;stroke-width:0.26458332"
         d="m -222.15292,211.03925 c -9.07568,0.70676 -10.78217,-2.41207 -10.58844,-10.93859 -0.28757,-3.18762 -0.29,-127.598501 -0.003,-157.063056 0.17529,-18.001275 0.24763,-20.416259 0.65385,-21.828123 1.73342,-6.0247 5.99538,-10.101981 12.18662,-11.6585644 1.69211,-0.425424 4.17108,-0.47493 28.7004,-0.573141 28.44751,-0.113898 32.53158,0.0016 35.51548,1.003425 3.96066,1.3299064 6.7513,3.8246704 11.09811,9.9214154 3.80284,5.333778 5.35788,6.842043 8.25842,8.009996 1.00867,0.406159 6.72262,0.451233 73.060915,0.576339 l 71.9666586,0.135718 2.0674404,0.585388 c 2.836905,0.803259 5.016706,2.020895 7.056429,3.941725 3.426198,3.226485 4.904513,6.852928 5.324229,13.060822 0.163182,2.413585 0.227452,31.901422 0.173289,79.507286 -0.07659,67.3211 -0.372366,75.78981 -0.4957,77.14793 -0.568351,6.25851 -3.179595,7.73348 -7.886075,7.88815 -1.325414,0.36941 -13.4603154,0.41554 -118.158356,0.44915 -64.17468,0.0206 -117.69327,-0.054 -118.9302,-0.16587 z M 19.809142,42.25321 c -1.031571,-4.998278 -3.973163,-8.439387 -8.677722,-10.151294 -0.634817,-0.231 -19.2989468,-0.341853 -74.269765,-0.441111 l -73.421865,-0.132575 -1.80792,-0.856281 c -2.70444,-1.280898 -4.96335,-3.627295 -8.45702,-8.784571 -1.62508,-2.398895 -3.63772,-5.091795 -4.47254,-5.984219 -1.6944,-1.811324 -3.84894,-3.082765 -5.97919,-3.528458 -0.9791,-0.204849 -10.39783,-0.292164 -31.22083,-0.289433 -32.41193,0.0043 -31.51784,-0.03401 -34.4983,1.476301 -1.6655,0.843972 -4.00278,3.011134 -4.90158,4.544823 -0.36669,0.625713 -0.89103,1.85838 -1.16519,2.73926 -0.46296,1.487501 -0.49805,2.631906 -0.49263,16.063962 l 0.006,14.462365 0.78888,-1.35291 c 1.83236,-3.142445 4.48597,-5.29301 7.8488,-6.360911 l 1.95414,-0.620554 H -104.81005 9.3374935 l 1.9541355,0.620554 c 3.506657,1.113571 6.403951,3.550597 8.025352,6.750436 l 0.756295,1.492552 0.07376,-3.827103 c 0.05181,-2.688267 -0.04869,-4.420375 -0.337722,-5.820833 z"
         id="path992"
         inkscape:connector-curvature="0"
         sodipodi:nodetypes="cccssscssscssssscsccccscsccscscscccccccsscscc" />
      <path
         style="fill:#02aefa;stroke-width:0.26458332"
         d="m -225.6316,207.77018 c -1.81891,-0.65092 -3.43904,-2.34879 -3.93098,-4.11957 -0.1678,-0.60402 -0.26083,-27.17254 -0.26178,-74.76628 -10e-4,-65.444065 0.0445,-74.005955 0.40365,-75.384691 1.2517,-4.805587 5.1025,-8.539749 9.84224,-9.544121 2.69854,-0.571833 226.8379596,-0.571833 229.5365065,0 4.8413125,1.025896 8.7143765,4.857557 9.8471205,9.741868 0.35796,1.543495 0.396195,10.182709 0.335942,75.908144 -0.06379,69.58125 -0.09614,74.21786 -0.523288,74.99825 -0.582406,1.06405 -1.882174,2.36381 -2.94622,2.94622 -0.78296,0.42855 -7.8949164,0.45853 -121.084931,0.51043 -98.36345,0.0451 -120.4288,-0.008 -121.21826,-0.29025 z"
         id="path982"
         inkscape:connector-curvature="0" />
      <path
         inkscape:connector-curvature="0"
         style="fill:url(#path11_2_);stroke-width:0.27090192"
         id="path11_1_"
         d="M 14.459664,208.338 H -223.93404 c -2.97992,0 -5.41804,-2.43812 -5.41804,-5.41803 V 54.303162 c 0,-5.959842 4.87623,-10.836077 10.83607,-10.836077 H 9.0416246 c 5.9598434,0 10.8360764,4.876235 10.8360764,10.836077 V 202.91997 c 0,2.97991 -2.438116,5.41803 -5.418037,5.41803 z" />
      <path
         style="display:inline;opacity:0.15;fill:#000000;fill-opacity:1;stroke:none;stroke-width:3.73595905"
         d="m -111.02095,43.460681 c -2.71307,0 -5.41511,0.333246 -7.93893,0.93334 -0.0425,0.02829 -0.0705,0.08465 -0.11296,0.112944 -4.16318,2.887156 -8.08731,6.154699 -11.79161,9.573336 -0.18208,0.471609 -0.46738,0.854277 -0.58316,1.284929 -0.40526,1.622968 2.80188,0.350177 2.80188,0.350177 l 3.73603,1.634557 4.43641,-1.634557 c 0,0 1.15362,-2.424286 3.96947,-4.4364 2.8318,-2.028658 2.52708,-2.479937 3.73591,-4.086249 0.94888,-1.260924 1.13386,-1.387993 3.38574,-3.73591 z m 55.922594,0 c -0.231573,0.265456 -0.700352,0.700375 -0.700352,0.700375 0,0 -2.784912,5.247896 -0.350177,4.4364 2.409614,-0.811905 5.565032,-0.866963 5.954181,0.350177 0.413722,1.200232 1.219991,3.102481 1.634559,4.319644 0.396768,1.208698 6.070958,1.634558 6.070958,1.634558 0,0 0.775192,-2.004653 1.984734,-3.619292 1.208674,-1.614638 2.451689,-3.619132 2.451689,-3.619132 0,0 2.045998,4.044856 2.451666,5.25369 0.398207,1.217163 -0.933339,4.903355 -0.933339,4.903355 0,0 -4.386842,2.802025 -5.604004,2.802025 -1.217163,0 -8.055693,-6.070981 -8.055693,-6.070981 -2.417783,0.811928 -4.4364,1.984734 -4.4364,1.984734 -2.82361,2.831939 -5.720646,5.253691 -5.720646,5.253691 0,0 -2.363159,0.775193 -3.969468,1.984734 -1.614639,1.208674 -5.102186,1.560836 -6.070959,2.91878 -2.012138,2.823474 0.700352,4.786737 0.700352,4.786737 l -2.451689,3.268957 -1.634535,1.167739 -5.954203,1.167742 -3.502491,0.700351 c 0.396769,1.208675 -0.467389,5.020134 -0.467389,5.020134 v 6.888249 c 0,0 5.904485,1.51762 7.121647,1.51762 1.208697,0 4.214595,0.456094 5.837561,-1.16774 1.597983,-1.614639 4.100212,-5.328943 4.903356,-6.537913 0.803439,-1.208675 2.002098,-2.340683 4.436424,-3.152179 2.409614,-0.80344 2.635527,-1.929242 3.852826,-2.334909 1.217162,-0.405257 6.070821,-1.284931 6.070821,-1.284931 0,0 2.885604,1.998699 4.086225,2.802002 0.571867,0.389719 -0.864135,1.693153 4.203026,2.918644 v 3.152177 l 5.370447,-0.350175 -2.451826,-3.268957 -0.350177,-0.112945 -4.786736,-4.786599 -0.350176,-3.61927 c 0,0 5.040053,2.807776 6.654691,3.61927 1.61464,0.80344 5.020135,3.268956 5.020135,3.268956 l 2.451688,5.603867 3.268957,4.086248 c -1.084435,-1.349891 -3.822616,-5.253692 0.350176,-5.253692 0,0 3.927964,0.405235 5.136913,0 1.217162,-0.396791 2.24638,-0.823222 3.852689,-1.634558 1.614639,-0.811905 -0.55633,-3.700179 1.050552,-5.720645 1.622831,-2.020307 3.577765,-2.754702 4.786599,-3.152178 1.21714,-0.405257 5.370447,-2.335048 5.370447,-2.335048 l 4.43656,0.817542 c -2.0121148,1.614799 -4.4084493,3.89999 -2.8020018,3.502514 1.6146387,-0.405257 5.28178337,1.709809 6.88809365,2.91878 1.61464105,1.208675 0.35018065,3.969468 0.35018065,3.969468 0,0 -4.2980457,-0.410914 -7.1216555,-0.817564 -2.8317786,-0.396769 -7.355181,0.467366 -7.355181,0.467366 l -3.619133,1.984734 c 0,0 -2.507181,0.789317 -2.101513,2.802002 0.398184,2.020329 2.00463,4.525799 3.619293,6.537914 1.60631,2.028657 2.885444,4.430628 4.086087,3.619154 1.225627,-0.811904 5.370447,-3.268956 5.370447,-3.268956 0,0 -0.9982768,2.88305 -0.5831628,4.90349 0.4052568,2.012013 0.5831628,4.786603 0.5831628,4.786603 0,0 -4.127593,-0.002 -2.9186207,0.81756 1.2002092,0.78649 2.9153807,3.79309 3.6191326,4.78674 4.0407656,5.64706 12.4978954,18.23266 13.3093813,19.8473 0.7949638,1.62297 0.4504327,4.08622 1.634549,5.2537 2.4177948,2.4261 7.3136788,-0.0137 8.5226478,-0.81758 0.312055,-0.20466 1.047714,-0.59162 1.634407,-0.93474 V 115.7308 c -0.02825,-0.0847 -0.112968,-0.15811 -0.112968,-0.23298 0,-1.2087 -3.152326,-6.07083 -3.152326,-6.07083 0,0 0.320529,-0.78932 3.152326,0.81757 0.04235,0.0283 0.07059,0.0847 0.112968,0.11295 V 77.084043 c 0,-14.798848 2.771467,-26.668901 -4.512263,-31.534999 -3.843256,-2.567592 -10.1485157,-3.088758 -21.8729444,-1.271369 -0.070505,-0.01369 -0.1581235,0.01369 -0.2329869,0 -0.084651,-0.01369 -0.1581234,-0.08466 -0.2329867,-0.112945 -2.1927126,-0.446191 -4.443041,-0.700353 -6.771471,-0.700353 h -41.212213 z m -19.847297,6.1876 -3.735912,2.101514 v 7.121646 l -3.852826,-1.517642 -1.634398,3.619132 1.634398,2.45169 3.852826,-4.319646 v 4.319646 l 8.522648,-1.634423 3.035422,-2.451665 -4.786736,-5.137072 z m -69.582327,24.517255 c -0.0847,0.981347 -0.11293,1.914982 -0.11293,2.918781 v 6.771334 c 0.20056,-0.143978 1.05052,-0.700376 1.05052,-0.700376 0,0 2.46468,-2.338994 -0.35017,-7.588601 -0.27534,-0.506908 -0.43349,-0.998277 -0.58317,-1.400705 z m 84.526133,16.69512 c 0,0 -3.872451,0.355835 -5.487112,1.167739 -1.598119,0.811906 -4.862125,2.045999 -6.07096,2.45169 -1.208673,0.405234 -4.436399,0.817541 -4.436399,0.817541 -3.635105,-1.614639 -6.418761,2.471609 -7.238563,4.086244 -0.794974,1.62283 -2.451688,2.35481 -2.451688,3.96945 0,1.623 -2.877277,4.10021 -4.086225,4.90338 -1.200232,0.8119 -5.679278,3.23336 -6.888112,5.25369 -1.217162,2.02045 -2.396171,4.40083 -2.802002,6.42127 -0.39819,2.02034 -0.35017,3.59755 -0.35017,6.42116 0,2.82344 -0.405262,4.45376 0,6.88809 0.38971,2.40962 4.347726,8.5955 5.954174,10.62414 1.62283,2.02046 3.692012,4.39505 5.720646,5.60401 2.003787,1.21715 4.903377,3.61915 4.903377,3.61915 0,0 1.565787,2.3764 4.786737,1.16774 3.245798,-1.21717 6.383006,-1.18752 9.223137,-2.80187 2.831801,-1.60645 7.355203,-3.59358 7.355203,-1.16774 0,2.42598 1.543335,3.96368 3.969446,3.15218 2.426133,-0.81191 6.476649,-2.8236 6.070958,0 -0.396769,2.8318 0.817565,6.54117 0.817565,8.17233 0,1.59812 -0.391133,3.11081 0.817564,4.31979 1.208675,1.20867 4.43656,3.34421 4.43656,4.55318 0,1.20021 0.473024,5.14849 1.283515,6.77147 0.810492,1.62283 1.511848,4.106 0.700352,5.72064 -0.80344,1.61464 -2.451825,6.07096 -2.451825,6.07096 0,0 -0.756825,3.69454 -0.350176,4.90335 0.405255,1.22563 1.132443,2.64966 3.152178,4.66996 2.020329,2.01214 1.468084,4.45635 2.685246,6.07098 0.506908,0.67352 0.982761,1.9212 1.400728,3.15218 h 24.750788 c 2.053209,-1.62465 5.6038674,-4.31964 5.6038674,-4.31964 l -0.467366,-6.07097 4.9033559,-6.42113 3.61928777,-3.73607 c 0,0 3.19934563,-4.33954 2.80200403,-5.95404 -0.3981881,-1.61463 -1.16773577,-9.69023 -1.16773577,-9.69023 0,0 1.59303537,-3.63905 2.80200417,-5.25369 1.2002139,-1.62284 1.2016263,-3.70854 3.6192788,-5.72065 2.4259853,-2.01213 4.0363887,-4.45632 5.2536877,-6.07096 1.208686,-1.61464 3.633259,-4.862 4.436414,-6.07097 0.802026,-1.21715 1.634408,-4.66996 1.634408,-4.66996 l -7.35505,1.16774 C 8.6793152,140.99217 1.915475,132.11767 0.70650833,130.08901 c -1.20868576,-2.0203 -2.39619263,-6.09072 -2.80186713,-7.70539 -0.4052568,-1.60644 -2.5047618,-6.02959 -2.9187805,-7.2384 -0.3981835,-1.20869 -3.1579737,-4.86214 -3.9694455,-6.07096 -0.8119298,-1.21717 -3.6307242,-2.05182 -5.2536912,-3.26898 -1.614639,-1.20867 -11.674849,-3.26896 -11.674849,-3.26896 0,0 -3.259054,-2.02947 -4.203002,-1.2835 -4.04075,3.23745 -13.2985,1.40356 -15.294097,0.58316 -2.028657,-0.81191 -3.1522,-2.051802 -3.1522,-3.268964 0,-1.217162 -1.751177,-7.121646 -1.751177,-7.121646 0,0 -4.044857,0.700352 -5.253692,0.700352 -1.208673,0 -4.436559,-1.284929 -4.436559,-1.284929 z m -84.642743,78.571914 v 4.78658 c 0,13.68909 8.04339,25.44864 19.73052,30.70502 l -0.46737,-1.40074 1.63455,-5.95419 2.1015,-5.72063 c 0,0 -0.0847,-4.13917 -2.1015,-4.55333 -2.02031,-0.39819 -5.55432,-3.96947 -6.77148,-3.96947 -1.20868,0 -3.34421,-0.82321 -4.55318,-1.63439 -1.20868,-0.81191 -3.50815,-1.47626 -4.31964,-2.68523 -0.81191,-1.22563 -2.11563,-3.34184 -2.91879,-5.37047 -0.6693,-1.69046 -0.56196,-2.07242 -2.33491,-4.20286 z m 160.646198,8.2891 -3.152186,6.07096 c 0,0 -4.8396853,1.89606 -5.2536881,3.50237 -0.3967756,1.62298 -0.8175574,4.20301 -0.8175574,4.20301 0,0 -2.0376794,4.45631 -2.4516844,6.07095 -0.336059,1.33577 0.1934445,3.643 1.050542,4.20287 3.2969145,-2.30963 6.1281499,-5.08496 8.4058709,-8.40586 0.02825,-0.0706 0.08472,-0.1611 0.112968,-0.233 0.04235,-0.14124 0.08472,-0.34735 0.112968,-0.46736 0.398191,-1.59798 1.21151,-4.45634 1.634552,-6.07098 0.405247,-1.61465 0.817557,-4.86199 0.817557,-6.07082 0,-1.20021 -0.482911,-2.8102 -0.467379,-2.802 z"
         id="rect4720"
         inkscape:connector-curvature="0"
         sodipodi:nodetypes="ccccccccccccccccccccccsccccccccccccscccccccccccccccccccccccccccccccccccccccccccscccsscccscccccccccccccccsccccccccccscccsccccccsccscsccccccccccccccccccccccccccccscscccscccccscccccccccccccccscc" />
      <path
         style="display:inline;fill:#ffffff;fill-opacity:1;stroke:none;stroke-width:3.73595905"
         d="m -57.083228,43.460681 c -0.244257,0.971467 -0.112944,1.7478 0.933362,1.400727 2.409455,-0.811904 5.565033,-0.866986 5.95418,0.350177 0.413723,1.200209 1.219992,3.102481 1.634399,4.319644 0.396791,1.208675 6.070982,1.634558 6.070982,1.634558 0,0 0.775192,-2.004653 1.98471,-3.619292 1.208699,-1.614639 2.45169,-3.619133 2.45169,-3.619133 0,0 2.046021,4.044719 2.451826,5.253691 0.396791,1.217139 -0.933339,4.903355 -0.933339,4.903355 0,0 -4.386705,2.802002 -5.603867,2.802002 -1.217163,0 -8.055692,-6.070959 -8.055692,-6.070959 -2.417807,0.811906 -4.436561,1.984735 -4.436561,1.984735 -2.823473,2.831802 -5.720645,5.25369 -5.720645,5.25369 0,0 -2.363136,0.775194 -3.969447,1.984735 -1.614638,1.208674 -5.102184,1.560835 -6.070958,2.91878 -2.012138,2.823451 0.700351,4.786576 0.700351,4.786576 l -2.451688,3.269118 -1.634398,1.167716 -5.954204,1.167742 -3.50249,0.700374 c 0.396769,1.208675 -0.467388,5.020134 -0.467388,5.020134 v 6.888089 c 0,0 5.904483,1.51778 7.121647,1.51778 1.208674,0 4.214433,0.456094 5.837424,-1.16774 1.597959,-1.614639 4.100211,-5.212164 4.903354,-6.421135 0.803441,-1.208698 2.002099,-2.457485 4.43656,-3.268957 2.409454,-0.803441 2.635528,-1.929243 3.85269,-2.335048 1.217164,-0.405257 6.070959,-1.283537 6.070959,-1.283537 0,0 2.885604,1.998859 4.086088,2.802001 0.571868,0.38972 -0.864157,1.693291 4.203003,2.918782 v 3.1522 l 5.370469,-0.350199 -2.451688,-3.268956 -0.350177,-0.112945 -4.786736,-4.786737 -0.350176,-3.619132 c 0,0 5.040053,2.80766 6.654692,3.619132 1.614638,0.803441 5.020133,3.26898 5.020133,3.26898 l 2.451689,5.604004 3.268958,4.086087 c -1.084436,-1.34989 -3.822619,-5.25369 0.350175,-5.25369 0,0 3.9281,0.405255 5.136913,0 1.217162,-0.396769 2.246379,-0.823201 3.852827,-1.634399 1.614638,-0.811906 -0.556331,-3.70034 1.05055,-5.720645 1.622967,-2.020467 3.577766,-2.75484 4.786737,-3.152339 1.217162,-0.405233 5.3704465,-2.334909 5.3704465,-2.334909 l 4.4364232,0.817564 c -2.011978,1.614638 -4.4083124,3.899853 -2.8020019,3.502513 1.6146388,-0.405257 5.28192717,1.709809 6.88823518,2.918621 1.61464092,1.208698 0.35018062,3.969469 0.35018062,3.969469 0,0 -4.2980274,-0.410894 -7.1216372,-0.817565 -2.8318013,-0.396768 -7.3552044,0.467389 -7.3552044,0.467389 l -3.619133,1.984735 c 0,0 -2.507317,0.789316 -2.101512,2.802001 0.396791,2.020307 2.004516,4.525798 3.619155,6.537913 1.606448,2.028635 2.885582,4.430627 4.086224,3.619133 1.225627,-0.811906 5.3704704,-3.268957 5.3704704,-3.268957 0,0 -0.9982996,2.883209 -0.5831628,4.903515 0.4052341,2.012115 0.5831628,4.786731 0.5831628,4.786731 0,0 -4.1276154,-0.002 -2.9187807,0.81754 1.2002094,0.78652 2.9153809,3.79299 3.6192698,4.78661 4.0407724,5.64708 12.4978999,18.23265 13.3093858,19.8473 0.7949661,1.62296 0.4504327,4.08623 1.6344099,5.25368 2.4177938,2.42614 7.3138188,-0.0137 8.5226448,-0.81756 0.313468,-0.20467 1.047718,-0.59163 1.634552,-0.93475 v -17.39547 c -0.02825,-0.0847 -0.112969,-0.15813 -0.112969,-0.23299 0,-1.20867 -3.152185,-6.07097 -3.152185,-6.07097 0,0 0.320527,-0.78931 3.152185,0.81758 0.04237,0.0283 0.0706,0.0847 0.112969,0.11294 V 77.085297 L 19.613307,53.154278 19.034413,50.444021 C 16.74852,45.341915 12.69634,43.74212 8.4875408,43.498918 2.5161341,43.011046 -8.6725244,43.461685 -13.886827,43.461685 Z m -55.805842,0.112945 c -5.9851,0.321952 -11.60366,2.222651 -16.34478,5.253691 -0.55634,0.492806 -1.08865,1.013839 -1.63456,1.517644 -0.18208,0.471609 -0.46736,0.854254 -0.58316,1.284928 -0.40524,1.622968 2.80203,0.350177 2.80203,0.350177 l 3.73591,1.634559 4.43639,-1.634126 c 0,0 1.15362,-2.424445 3.96946,-4.436423 2.73042,-1.956053 2.55843,-2.502092 3.61928,-3.969445 z m 37.94328,2.334911 -3.735911,2.101512 v 7.121648 l -3.85269,-1.51778 -1.634536,3.619269 1.634536,2.45169 3.85269,-4.319646 v 4.319646 l 8.522648,-1.634399 3.035421,-2.451826 -4.786599,-5.136911 z m -69.23198,25.334545 c -0.33466,1.909187 -0.46739,3.829531 -0.46739,5.837401 v 3.035423 c 0.20056,-0.143977 1.05055,-0.700353 1.05055,-0.700353 0,0 2.4648,-2.339017 -0.35019,-7.588601 -0.11296,-0.210375 -0.14261,-0.392548 -0.23297,-0.583162 z m 84.175923,15.877828 c 0,0 -3.87261,0.355836 -5.487249,1.16774 -1.59812,0.811907 -4.861988,2.045862 -6.070959,2.45169 -1.208674,0.405234 -4.436423,0.817564 -4.436423,0.817564 -3.635082,-1.614661 -6.418739,2.471586 -7.238403,4.086225 -0.794974,1.62283 -2.451688,2.354806 -2.451688,3.969468 0,1.622833 -2.877413,4.100213 -4.086225,4.903353 -1.200232,0.81191 -5.679278,3.23339 -6.888249,5.25369 -1.217162,2.02044 -2.396193,4.40083 -2.801995,6.42113 -0.39678,2.02047 -0.35019,3.5977 -0.35019,6.4213 0,2.82347 -0.405252,4.45379 0,6.8881 0.38972,2.4096 4.347876,8.5955 5.954187,10.62413 1.622967,2.02047 3.692012,4.39503 5.720646,5.60401 2.003786,1.21715 4.903514,3.61915 4.903514,3.61915 0,0 1.565787,2.37642 4.786737,1.16772 3.245798,-1.21714 6.383006,-1.1875 9.223137,-2.80201 2.831801,-1.6063 7.355044,-3.59357 7.355044,-1.16773 0,2.42612 1.543494,3.96366 3.969468,3.15234 2.426134,-0.81191 6.476786,-2.82362 6.070959,0 -0.396769,2.83179 0.817564,6.54115 0.817564,8.17233 0,1.59811 -0.391133,3.11081 0.817565,4.31978 1.208673,1.20868 4.436399,3.34421 4.436399,4.55317 0,1.20022 0.473024,5.14849 1.283539,6.77148 0.81049,1.62283 1.511984,4.10599 0.700352,5.72062 -0.803441,1.61466 -2.451689,6.07098 -2.451689,6.07098 0,0 -0.756849,3.69455 -0.350176,4.90336 0.405256,1.22562 1.132442,2.64964 3.152177,4.66995 2.02033,2.01215 1.468084,4.45636 2.685247,6.07099 1.21714,1.61464 2.451666,6.53791 2.451666,6.53791 v 0.35018 h 20.897985 c 0.872622,-1.2228 1.035013,-2.29581 2.685247,-3.61913 2.028634,-1.60632 5.7207827,-4.43643 5.7207827,-4.43643 l -0.4673883,-6.07096 4.9035145,-6.42113 3.61913267,-3.73607 c 0,0 3.19948703,-4.33955 2.80200403,-5.95418 -0.3981881,-1.61464 -1.16773808,-9.69013 -1.16773808,-9.69013 0,0 1.59303758,-3.63902 2.80200648,-5.25366 1.2002139,-1.62298 1.201624,-3.70866 3.6191373,-5.72064 2.4261268,-2.01214 4.0365307,-4.45632 5.2536877,-6.07098 1.208686,-1.61464 3.633401,-4.86199 4.436557,-6.07096 0.802022,-1.21716 1.634407,-4.66996 1.634407,-4.66996 l -7.355192,1.16774 C 8.6794567,137.25229 1.9156164,128.37792 0.70664752,126.34926 c -1.20868345,-2.02044 -2.39619032,-6.09085 -2.80200632,-7.70552 -0.4052568,-1.60631 -2.5046249,-6.02943 -2.9186436,-7.2384 -0.3981836,-1.2087 -3.1581106,-4.86201 -3.9694459,-6.07082 -0.8119053,-1.21716 -3.6308607,-2.05181 -5.2536907,-3.26896 -1.61464,-1.2087 -11.674986,-3.268957 -11.674986,-3.268957 0,0 -3.258917,-2.029502 -4.202866,-1.283538 -4.04075,3.237475 -13.298636,1.403557 -15.294095,0.583164 -2.028658,-0.811907 -3.152201,-2.051795 -3.152201,-3.268958 0,-1.217161 -1.751314,-7.121783 -1.751314,-7.121783 0,0 -4.044719,0.700353 -5.253692,0.700353 -1.208673,0 -4.4364,-1.284931 -4.4364,-1.284931 z m -84.642873,78.57176 v 8.52264 c 0,13.87688 8.25138,25.79077 20.19747,30.93855 0.26969,-0.20626 0.70036,-0.58315 0.70036,-0.58315 l -1.63441,-4.7866 1.63441,-5.95418 2.1015,-5.72079 c 0,0 -0.0847,-4.13918 -2.1015,-4.5532 -2.02031,-0.39677 -5.55419,-3.96945 -6.77132,-3.96945 -1.2087,0 -3.34437,-0.70601 -4.55334,-1.51763 -1.20868,-0.81191 -3.50815,-1.59316 -4.31964,-2.80201 -0.81191,-1.22563 -2.11548,-3.34181 -2.91879,-5.37046 -0.6693,-1.69047 -0.56196,-2.0724 -2.33491,-4.20301 z m 160.646185,8.28925 -3.152184,6.07096 c 0,0 -4.8396858,1.89606 -5.2536885,3.50238 -0.3967757,1.62297 -0.8175575,4.203 -0.8175575,4.203 0,0 -2.0376793,4.45633 -2.4516821,6.07096 -0.4052499,1.61464 0.4250166,4.72545 1.6345491,4.31964 1.2002138,-0.3982 3.2274452,-2.80779 4.436414,-3.61915 1.200211,-0.8119 3.213464,-3.98104 3.619137,-5.604 0.396776,-1.59813 1.211511,-4.45632 1.634549,-6.07097 0.40525,-1.61463 0.817558,-4.86199 0.817558,-6.07081 0,-1.20022 -0.482909,-2.81019 -0.467377,-2.80201 z"
         id="rect3928"
         inkscape:connector-curvature="0"
         sodipodi:nodetypes="cccccccccsccccccccccccscccccccccccccccccccccccccccccccccccccccccccsccccccccccccccccccccccccccccccccsccccccccccscccsccccccsccscsccccccccccccccccccccccccccccccscscccsccccccsccccccccccccccscc" />
      <path
         inkscape:connector-curvature="0"
         d="m -216.26705,107.93903 4.77662,24.05806 h 0.75597 l 4.71836,-24.05806 h 4.19416 l 4.89318,24.05806 h 0.69902 l 4.83363,-24.05806 h 4.66148 l -7.92229,28.31049 h -3.90157 l -4.95141,-21.7863 h -0.75727 l -4.83491,21.7863 h -3.84465 l -7.86269,-28.31049 z"
         id="path94"
         style="fill:#ffffff;stroke-width:1.32390893" />
      <path
         inkscape:connector-curvature="0"
         d="m -177.66179,107.76118 4.77662,24.05801 h 0.75595 l 4.7184,-24.05801 h 4.19415 l 4.89316,24.05801 h 0.69903 l 4.83363,-24.05801 h 4.66148 l -7.92228,28.31046 h -3.90157 l -4.95142,-21.78629 h -0.75726 l -4.83492,21.78629 h -3.84463 l -7.86271,-28.31046 z"
         id="path94-6"
         style="fill:#ffffff;stroke-width:1.32390893" />
      <path
         inkscape:connector-curvature="0"
         d="m -139.9546,107.40544 4.77662,24.05802 h 0.75598 l 4.71839,-24.05802 h 4.19413 l 4.89317,24.05802 h 0.69903 l 4.83363,-24.05802 h 4.66149 l -7.92228,28.31049 h -3.90159 l -4.9514,-21.78631 h -0.75729 l -4.83491,21.78631 h -3.84465 l -7.86268,-28.31049 z"
         id="path94-7"
         style="fill:#ffffff;stroke-width:1.32390893" />
    </g>
  </g>
</svg>
