<?xml version="1.0" encoding="UTF-8" standalone="no"?>
<!-- Created with Inkscape (http://www.inkscape.org/) -->

<svg
   xmlns:dc="http://purl.org/dc/elements/1.1/"
   xmlns:cc="http://creativecommons.org/ns#"
   xmlns:rdf="http://www.w3.org/1999/02/22-rdf-syntax-ns#"
   xmlns:svg="http://www.w3.org/2000/svg"
   xmlns="http://www.w3.org/2000/svg"
   xmlns:sodipodi="http://sodipodi.sourceforge.net/DTD/sodipodi-0.dtd"
   xmlns:inkscape="http://www.inkscape.org/namespaces/inkscape"
   width="1024"
   height="1024"
   viewBox="0 0 270.93333 270.93333"
   version="1.1"
   id="svg8"
   inkscape:version="0.92.2 (5c3e80d, 2017-08-06)"
   sodipodi:docname="folder-saved-search (copia).svg">
  <sodipodi:namedview
     id="base"
     pagecolor="#ffffff"
     bordercolor="#666666"
     borderopacity="1.0"
     inkscape:pageopacity="0.0"
     inkscape:pageshadow="2"
     inkscape:zoom="0.49497475"
     inkscape:cx="133.63398"
     inkscape:cy="554.51903"
     inkscape:document-units="px"
     inkscape:current-layer="g980"
     showgrid="false"
     inkscape:snap-global="false"
     units="px" />
  <defs
     id="defs2">
    <linearGradient
       id="path84_1_"
       gradientUnits="userSpaceOnUse"
       x1="26"
       y1="661"
       x2="220.39999"
       y2="661"
       gradientTransform="matrix(2,0,0,-2,0,2048)">
      <stop
         offset="0"
         style="stop-color:#010101;stop-opacity:0"
         id="stop25" />
      <stop
         offset="0.1132"
         style="stop-color:#040404;stop-opacity:0.2264"
         id="stop27" />
      <stop
         offset="0.1813"
         style="stop-color:#0D0D0D;stop-opacity:0.3626"
         id="stop29" />
      <stop
         offset="0.2375"
         style="stop-color:#191919;stop-opacity:0.475"
         id="stop31" />
      <stop
         offset="0.2872"
         style="stop-color:#2E2E2E;stop-opacity:0.5744"
         id="stop33" />
      <stop
         offset="0.3326"
         style="stop-color:#494949;stop-opacity:0.6652"
         id="stop35" />
      <stop
         offset="0.3749"
         style="stop-color:#686969;stop-opacity:0.7498"
         id="stop37" />
      <stop
         offset="0.4148"
         style="stop-color:#908F8F;stop-opacity:0.8297"
         id="stop39" />
      <stop
         offset="0.4528"
         style="stop-color:#BCBCBB;stop-opacity:0.9057"
         id="stop41" />
      <stop
         offset="0.4881"
         style="stop-color:#EDEDED;stop-opacity:0.9761"
         id="stop43" />
      <stop
         offset="0.5"
         style="stop-color:#FFFFFF"
         id="stop45" />
      <stop
         offset="0.5119"
         style="stop-color:#EDEDED;stop-opacity:0.9761"
         id="stop47" />
      <stop
         offset="0.5472"
         style="stop-color:#BCBCBB;stop-opacity:0.9057"
         id="stop49" />
      <stop
         offset="0.5852"
         style="stop-color:#908F8F;stop-opacity:0.8297"
         id="stop51" />
      <stop
         offset="0.6251"
         style="stop-color:#686969;stop-opacity:0.7498"
         id="stop53" />
      <stop
         offset="0.6674"
         style="stop-color:#494949;stop-opacity:0.6652"
         id="stop55" />
      <stop
         offset="0.7128"
         style="stop-color:#2E2E2E;stop-opacity:0.5744"
         id="stop57" />
      <stop
         offset="0.7625"
         style="stop-color:#191919;stop-opacity:0.475"
         id="stop59" />
      <stop
         offset="0.8187"
         style="stop-color:#0D0D0D;stop-opacity:0.3626"
         id="stop61" />
      <stop
         offset="0.8868"
         style="stop-color:#040404;stop-opacity:0.2264"
         id="stop63" />
      <stop
         offset="1"
         style="stop-color:#010101;stop-opacity:0"
         id="stop65" />
    </linearGradient>
    <linearGradient
       id="path97_1_"
       gradientUnits="userSpaceOnUse"
       x1="-0.85619998"
       y1="737.54382"
       x2="198.39371"
       y2="538.29382"
       gradientTransform="matrix(2,0,0,-2,0,2048)">
      <stop
         offset="0"
         style="stop-color:#010101;stop-opacity:0"
         id="stop69" />
      <stop
         offset="0.3254"
         style="stop-color:#040404;stop-opacity:0.6509"
         id="stop71" />
      <stop
         offset="0.5"
         style="stop-color:#2A2A2A"
         id="stop73" />
      <stop
         offset="0.6705"
         style="stop-color:#040404;stop-opacity:0.6589"
         id="stop75" />
      <stop
         offset="1"
         style="stop-color:#010101;stop-opacity:0"
         id="stop77" />
    </linearGradient>
    <linearGradient
       id="polygon29_1_"
       gradientUnits="userSpaceOnUse"
       x1="358.5618"
       y1="849.65387"
       x2="378.6123"
       y2="776.14038"
       gradientTransform="matrix(2,0,0,-2,0,2048)">
      <stop
         offset="0"
         style="stop-color:#FFFFFF"
         id="stop14" />
      <stop
         offset="1"
         style="stop-color:#9E9E9E"
         id="stop16" />
    </linearGradient>
    <radialGradient
       id="path16_1_"
       cx="84"
       cy="609.35449"
       r="343.04639"
       gradientTransform="matrix(0.54573743,0,0,-0.53356748,-245.30899,505.33263)"
       gradientUnits="userSpaceOnUse">
      <stop
         offset="0"
         style="stop-color:#F15823"
         id="stop6" />
      <stop
         offset="1"
         style="stop-color:#4C2D8A"
         id="stop8" />
    </radialGradient>
    <linearGradient
       gradientTransform="matrix(0.27090862,0,0,0.27090862,-243.32861,-44.474783)"
       id="path11_1_"
       gradientUnits="userSpaceOnUse"
       x1="138.66251"
       y1="263.83749"
       x2="885.33752"
       y2="1010.5125">
      <stop
         offset="0"
         style="stop-color:#883F98"
         id="stop6-3" />
      <stop
         offset="1"
         style="stop-color:#4E2979"
         id="stop8-6" />
    </linearGradient>
  </defs>
  <metadata
     id="metadata5">
    <rdf:RDF>
      <cc:Work
         rdf:about="">
        <dc:format>image/svg+xml</dc:format>
        <dc:type
           rdf:resource="http://purl.org/dc/dcmitype/StillImage" />
        <dc:title></dc:title>
      </cc:Work>
    </rdf:RDF>
  </metadata>
  <g
     id="layer1"
     inkscape:groupmode="layer"
     inkscape:label="Capa 1"
     transform="translate(0,-26.066725)">
    <g
       id="g980"
       transform="translate(243.41666,46.869048)">
      <path
         style="fill:#eeefef;fill-opacity:1;stroke-width:0.26458332"
         d="m -231.91176,50.710521 c 0.17529,-18.001279 0.15314,-25.518937 0.55936,-26.930807 1.73342,-6.024701 5.99538,-10.10198 12.18662,-11.65856 1.69211,-0.42542 4.17108,-0.47493 28.7004,-0.57314 28.44751,-0.1139 32.53158,0.002 35.51548,1.00342 3.96066,1.329909 6.7513,3.824669 11.09811,9.921419 3.80284,5.33378 5.35788,6.84204 8.25842,8.01 1.00867,0.40615 6.72262,0.45123 73.060915,0.57633 l 71.9666675,0.13572 2.0674395,0.58539 c 2.83691,0.80326 5.01671,2.020895 7.05643,3.941725 3.4262,3.226486 4.202927,6.852929 4.622647,13.060821 l -1.260349,4.743057 z"
         id="path992-3"
         inkscape:connector-curvature="0"
         sodipodi:nodetypes="cccscscscssccc" />
      <path
         style="fill:#cccccc;stroke-width:0.26458332"
         d="m -222.15292,211.03925 c -9.07568,0.70676 -10.78217,-2.41207 -10.58844,-10.93859 -0.28757,-3.18762 -0.29,-127.598501 -0.003,-157.063056 0.17529,-18.001275 0.24763,-20.416259 0.65385,-21.828123 1.73342,-6.0247 5.99538,-10.101981 12.18662,-11.6585644 1.69211,-0.425424 4.17108,-0.47493 28.7004,-0.573141 28.44751,-0.113898 32.53158,0.0016 35.51548,1.003425 3.96066,1.3299064 6.7513,3.8246704 11.09811,9.9214154 3.80284,5.333778 5.35788,6.842043 8.25842,8.009996 1.00867,0.406159 6.72262,0.451233 73.060915,0.576339 l 71.9666586,0.135718 2.0674404,0.585388 c 2.836905,0.803259 5.016706,2.020895 7.056429,3.941725 3.426198,3.226485 4.904513,6.852928 5.324229,13.060822 0.163182,2.413585 0.227452,31.901422 0.173289,79.507286 -0.07659,67.3211 -0.372366,75.78981 -0.4957,77.14793 -0.568351,6.25851 -3.179595,7.73348 -7.886075,7.88815 -1.325414,0.36941 -13.4603154,0.41554 -118.158356,0.44915 -64.17468,0.0206 -117.69327,-0.054 -118.9302,-0.16587 z M 19.809142,42.25321 c -1.031571,-4.998278 -3.973163,-8.439387 -8.677722,-10.151294 -0.634817,-0.231 -19.2989468,-0.341853 -74.269765,-0.441111 l -73.421865,-0.132575 -1.80792,-0.856281 c -2.70444,-1.280898 -4.96335,-3.627295 -8.45702,-8.784571 -1.62508,-2.398895 -3.63772,-5.091795 -4.47254,-5.984219 -1.6944,-1.811324 -3.84894,-3.082765 -5.97919,-3.528458 -0.9791,-0.204849 -10.39783,-0.292164 -31.22083,-0.289433 -32.41193,0.0043 -31.51784,-0.03401 -34.4983,1.476301 -1.6655,0.843972 -4.00278,3.011134 -4.90158,4.544823 -0.36669,0.625713 -0.89103,1.85838 -1.16519,2.73926 -0.46296,1.487501 -0.49805,2.631906 -0.49263,16.063962 l 0.006,14.462365 0.78888,-1.35291 c 1.83236,-3.142445 4.48597,-5.29301 7.8488,-6.360911 l 1.95414,-0.620554 H -104.81005 9.3374935 l 1.9541355,0.620554 c 3.506657,1.113571 6.403951,3.550597 8.025352,6.750436 l 0.756295,1.492552 0.07376,-3.827103 c 0.05181,-2.688267 -0.04869,-4.420375 -0.337722,-5.820833 z"
         id="path992"
         inkscape:connector-curvature="0"
         sodipodi:nodetypes="cccssscssscssssscsccccscsccscscscccccccsscscc" />
      <path
         style="fill:#02aefa;stroke-width:0.26458332"
         d="m -225.6316,207.77018 c -1.81891,-0.65092 -3.43904,-2.34879 -3.93098,-4.11957 -0.1678,-0.60402 -0.26083,-27.17254 -0.26178,-74.76628 -10e-4,-65.444065 0.0445,-74.005955 0.40365,-75.384691 1.2517,-4.805587 5.1025,-8.539749 9.84224,-9.544121 2.69854,-0.571833 226.8379596,-0.571833 229.5365065,0 4.8413125,1.025896 8.7143765,4.857557 9.8471205,9.741868 0.35796,1.543495 0.396195,10.182709 0.335942,75.908144 -0.06379,69.58125 -0.09614,74.21786 -0.523288,74.99825 -0.582406,1.06405 -1.882174,2.36381 -2.94622,2.94622 -0.78296,0.42855 -7.8949164,0.45853 -121.084931,0.51043 -98.36345,0.0451 -120.4288,-0.008 -121.21826,-0.29025 z"
         id="path982"
         inkscape:connector-curvature="0" />
      <path
         inkscape:connector-curvature="0"
         style="fill:url(#path11_1_);stroke-width:0.27090859"
         id="path11"
         d="M 14.576378,208.98731 H -223.82317 c -2.98,0 -5.41818,-2.43818 -5.41818,-5.41817 V 54.948675 c 0,-5.959989 4.87635,-10.836344 10.83634,-10.836344 H 9.1582054 c 5.9599906,0 10.8363436,4.876355 10.8363436,10.836344 V 203.56914 c 0,2.97999 -2.438177,5.41817 -5.418171,5.41817 z" />
      <g
         transform="matrix(0.26458333,0,0,0.26458333,-230.8935,-22.67227)"
         id="g13">
        <path
           style="fill:#ffffff"
           inkscape:connector-curvature="0"
           id="path15"
           d="m 692,392.8 c -133.8,0 -242.2,108.4 -242.2,242.2 0,107 69.4,197.8 165.6,229.8 12.2,2.2 16.6,-5.2 16.6,-11.6 0,-5.8 -0.2,-24.8 -0.4,-45 -67.4,14.6 -81.6,-28.6 -81.6,-28.6 -11,-28 -26.8,-35.4 -26.8,-35.4 -22,-15 1.6,-14.8 1.6,-14.8 24.4,1.8 37.2,25 37.2,25 21.6,37 56.6,26.4 70.4,20.2 2.2,-15.6 8.4,-26.4 15.4,-32.4 C 594,736 537.4,715.4 537.4,622.4 c 0,-26.4 9.4,-48 25,-65 -2.6,-6.2 -10.8,-30.8 2.4,-64.2 0,0 20.4,-6.6 66.6,24.8 19.4,-5.4 40,-8 60.6,-8.2 20.6,0 41.4,2.8 60.6,8.2 46.2,-31.4 66.6,-24.8 66.6,-24.8 13.2,33.4 4.8,58 2.4,64.2 15.6,17 25,38.6 25,65 0,93 -56.6,113.6 -110.6,119.6 8.6,7.6 16.4,22.2 16.4,44.8 0,32.4 -0.2,58.4 -0.2,66.4 0,6.4 4.4,14 16.6,11.6 C 865,832.8 934.4,742 934.4,635 934.4,501.4 825.8,392.8 692,392.8 Z" />
        <path
           style="fill:#ffffff"
           inkscape:connector-curvature="0"
           id="path17"
           d="m 541.6,740.6 c -0.6,1.2 -2.4,1.6 -4.2,0.8 -1.8,-0.8 -2.8,-2.4 -2.2,-3.6 0.6,-1.2 2.4,-1.6 4.2,-0.8 1.8,0.8 2.8,2.4 2.2,3.6 z" />
        <path
           style="fill:#ffffff"
           inkscape:connector-curvature="0"
           id="path19"
           d="m 551.4,751.6 c -1.2,1 -3.4,0.6 -5,-1.2 -1.6,-1.6 -1.8,-4 -0.8,-5 1.2,-1 3.4,-0.6 5,1.2 1.8,1.6 2,4 0.8,5 z" />
        <path
           style="fill:#ffffff"
           inkscape:connector-curvature="0"
           id="path21"
           d="m 561,765.6 c -1.4,1 -4,0 -5.4,-2 -1.4,-2.2 -1.4,-4.8 0,-5.8 1.6,-1 3.8,-0.2 5.4,2 1.4,2.2 1.4,4.6 0,5.8 z" />
        <path
           style="fill:#ffffff"
           inkscape:connector-curvature="0"
           id="path23"
           d="m 574,779 c -1.4,1.4 -4.2,1 -6.2,-1 -2.2,-2 -2.8,-4.8 -1.4,-6.2 1.4,-1.4 4.2,-1 6.2,1 2.2,2 2.8,4.8 1.4,6.2 z" />
        <path
           style="fill:#ffffff"
           inkscape:connector-curvature="0"
           id="path25"
           d="m 592.2,786.8 c -0.6,1.8 -3.4,2.8 -6,2 -2.8,-0.8 -4.6,-3 -4,-5 0.6,-2 3.4,-2.8 6,-2 2.6,1 4.4,3.2 4,5 z" />
        <path
           style="fill:#ffffff"
           inkscape:connector-curvature="0"
           id="path27"
           d="m 612,788.2 c 0,2 -2.2,3.6 -5.2,3.6 -2.8,0 -5.2,-1.6 -5.2,-3.6 0,-2 2.2,-3.6 5.2,-3.8 2.8,0.4 5.2,2 5.2,3.8 z" />
        <path
           style="fill:#ffffff"
           inkscape:connector-curvature="0"
           id="path29"
           d="m 630.4,785.2 c 0.4,2 -1.6,4 -4.6,4.4 -2.8,0.6 -5.4,-0.6 -5.8,-2.6 -0.4,-2 1.6,-4 4.4,-4.6 3,-0.4 5.6,0.8 6,2.8 z" />
      </g>
    </g>
  </g>
</svg>
