<?xml version="1.0" encoding="UTF-8" standalone="no"?>
<!-- Created with Inkscape (http://www.inkscape.org/) -->

<svg
   xmlns:dc="http://purl.org/dc/elements/1.1/"
   xmlns:cc="http://creativecommons.org/ns#"
   xmlns:rdf="http://www.w3.org/1999/02/22-rdf-syntax-ns#"
   xmlns:svg="http://www.w3.org/2000/svg"
   xmlns="http://www.w3.org/2000/svg"
   xmlns:sodipodi="http://sodipodi.sourceforge.net/DTD/sodipodi-0.dtd"
   xmlns:inkscape="http://www.inkscape.org/namespaces/inkscape"
   width="512"
   height="512"
   id="svg5453"
   version="1.1"
   inkscape:version="0.91 r13725"
   sodipodi:docname="user-trash.svg"
   viewBox="0 0 512 512">
  <defs
     id="defs5455">
    <linearGradient
       id="linearGradient4707">
      <stop
         id="stop4709"
         offset="0"
         style="stop-color:#d5ffb9;stop-opacity:1" />
      <stop
         id="stop4711"
         offset="1"
         style="stop-color:#fcfff5;stop-opacity:1" />
    </linearGradient>
    <clipPath
       id="clipPath4157"
       clipPathUnits="userSpaceOnUse">
      <path
         style="fill:#f9f8f2;fill-opacity:1;stroke-width:1.00658333"
         inkscape:connector-curvature="0"
         id="path4159-9"
         d="m 27.642964,3.2951379 13.085584,13.0855841 -11.072418,0 c -0.977824,0 -2.013166,-1.035372 -2.013166,-2.013167 l 0,-11.0724171 z" />
    </clipPath>
    <clipPath
       id="clipPath4157-6"
       clipPathUnits="userSpaceOnUse">
      <path
         style="fill:#f9f8f2;fill-opacity:1;stroke-width:1.00658333"
         inkscape:connector-curvature="0"
         id="path4159-7"
         d="m 27.642964,3.2951379 13.085584,13.0855841 -11.072418,0 c -0.977824,0 -2.013166,-1.035372 -2.013166,-2.013167 l 0,-11.0724171 z" />
    </clipPath>
    <clipPath
       id="clipPath4157-8"
       clipPathUnits="userSpaceOnUse">
      <path
         style="fill:#f9f8f2;fill-opacity:1;stroke-width:1.00658333"
         inkscape:connector-curvature="0"
         id="path4159-1"
         d="m 27.642964,3.2951379 13.085584,13.0855841 -11.072418,0 c -0.977824,0 -2.013166,-1.035372 -2.013166,-2.013167 l 0,-11.0724171 z" />
    </clipPath>
    <clipPath
       id="clipPath4157-9"
       clipPathUnits="userSpaceOnUse">
      <path
         style="fill:#f9f8f2;fill-opacity:1;stroke-width:1.00658333"
         inkscape:connector-curvature="0"
         id="path4159-19"
         d="m 27.642964,3.2951379 13.085584,13.0855841 -11.072418,0 c -0.977824,0 -2.013166,-1.035372 -2.013166,-2.013167 l 0,-11.0724171 z" />
    </clipPath>
    <clipPath
       id="clipPath4157-5"
       clipPathUnits="userSpaceOnUse">
      <path
         style="fill:#f9f8f2;fill-opacity:1;stroke-width:1.00658333"
         inkscape:connector-curvature="0"
         id="path4159-6"
         d="m 27.642964,3.2951379 13.085584,13.0855841 -11.072418,0 c -0.977824,0 -2.013166,-1.035372 -2.013166,-2.013167 l 0,-11.0724171 z" />
    </clipPath>
  </defs>
  <sodipodi:namedview
     id="base"
     pagecolor="#ffffff"
     bordercolor="#666666"
     borderopacity="1.0"
     inkscape:pageopacity="0"
     inkscape:pageshadow="2"
     inkscape:zoom="1"
     inkscape:cx="187.30452"
     inkscape:cy="270.40221"
     inkscape:document-units="px"
     inkscape:current-layer="layer1"
     showgrid="true"
     fit-margin-top="0"
     fit-margin-left="0"
     fit-margin-right="0"
     fit-margin-bottom="0"
     inkscape:window-width="1366"
     inkscape:window-height="746"
     inkscape:window-x="0"
     inkscape:window-y="0"
     inkscape:window-maximized="1"
     inkscape:showpageshadow="false"
     borderlayer="true"
     showguides="false">
    <inkscape:grid
       type="xygrid"
       id="grid4115" />
  </sodipodi:namedview>
  <metadata
     id="metadata5458">
    <rdf:RDF>
      <cc:Work
         rdf:about="">
        <dc:format>image/svg+xml</dc:format>
        <dc:type
           rdf:resource="http://purl.org/dc/dcmitype/StillImage" />
        <dc:title />
      </cc:Work>
    </rdf:RDF>
  </metadata>
  <g
     inkscape:label="Capa 1"
     inkscape:groupmode="layer"
     id="layer1"
     transform="translate(-384.57143,-35.798)">
    <path
       style="opacity:0.6;fill:#dadfe1;fill-opacity:1;fill-rule:evenodd;stroke:none;stroke-width:1px;stroke-linecap:butt;stroke-linejoin:miter;stroke-opacity:1"
       d="m 449.72048,163.16644 54.04314,330.0925 134.03819,7.8846 134.03819,-7.8846 56.34125,-330.0925 -9.88404,13.00968 -22.03109,11.16609 -31.42109,8.18327 -33.87025,6.86289 -42.38112,3.81419 -51.05701,2.19605 -74.41306,-4.67494 -60.83151,-10.30501 -19.46713,-5.88255 -15.88765,-6.57418 -10.83035,-7.51697 z"
       id="path4159"
       inkscape:connector-curvature="0"
       sodipodi:nodetypes="ccccccccccccccccc" />
    <ellipse
       style="opacity:1;fill:#dadfe1;fill-opacity:1;stroke:none;stroke-width:0.10690451;stroke-linecap:square;stroke-linejoin:miter;stroke-miterlimit:4;stroke-dasharray:none;stroke-dashoffset:0;stroke-opacity:1"
       id="path4155"
       cx="637.80194"
       cy="493.25967"
       rx="134.03819"
       ry="31.538397" />
    <path
       inkscape:connector-curvature="0"
       id="path3340-4"
       d="m 614.35353,205.74901 c -64.14494,-1.934 -123.41999,-12.67793 -149.0169,-27.01019 -6.4958,-3.63712 -11.67404,-8.82517 -11.65603,-11.67804 0.0306,-4.82826 9.84756,-12.04314 23.61964,-17.35903 58.94022,-22.75024 180.90972,-28.80854 270.32006,-13.42698 30.88429,5.31314 54.22016,12.55254 67.11102,20.81961 8.71562,5.58942 10.35898,9.13607 6.57131,14.18169 -8.89957,11.85511 -48.52897,23.92546 -98.39237,29.9684 -20.07065,2.43237 -39.17834,3.81338 -62.85177,4.54255 -20.72162,0.63826 -23.34688,0.63608 -45.70496,-0.0379 z"
       style="fill:#dadfe1;fill-opacity:1;stroke-width:0.78468841" />
    <path
       style="fill:#ffffff;fill-opacity:0.39200003"
       d="m 751.64319,334.11258 8.2879,67.75751 -32.1013,-24.6166 c -2.83494,-2.17395 -3.49069,-7.53499 -1.2751,-10.42424 l 25.0885,-32.71667 z"
       id="path8-3"
       inkscape:connector-curvature="0" />
    <path
       style="fill:#000000;fill-rule:evenodd;stroke:#000000;stroke-width:0.02277805;stroke-linecap:butt;stroke-linejoin:miter;stroke-miterlimit:4;stroke-dasharray:none;stroke-opacity:1"
       d="m 610.4401,115.32075 c 0,0 -6.38779,0.20289 -15.64799,0.77003 -5.78292,0.35417 -12.68284,0.89519 -19.85665,1.47976 -4.30603,0.35089 -8.79524,0.85649 -13.11105,1.32526 -8.50241,0.92348 -16.57348,1.94567 -22.9371,3.05259 -8.08184,1.40579 -18.94846,3.18359 -29.44507,5.65819 -2.17904,0.5137 -4.34214,1.01731 -6.46106,1.59835 -6.47712,1.77612 -12.6931,3.5889 -17.45317,5.2665 -6.1202,2.15696 -10.066,3.82743 -10.066,3.82743 0,0 -7.18344,3.19846 -10.52409,5.23343 -1.46563,0.89279 -3.57322,2.12178 -5.35347,3.46961 -2.28224,1.72789 -4.1281,3.5616 -4.1281,3.5616 0,0 -1.23973,1.09358 -2.62164,3.01249 -0.5631,0.78193 -1.09773,1.68286 -1.57573,2.64044 -0.6293,1.26071 -1.12699,2.67394 -1.3291,4.02795 -0.17014,1.1397 -0.0963,2.24176 -0.0594,3.13252 0.0286,0.6909 0.26143,1.7608 0.62844,2.78911 0.33126,0.92812 0.748,1.83392 1.14884,2.56376 0.58804,1.07071 1.27671,1.97712 1.87265,2.72965 1.08296,1.36749 1.94505,2.17567 1.94505,2.17567 l 1.58162,-0.92901 c 0,0 -1.89478,-1.85466 -2.50353,-3.00863 -0.20633,-0.39112 -0.51033,-0.84981 -0.65189,-1.31954 -0.0766,-0.25424 -0.19171,-0.51561 -0.22971,-0.78589 -0.0455,-0.32356 -0.055,-0.69222 0.005,-0.98023 0.23996,-1.1559 0.59293,-1.85677 1.13659,-2.64901 0.75088,-1.09418 1.75658,-2.1383 2.75274,-3.09389 0.8009,-0.76829 1.84366,-1.49665 2.57725,-2.10788 3.98677,-3.3218 13.60517,-7.56643 13.60517,-7.56643 0,0 2.91897,-1.22851 6.22793,-2.45138 2.3849,-0.88138 4.97238,-1.70945 6.81556,-2.3104 6.45398,-2.10423 14.28654,-4.35203 19.57016,-5.63394 15.72741,-3.8158 35.47082,-6.38447 47.87169,-8.09286 13.10824,-1.80585 33.21207,-3.29102 49.87334,-4.08192 16.4632,-0.78151 49.44089,-0.65289 49.44089,-0.65289 0,0 10.51917,0.16569 15.7733,0.4028 10.31562,0.46552 22.66497,1.27498 30.91363,2.00178 15.5061,1.36625 30.99911,3.14079 46.33819,5.79005 12.06404,2.08362 24.15006,4.36434 35.86073,7.93427 4.82535,1.471 9.69511,2.91212 14.51174,4.73497 5.47241,2.07105 11.23229,4.63194 15.96179,7.13545 2.13503,1.13016 7.08694,5.06771 7.08694,5.06771 0,0 1.58439,1.50891 2.12743,2.44199 0.24713,0.42462 0.55634,0.88888 0.73121,1.37887 0.18824,0.52737 0.30114,1.15168 0.33055,1.64702 0.0223,0.37955 -0.005,0.92196 -0.12774,1.42215 -0.1202,0.49007 -0.33327,0.9373 -0.51862,1.3727 -0.40249,0.94538 -1.68342,2.58214 -1.68342,2.58214 l 2.10628,1.34774 c 0,0 1.76377,-1.65761 3.23,-4.19334 0.39694,-0.68645 0.80598,-1.41391 1.11272,-2.22496 0.3529,-0.93308 0.58717,-1.95759 0.79055,-2.83909 0.0887,-0.385 0.0999,-0.79116 0.12134,-1.16118 0.0299,-0.5196 0.0446,-0.99678 0.008,-1.49651 -0.089,-1.22006 -0.37506,-2.52813 -0.78254,-3.60276 -0.24144,-0.63671 -0.5029,-1.25609 -0.79601,-1.79686 -0.26741,-0.49332 -0.5646,-0.9124 -0.82658,-1.3952 -0.3689,-0.67976 -0.86976,-1.30244 -1.36673,-1.91452 -1.00443,-1.23716 -2.17585,-2.38524 -3.4901,-3.55352 -4.96333,-4.41207 -12.03594,-8.14599 -19.37087,-11.19123 -16.09585,-6.6825 -33.34441,-10.3302 -33.34441,-10.3302 0,0 -13.25554,-2.83589 -19.92356,-4.0444 -5.61037,-1.01683 -12.30027,-2.05213 -16.89144,-2.69672 -5.87064,-0.82421 -14.64228,-1.91016 -21.98936,-2.62607 -6.86879,-0.66931 -20.64514,-1.55979 -20.64514,-1.55979 0,0 -11.68574,-0.84803 -17.53672,-1.12688 -5.95923,-0.28401 -17.88935,-0.55608 -17.88935,-0.55608 l -20.531,-0.11205 c 0,0 -7.05422,0.11846 -10.5809,0.19825 -3.93641,0.089 -11.8081,0.31303 -11.8081,0.31303 z"
       id="path4145"
       inkscape:connector-curvature="0"
       sodipodi:nodetypes="cssssssscsscsssssssccssassascssssacasassscsasssccssssssssssscasacaccac" />
    <path
       style="opacity:1;fill:#6c7a89;fill-opacity:1;stroke:none;stroke-width:0.10690451;stroke-linecap:square;stroke-linejoin:miter;stroke-miterlimit:4;stroke-dasharray:none;stroke-dashoffset:0;stroke-opacity:1"
       d="m 771.27021,495.98468 a 141.92278,31.538396 0 0 1 -133.4684,20.92806 141.92278,31.538396 0 0 1 -133.4068,-20.86646 134.03818,31.538396 0 0 0 133.4068,28.75106 134.03818,31.538396 0 0 0 133.4684,-28.81266 z"
       id="ellipse4163"
       inkscape:connector-curvature="0" />
    <path
       style="opacity:1;fill:#cc353c;fill-opacity:1;stroke:none;stroke-opacity:1"
       d="m 795.4938,188.20812 a 189.23047,47.307596 0 0 1 -63.07679,14.79902 l 0,18.23313 0,35.4807 0,86.73059 31.53839,-22.08303 31.5384,22.08303 0,-155.24344 z"
       id="path4160"
       inkscape:connector-curvature="0" />
    <path
       style="opacity:1;fill:#e94d57;fill-opacity:0.9285714;stroke:none;stroke-opacity:1"
       d="m 787.6092,190.91847 a 189.23047,47.307596 0 0 1 -43.73485,10.30233 c -0.99449,0.19159 -2.38147,0.41079 -3.57274,0.70804 l 0,19.31111 0,35.4807 0,70.9614 23.65379,-15.7692 23.6538,15.7692 0,-136.76389 z"
       id="rect4196-3"
       inkscape:connector-curvature="0" />
    <path
       style="fill:#000000;fill-opacity:1;fill-rule:evenodd;stroke:#000000;stroke-width:0.03179436;stroke-linecap:butt;stroke-linejoin:miter;stroke-miterlimit:4;stroke-dasharray:none;stroke-opacity:1"
       d="m 820.84732,171.89052 c 0,0 -1.05107,1.19169 -1.62876,1.73541 -0.67909,0.63912 -1.561,1.33655 -2.15216,1.78748 -1.12106,0.85512 -2.43626,1.70424 -3.7032,2.48022 -0.56663,0.34707 -1.15357,0.67636 -1.73771,1.00161 -0.51462,0.28656 -1.03038,0.56304 -1.55649,0.83668 -1.41361,0.73528 -2.85042,1.42715 -4.30375,2.08039 -1.62084,0.72851 -3.30739,1.43162 -4.92144,2.04929 -1.02848,0.39359 -1.95006,0.78435 -2.93313,1.15561 -1.02588,0.38742 -2.19615,0.76458 -3.09382,1.11835 -1.2676,0.49956 -5.53112,1.89668 -10.47362,3.30726 -2.25448,0.64341 -4.63099,1.32037 -6.9639,1.91474 -2.30837,0.58812 -4.64123,1.18217 -6.97205,1.73107 -2.60325,0.61303 -5.20631,1.17301 -7.83134,1.74459 -2.87795,0.62667 -8.66326,1.73978 -8.66326,1.73978 0,0 -6.41097,1.17531 -9.62716,1.69996 -4.91229,0.80134 -10.818,1.67792 -14.76704,2.21117 -4.69781,0.63438 -9.87961,1.25146 -14.82925,1.79161 -4.33228,0.47279 -9.35095,0.93568 -13.0123,1.26838 -8.62134,0.78341 -21.55596,1.50824 -32.34776,2.0069 -3.58508,0.16565 -8.94034,0.32195 -13.41139,0.45558 -3.48383,0.10412 -10.45267,0.26975 -10.45267,0.26975 0,0 -8.34312,0.0857 -12.51436,0.0416 -4.91078,-0.0519 -10.77328,-0.24221 -14.72871,-0.36046 -5.52103,-0.16505 -11.59628,-0.36371 -17.39003,-0.64754 -4.98711,-0.24432 -10.72315,-0.61604 -14.95168,-0.90839 -5.97252,-0.41293 -14.81418,-1.18953 -22.20186,-1.98195 -3.02794,-0.32478 -7.54539,-0.83688 -11.31139,-1.31074 -3.40268,-0.42816 -10.195,-1.38448 -10.195,-1.38448 0,0 -9.25292,-1.40054 -13.86112,-2.20979 -2.09318,-0.36758 -4.38744,-0.78303 -6.57611,-1.20149 -2.5771,-0.49272 -5.56504,-1.08188 -7.71893,-1.5415 -4.33221,-0.92447 -9.10688,-2.0388 -13.57396,-3.14706 -2.07076,-0.51376 -4.07935,-1.07991 -5.94226,-1.59496 -0.64398,-0.17806 -1.26017,-0.34626 -1.88742,-0.5293 -0.18837,-0.055 -0.37569,-0.11348 -0.56335,-0.17087 -0.58071,-0.1776 -1.1597,-0.36084 -1.74091,-0.53681 -0.83904,-0.25402 -1.74395,-0.50195 -2.52099,-0.74916 -2.08018,-0.66181 -4.32797,-1.35879 -6.21009,-2.07871 -4.18539,-1.60091 -8.43104,-3.06948 -12.41338,-5.11003 -1.82242,-0.93379 -3.70716,-1.85803 -5.46215,-2.95623 -1.61523,-1.01073 -3.11771,-2.16789 -4.64498,-3.33156 -0.71913,-0.54792 -1.99254,-1.84016 -1.99254,-1.84016 l -1.59243,0.92399 c 0,0 1.05321,0.99203 1.60114,1.46402 0.71263,0.61387 1.59566,1.32679 2.19149,1.77748 1.71108,1.29427 3.93215,2.67415 5.35548,3.57007 2.32022,1.46048 5.12279,2.68341 7.28174,3.82406 2.97722,1.57298 9.31349,3.91153 9.31349,3.91153 0,0 11.25603,3.87406 16.98556,5.47326 2.94812,0.82285 7.297,1.94698 10.97065,2.81865 3.80073,0.90183 11.45036,2.49383 11.45036,2.49383 0,0 17.29738,3.17895 26.00537,4.38157 5.16553,0.71338 10.83657,1.44069 16.26969,2.03438 6.41199,0.70064 14.00184,1.30159 19.26633,1.80246 10.00669,0.95205 22.06629,1.20584 30.10672,1.71653 2.34459,0.14893 5.55901,0.186 8.33937,0.24552 2.05515,0.0439 5.07939,0.10654 7.61938,0.14111 2.79128,0.0379 8.37429,0.0728 8.37429,0.0728 0,0 6.90122,0.006 10.35152,-0.0335 4.48523,-0.0512 9.86097,-0.15344 13.454,-0.2635 10.02181,-0.307 22.03071,-0.8469 30.0438,-1.46641 7.50422,-0.58017 10.48347,-0.75853 15.71479,-1.25667 4.87978,-0.46466 8.27419,-0.82942 14.61655,-1.61542 5.79513,-0.71819 11.58804,-1.48696 17.3624,-2.36648 4.34931,-0.66247 8.68163,-1.44817 13.01519,-2.19186 4.78653,-0.82142 14.27504,-2.91184 14.27504,-2.91184 0,0 20.96201,-5.0456 30.98566,-8.94169 0.66566,-0.25874 1.36127,-0.49751 2.0322,-0.77104 3.14467,-1.2821 6.31891,-2.57559 9.33713,-4.0762 1.49997,-0.74577 3.08697,-1.56535 4.588,-2.42529 0.73019,-0.41834 1.4984,-0.85643 2.22637,-1.32247 0.72655,-0.46515 1.41294,-0.95829 2.06281,-1.3324 0.41977,-0.24166 0.86497,-0.59091 1.35562,-0.95593 0.85562,-0.63655 1.79655,-1.37406 2.60187,-2.05275 0.80575,-0.67906 2.31189,-2.15597 2.31189,-2.15597 z"
       id="path4151"
       inkscape:connector-curvature="0"
       sodipodi:nodetypes="cassasasasssascasassacasassacsasssaaasssasccassscsacsasssacassasascsasssssscc" />
    <path
       style="fill:#000000;fill-opacity:1;stroke:none;stroke-width:0.57335305"
       d="m 611.15778,280.37477 -18.07505,33.15237 28.92016,16.98737 15.79892,-27.9487 5.4895,9.72692 -5.08785,8.90557 29.45567,0 16.06676,-28.35924 -7.09621,4.11213 -9.23831,-16.57642 -50.34245,0 -4.82002,0 -1.07112,0 z m 78.59305,51.23318 -28.92007,17.12432 15.79892,28.08541 -10.97891,0 -5.08778,-9.04111 -14.7278,26.0281 16.06669,28.49288 0,-8.22048 18.74453,0 25.17118,-44.51953 2.41002,-4.24711 0.53614,-1.09754 -19.01229,-32.60494 z m -120.63436,10.13833 7.09614,4.11151 -9.37219,16.57555 25.17127,44.52039 2.27605,4.24854 0.66939,1.09485 37.08735,-0.54876 0,-34.24542 -31.73181,0 5.48949,-9.72629 10.17563,0 -14.72788,-26.03037 -32.13344,0 z"
       id="path3802"
       inkscape:connector-curvature="0" />
  </g>
</svg>
