<?xml version="1.0" encoding="UTF-8" standalone="no"?>
<svg
   height="22"
   width="22"
   version="1.1"
   id="svg7"
   sodipodi:docname="slack-panel.svg"
   inkscape:version="1.2.2 (b0a8486541, 2022-12-01)"
   xmlns:inkscape="http://www.inkscape.org/namespaces/inkscape"
   xmlns:sodipodi="http://sodipodi.sourceforge.net/DTD/sodipodi-0.dtd"
   xmlns="http://www.w3.org/2000/svg"
   xmlns:svg="http://www.w3.org/2000/svg">
  <sodipodi:namedview
     id="namedview9"
     pagecolor="#ffffff"
     bordercolor="#000000"
     borderopacity="0.25"
     inkscape:showpageshadow="2"
     inkscape:pageopacity="0.0"
     inkscape:pagecheckerboard="0"
     inkscape:deskcolor="#d1d1d1"
     showgrid="false"
     inkscape:zoom="27.995"
     inkscape:cx="4.0007144"
     inkscape:cy="12.752277"
     inkscape:window-width="1920"
     inkscape:window-height="1015"
     inkscape:window-x="0"
     inkscape:window-y="32"
     inkscape:window-maximized="1"
     inkscape:current-layer="svg7" />
  <defs
     id="defs3">
    <style
       id="current-color-scheme"
       type="text/css">
      .ColorScheme-Text {
        color:#232629;
      }
    </style>
  </defs>
  <circle
     style="color:#4285f4;fill:currentColor"
     class="ColorScheme-Highlight"
     cx="16.689764"
     cy="5.5"
     r="2"
     id="circle237" />
  <path
     style="color:#dfdfdf;fill:currentColor"
     class="ColorScheme-Text"
     d="m 9.1897644,3.5 a 1.5,1.5 0 0 0 -1.5,1.5 1.5,1.5 0 0 0 1.5,1.5 H 10.689764 V 5 A 1.5,1.5 0 0 0 9.1897644,3.5 Z m 3.9999996,0 a 1.5,1.5 0 0 0 -1.5,1.5 v 4 a 1.5,1.5 0 0 0 1.5,1.5 1.5,1.5 0 0 0 1.5,-1.5 V 7.7324 a 3,3 0 0 1 -1,-2.2324 3,3 0 0 1 0.484,-1.62891 1.5,1.5 0 0 0 -0.984,-0.37109 z m -7.9999996,4 a 1.5,1.5 0 0 0 -1.5,1.5 1.5,1.5 0 0 0 1.5,1.5 h 4 A 1.5,1.5 0 0 0 10.689764,9 1.5,1.5 0 0 0 9.1897644,7.5 Z M 18.320764,8.0156 a 3,3 0 0 1 -1.631,0.4844 3,3 0 0 1 -0.859,-0.127 1.5,1.5 0 0 0 -0.141,0.627 v 1.5 h 1.5 a 1.5,1.5 0 0 0 1.5,-1.5 1.5,1.5 0 0 0 -0.369,-0.9844 z M 5.1897644,11.5 a 1.5,1.5 0 0 0 -1.5,1.5 1.5,1.5 0 0 0 1.5,1.5 1.5,1.5 0 0 0 1.5,-1.5 v -1.5 z m 4,0 a 1.5,1.5 0 0 0 -1.5,1.5 v 4 a 1.5,1.5 0 0 0 1.5,1.5 A 1.5,1.5 0 0 0 10.689764,17 V 13 A 1.5,1.5 0 0 0 9.1897644,11.5 Z m 3.9999996,0 a 1.5,1.5 0 0 0 -1.5,1.5 1.5,1.5 0 0 0 1.5,1.5 h 4 a 1.5,1.5 0 0 0 1.5,-1.5 1.5,1.5 0 0 0 -1.5,-1.5 z m -1.5,4 V 17 a 1.5,1.5 0 0 0 1.5,1.5 1.5,1.5 0 0 0 1.5,-1.5 1.5,1.5 0 0 0 -1.5,-1.5 z"
     id="path239" />
</svg>
