<?xml version="1.0" encoding="UTF-8" standalone="no"?>
<svg
   width="24"
   height="24"
   version="1.1"
   id="svg11"
   sodipodi:docname="anydesk-panel.svg"
   inkscape:version="1.2 (dc2aedaf03, 2022-05-15)"
   xmlns:inkscape="http://www.inkscape.org/namespaces/inkscape"
   xmlns:sodipodi="http://sodipodi.sourceforge.net/DTD/sodipodi-0.dtd"
   xmlns="http://www.w3.org/2000/svg"
   xmlns:svg="http://www.w3.org/2000/svg">
  <sodipodi:namedview
     id="namedview13"
     pagecolor="#ffffff"
     bordercolor="#000000"
     borderopacity="0.25"
     inkscape:showpageshadow="2"
     inkscape:pageopacity="0.0"
     inkscape:pagecheckerboard="0"
     inkscape:deskcolor="#d1d1d1"
     showgrid="false"
     inkscape:zoom="25.662084"
     inkscape:cx="10.229099"
     inkscape:cy="15.957395"
     inkscape:window-width="1920"
     inkscape:window-height="1048"
     inkscape:window-x="0"
     inkscape:window-y="0"
     inkscape:window-maximized="1"
     inkscape:current-layer="svg11" />
  <defs
     id="defs3">
    <style
       id="current-color-scheme"
       type="text/css">.ColorScheme-Text { color:#dedede; } .ColorScheme-Highlight { color:#4285f4; }</style>
  </defs>
  <g
     transform="matrix(1.2797262,0,0,1.2797262,1.0994724,2.0185578)"
     stroke-width="0.90952"
     id="g721">
    <path
       d="m 6.8671,2.1935 c -0.28585,0 -0.57181,0.10672 -0.78549,0.3204 l -4.3512,4.3512 c -0.42738,0.42736 -0.42673,1.143 6.614e-4,1.5703 l 4.3512,4.3512 c 0.42738,0.42736 1.143,0.428 1.5703,6.62e-4 l 4.3511996,-4.3512 c 0.42738,-0.42736 0.42738,-1.1436 0,-1.571 l -4.3511996,-4.3512 c -0.21368,-0.21368 -0.49964,-0.3204 -0.78549,-0.3204 z m 0.00324,1.8184 c 0.073931,0 0.14748,0.027973 0.20412,0.084621 l 3.3493,3.3493 c 0.1133,0.1133 0.1133,0.2956 0,0.4089 l -3.3493,3.3487 c -0.1133,0.1133 -0.2956,0.1133 -0.4089,0 l -3.3487,-3.3487 c -0.1133,-0.1133 -0.1133,-0.2956 0,-0.4089 l 3.3487,-3.3493 C 6.72221,4.039871 6.7964,4.0119 6.87033,4.0119 Z"
       fill="#8e8e8e"
       id="path717" />
    <path
       d="m 10.505,2.1934 c -0.28585,0 -0.57191,0.10655 -0.7856,0.32023 l -4.3511,4.3517 c -0.42738,0.42736 -0.42676,1.1426 6.085e-4,1.5699 l 4.3511,4.3517 c 0.4273805,0.42736 1.1432005,0.42796 1.5706005,6.09e-4 l 4.3512,-4.3517 c 0.42738,-0.42736 0.42738,-1.1432 0,-1.5705 l -4.3511,-4.3517 c -0.21368,-0.21368 -0.49974,-0.32023 -0.7856,-0.32023 z"
       fill="#e52e38"
       id="path719" />
  </g>
</svg>
